ax,roll,yaw,pitch,ay,az
-0.72466200590134,-0.17895351462832,-0.058864465931364,-0.43631074671436,0.11892043054104,-0.74045020341873
-0.30814471840858,-0.35460347557074,-0.54920833688593,-0.49855339082444,0.22338259220123,-1.1157137155533
0.18896622955799,-0.55083252824384,-0.85495979562147,-0.15348581229757,0.58156740665436,-1.2346949577332
0.6622371673584,-0.90299489682824,-0.63378625203163,0.39328347336242,0.87808108329773,-0.6885444521904
0.80986571311951,-1.5633672881125,-0.029822596363586,0.37490441897727,0.53039866685867,-0.52581709623337
-0.13052617013454,-1.6309133966478,0.36294748803577,0.066311001535635,-0.0024173946585506,-0.11013503372669
-1.2769860029221,-1.3883547138935,0.73686889572786,0.20426751608347,0.36872825026512,0.67683529853821
-0.40619507431984,-1.347697513588,0.7852046158624,0.66891192480866,0.46769744157791,0.14651826024055
0.54540413618088,-1.5792436816537,0.90674406232797,1.0469549368102,0.67892283201218,0.074815183877945
-0.20781317353249,-1.6345319201859,0.94482819861639,1.0257303635469,0.63164335489273,0.34498307108879
-0.41056263446808,-1.4272437368974,0.64993671623265,1.1257271246947,0.64484465122223,0.56433689594269
0.87640374898911,-0.36888285196155,-0.79323728243479,1.2267754813573,0.38481131196022,-0.62221133708954
0.34354245662689,-0.29046841500046,-1.0816996195249,1.0421078920767,0.25278210639954,-1.2478225231171
