ax,roll,yaw,pitch,ay,az
0.80629938840866,-0.99393778550682,0.61910772678524,1.0545152390324,0.98677223920822,0.31737458705902
0.84492266178131,-1.0431403988581,0.73803362898524,0.71271707477513,0.7815163731575,0.32412552833557
-1.0403761863708,-1.003353342645,0.81944206237928,0.064004748447527,0.14072801172733,-0.88760370016098
-2.2141134738922,-1.0091315319982,0.95992540779548,-0.23315423493334,-0.2140035033226,-0.82010215520859
-0.53815406560898,-1.029663946853,0.96285904024495,-0.13993349094662,0.08797025680542,0.01309312786907
0.06175671890378,-1.2074269668009,0.91956744987435,0.13931687496669,0.292400598526,0.096107237040997
0.59328615665436,-1.1555804653512,0.75686535715688,0.55874449625441,0.7402355670929,0.420150578022
0.61057531833649,-0.80889235181341,0.22107529002082,0.81326045520691,0.86091554164886,0.49120447039604
0.28212067484856,-0.25223395698196,-0.55293559294308,0.70004311028453,1.1449372768402,0.38427510857582
0.24207431077957,-0.28520778166133,-1.0799029968527,0.28511967901743,1.6082071065903,-0.041128247976303
0.47394153475761,-0.64401500514333,-1.2549875994785,-0.29460942090887,1.570351600647,-1.1563782691956
-0.76684015989304,-0.77978467918335,-0.77554171055056,-0.80774386430361,0.84457677602768,-1.9475564956665
-0.96073681116104,-0.37401095478841,0.01084303320979,-0.73125721629489,0.21715800464153,-0.68888062238693
