ax,roll,yaw,pitch,ay,az
-0.64948737621307,-0.68753662399335,-0.19754222982416,-0.504034619612,0.33928802609444,-0.16113913059235
-0.24819380044937,-0.84623749158795,-0.67651311381348,-0.52899185211658,0.48164963722229,-0.6214388012886
-0.18437969684601,-1.0096411444493,-0.97017829466193,-0.29201694189458,0.65689408779144,-1.3599629402161
-0.34656807780266,-1.1479386284451,-0.91171504524224,0.16228670462524,1.2162932157516,-1.7516248226166
0.80006033182144,-1.3507825043275,-0.53025404193242,0.71873985650946,1.3407487869263,-0.38284626603127
1.2438086271286,-1.871662039384,0.1216878244831,0.89721607823567,1.1435014009476,-0.22233346104622
0.68779939413071,-1.9150289681431,0.28727921800607,0.58482879572764,0.5700010061264,-0.3609020113945
-1.2074029445648,-1.7403871322065,0.41224583664466,0.22816821152898,0.020962864160538,-0.12814983725548
-1.4532486200333,-1.639156003678,0.51416199012419,0.18158991015549,-0.14713469147682,-0.58148074150085
-0.56655937433243,-1.7833198407772,0.77031361410226,0.43516818338691,0.31754374504089,-0.56059241294861
0.22855734825134,-2.1641769314793,1.2205991051474,0.75175561815459,0.69187921285629,-0.2705574631691
0.39734670519829,-2.4446621705605,1.4905856555504,0.86224132475678,0.73276799917221,-0.015994044020772
-0.19871227443218,-2.5070259180063,1.4481745304418,0.94404285324487,0.51447993516922,0.64260441064835
0.097748681902885,3.1389826820225,1.6986791896531,1.3109679599633,0.70894205570221,-0.41365200281143
0.28387868404388,0.92944567020182,-2.5569299726264,1.3189928529745,0.42726591229439,-1.8124556541443
-0.03143584728241,0.75605238608416,-2.4805338008596,1.3638071808782,0.16526913642883,-0.77244478464127
-0.065189391374588,0.59219235217763,-2.2425900453247,1.4086849080787,0.19785672426224,-0.40882137417793
