ax,roll,yaw,pitch,ay,az
0.5098340511322,1.0878181203679,0.14751116133193,-0.25706712291267,0.056683201342821,-0.01441933773458
0.046142145991325,1.2135889909815,0.32256368093632,-0.10484271074749,0.17165541648865,-0.39475345611572
-1.9170815944672,1.3717603587441,0.49933593350652,0.62869289889425,0.022002266719937,-0.40229111909866
-1.7948845624924,1.5172473421559,0.45598297704278,0.97007051226223,-0.22011835873127,-0.0662582218647
-1.3210685253143,1.6314658042554,0.40313177802385,1.0487002325581,-0.12036108970642,-0.038186997175217
-1.0048198699951,1.5950652885702,0.45472360343906,1.0197193598792,0.10295294970274,-0.20942243933678
-0.67550379037857,1.4946833313647,0.50721901615511,0.96647816642888,0.44035190343857,-0.013068749569356
-0.56824570894241,1.3273247393504,0.71096089504051,0.95979120907683,0.61207109689713,0.19645282626152
-0.63360446691513,0.90489930657647,1.284358484214,0.8534398987634,0.83464670181274,-0.05625643953681
-0.80825281143188,0.51560167146346,1.8836130339164,0.46523924107838,0.81837230920792,-0.92999148368835
-1.4122023582458,0.29929775917357,2.2177364972906,0.27156467455449,0.46886163949966,-0.9922553896904
-1.4844225645065,0.23419607493625,2.3712596238082,0.2299272506394,0.34103536605835,-0.79271978139877
-1.2504690885544,0.2043913838571,2.3399104578888,0.4002204149584,0.55925333499908,-0.096120044589043
-1.0881514549255,0.2385479909295,2.1324572415981,0.59330571261254,0.65627282857895,0.33233681321144
-0.97454428672791,0.44162419913315,1.7247913531405,0.62328079954981,0.7444840669632,0.6076779961586
-0.59603708982468,0.66351627734267,1.3959967354433,0.25331791923301,0.69724208116531,0.60302084684372
-0.33761665225029,0.59732569111402,1.2872681594477,-0.17258475645382,0.79615098237991,0.46070793271065
-0.14911407232285,0.5178452925059,1.4429853757368,-0.6452147387718,1.1532992124557,-0.50430101156235
-0.88253778219223,0.60926031201248,2.0328615037899,-0.78950464760511,0.58708411455154,-1.2382428646088
-0.99661302566528,0.65455023866145,2.4400363307645,-0.52068727261647,0.62492954730988,-1.2576730251312
-1.1757992506027,0.65138712594588,2.5509815085985,-0.0091184038342141,1.1540439128876,-0.51983773708344
-1.1946994066238,0.68714068149866,2.5173856918108,0.4923968981438,1.201728105545,-0.14329911768436
-0.70705437660217,0.73137755287235,2.386551826918,0.80730458345544,1.0122972726822,0.28867688775063
