ax,roll,yaw,pitch,ay,az
-1.1300747394562,-0.38097576776219,0.13589422679544,0.67334723276883,0.20408101379871,-0.92846977710724
-0.95643877983093,-0.44924721479096,0.14019763005762,0.84546680356829,0.59013879299164,-0.46530869603157
-0.85361158847809,-0.1995360142317,-0.14553206680049,1.1988752941655,0.82649791240692,0.11889063566923
-0.87725174427032,1.0272690028358,-1.4339419091608,1.2832503953965,0.80933028459549,0.23693707585335
-0.30937907099724,1.5426165380719,-2.0428630016718,0.9566011944895,0.94000971317291,0.58763384819031
-0.059765372425318,1.3320860143456,-1.9779960054514,0.72431053015318,1.0089937448502,0.29728403687477
0.73346102237701,0.92905067328347,-1.6817792288834,0.55340594010886,0.83682137727737,-0.16309997439384
-0.12866587936878,0.52496456157434,-1.06318554104,0.47273183382275,0.32111915946007,-1.7101988792419
-1.0813310146332,0.32149079726136,-0.51073011661722,0.56641994899406,0.054177407175303,-1.141529083252
-1.3042049407959,0.22916427313871,-0.084456515691912,0.71017162373719,0.16211101412773,-0.44667762517929
-0.95663160085678,0.25376243213932,0.094724551397773,0.80303489845809,0.43406683206558,0.14677131175995
-0.99017065763474,0.29652479692574,0.12030262469047,0.76116918216777,0.53641760349274,0.10827947407961
-0.92274701595306,0.37289156065049,-0.027320111368556,0.57499299869615,0.56601524353027,-0.07661435008049
-0.9830510020256,0.39212732573664,-0.28296870512458,0.26764489168664,0.57761704921722,-0.5029833316803
-0.229287981987,0.33299374580816,-0.69469957730393,-0.032600464582299,0.65478324890137,-0.46333211660385
0.30995997786522,0.14930863925689,-1.0350284807608,-0.10657467336822,0.42370203137398,-0.21421568095684
0.16117140650749,0.12306756206129,-1.1082745697495,-0.10408705957081,0.044278893619776,-0.085154339671135
