ax,roll,yaw,pitch,ay,az
-0.68929094076157,-0.78788923638198,0.24024958733945,0.53888091913518,0.27039325237274,0.012427816167474
-1.0806772708893,-0.97578759546195,0.38990109218237,0.53866813712108,0.38994628190994,0.087801776826382
-0.5965970158577,-1.0324219639091,0.36492720910964,0.93610552808134,0.90558159351349,0.25299334526062
-0.54149812459946,-0.13725705047914,-0.61197884542995,1.3930612306527,0.93486922979355,0.41261029243469
-0.37369939684868,1.2499766896251,-2.0395921564327,1.0692888262849,0.7037478685379,0.59189355373383
-0.29779160022736,1.2376490175783,-2.0275131334899,0.69602197787182,0.58379697799683,0.48284181952477
-0.095949545502663,1.1550448344785,-1.9248273958528,0.36842154607728,0.35875481367111,0.32031854987144
0.62104874849319,1.1395517435783,-1.7532831901328,0.039303955775374,0.4077325463295,0.17759716510773
0.56266230344772,1.0868790176004,-1.4528862149957,-0.0077494072585661,0.22493197023869,-0.45393794775009
-0.5981730222702,0.87078332901519,-0.98844126379212,0.31966684070459,0.23086099326611,-0.34435671567917
-1.4114985466003,0.46893784836981,-0.32082672736931,0.35968189163074,0.37785542011261,-0.77797996997833
-1.4649928808212,0.35745877711292,-0.029519261056782,0.27084436504666,0.093457609415054,-0.59382128715515
-0.95795506238937,0.46103224366741,-0.14800733968318,0.10535079293166,0.17752845585346,-0.30267000198364
-0.51128166913986,0.56108366580679,-0.41573862530267,-0.064098613138632,0.20254683494568,0.012146067805588
-0.49063432216644,0.56443168693335,-0.66104885245072,-0.2874423160721,-0.017051437869668,-0.028470754623413
-0.025178404524922,0.2967017450747,-1.0114864361833,-0.5040048973811,-0.040538232773542,-0.30822005867958
0.26146906614304,0.10097999347807,-1.2813513375203,-0.5591726984018,-0.013456275686622,-0.33760851621628
-0.049977850168943,0.01542335032693,-1.305030337828,-0.4867620728019,-0.2561728656292,-0.19761289656162
