ax,roll,yaw,pitch,ay,az
-0.62787789106369,-0.32085813101515,0.11646686519891,0.68392304700972,-0.14590187370777,-0.90137428045273
-0.9279288649559,-0.44861076965248,0.15505678729369,0.79645614426554,0.0012900592992082,-0.61254489421844
-0.583869099617,-0.44435082030276,0.0038726917004265,1.0747905820109,0.65335524082184,0.048962872475386
-0.18650014698505,-0.041852458387351,-0.54510226058015,1.2607802742972,0.88152784109116,0.25121811032295
0.083247050642967,0.42012879274697,-1.1557122094498,1.2485199918162,0.78720098733902,0.39719974994659
0.50564086437225,0.47821959006127,-1.3474970585149,1.1170766690228,0.73616427183151,0.15130138397217
0.55459922552109,0.24689191000935,-1.2133407493105,0.99479194578565,0.77019470930099,0.12259766459465
0.49988240003586,-0.04542384581114,-0.90776913796267,0.77391069687173,0.72782236337662,-0.27226451039314
0.18593770265579,-0.19386132284004,-0.56767829947944,0.45578357614598,0.75260496139526,-0.89006757736206
-0.56231439113617,-0.19950252647608,-0.18201967676674,0.16428318381251,0.56356960535049,-0.84078633785248
-1.4086019992828,-0.15810179113247,0.19053849042475,0.037848714832965,0.37952974438667,-0.64521360397339
-1.1503756046295,-0.028167032620269,0.35989503510129,0.043272838158306,0.59745854139328,0.13215146958828
-1.0925844907761,0.046666294359324,0.34076159126986,0.054832562751096,0.48588114976883,0.3455545604229
-0.69131410121918,0.0055690765157134,0.098020789755983,-0.0083638720205886,0.53960984945297,-0.232441842556
0.14632333815098,-0.1107842332958,-0.25888729337693,-0.040926833612679,0.50245004892349,-0.24013210833073
0.70003074407578,-0.21794812035692,-0.51542674601789,-0.040150347524152,0.27236044406891,-0.24648956954479
0.53870928287506,-0.24590259181605,-0.62154741892476,-0.021533124251225,0.025236731395125,-0.026827847585082
0.076471142470837,-0.22492639894806,-0.63073753701481,-0.0050241124650831,0.053905352950096,0.049581546336412
-0.17342285811901,-0.18894791014796,-0.60498407670074,0.011265513349081,0.077625751495361,-0.043525222688913
