ax,roll,yaw,pitch,ay,az
-0.43085914850235,-0.79839538498831,0.28820161003732,0.68015320602895,0.038381781429052,-0.04550651088357
0.13383212685585,-0.79179911935812,0.1727836958788,0.83049697361043,0.55693119764328,0.45307418704033
0.53333497047424,-0.7014560472391,-0.050515508127792,0.91242756230877,0.72223520278931,0.44326812028885
1.2335926294327,-0.66744010995155,-0.22741114619661,0.86053985771543,0.67146378755569,0.14795762300491
1.0496467351913,-0.64275606672596,-0.27322606336641,0.61813783984183,0.3565266430378,-0.33854392170906
0.42916056513786,-0.52504070121541,-0.24305984840244,0.24865712367064,0.013787548057735,-0.95227974653244
-0.55815941095352,-0.38426275950328,-0.055684919093279,-0.062123850751068,-0.29577225446701,-0.92723715305328
-1.1452603340149,-0.23975165048727,0.1030728837949,-0.19403852285926,-0.075711987912655,-0.39294785261154
-0.96413213014603,-0.18356995945412,0.08274936952983,-0.23011798083298,-0.073383539915085,-0.12691730260849
-0.35615912079811,-0.23529200008104,-0.12880846990841,-0.21305635786866,0.11286216974258,-0.11979292333126
0.45328125357628,-0.38981457589085,-0.40330018628497,-0.14889281764466,0.22592428326607,-0.31164914369583
1.2575562000275,-0.5141310577841,-0.60709257175817,-0.073911480766611,0.079872831702232,-0.071842424571514
0.83080947399139,-0.56157695031223,-0.65691241016636,-0.07119451003119,-0.024656105786562,-0.19573633372784
