ax,roll,yaw,pitch,ay,az
-0.17780515551567,-0.96675390927792,0.20823474765603,0.40463551080784,0.029090235009789,0.10729777812958
0.32550844550133,-1.0154261696654,0.13980004660246,0.56246207602989,0.234793394804,0.2524122595787
0.72503674030304,-1.0337626863469,-0.0091630985823636,0.69101040668744,0.36660999059677,0.10715319961309
1.0687329769135,-1.0785002805792,-0.17119077553747,0.75124847623499,0.44909223914146,-0.092649176716805
1.4537355899811,-1.0243820351826,-0.32927886875362,0.67042877789382,0.45082029700279,-0.22039170563221
1.1910635232925,-0.89053584537897,-0.43210249473939,0.42960872100564,0.20167136192322,-0.64633220434189
0.51890271902084,-0.74422197337187,-0.44143703504592,0.094543199923958,-0.22395695745945,-0.87454259395599
-0.099217772483826,-0.57761259126518,-0.38681631904619,-0.16442829884334,-0.27747315168381,-0.79441124200821
-0.63203281164169,-0.44238549127127,-0.32784547385973,-0.28876797722689,-0.24045988917351,-0.40999180078506
-0.52873283624649,-0.41131332925973,-0.38827180392938,-0.28462762528052,-0.17868825793266,-0.16881977021694
0.019972026348114,-0.47436366175145,-0.59582979867301,-0.19719693136426,0.013978540897369,-0.14526554942131
0.92304438352585,-0.6110593917973,-0.81043601997321,-0.066733928712648,0.23028214275837,-0.27537277340889
1.2159488201141,-0.70132886176021,-0.92976389495497,0.0053458729796851,0.1989798694849,-0.36380258202553
