ax,roll,yaw,pitch,ay,az
0.046210527420044,-0.92640209558537,0.27959971720368,0.54664700696614,0.030705295503139,0.029302075505257
-0.49503567814827,-0.97525971975608,0.27178613938202,0.59755620142441,-0.094465434551239,-0.17757968604565
-0.22501331567764,-1.00579310123,0.19061319741977,0.79519801562872,0.33044210076332,0.14958897233009
0.50974678993225,-0.88397827484341,-0.083343938962565,1.0003999598532,0.86262208223343,0.18190470337868
1.0301201343536,-0.76245329876185,-0.42456194393435,1.0804505949819,1.094679236412,0.1029866039753
1.8061559200287,-0.74330779058516,-0.60857321323042,0.93686506508432,1.0246535539627,-0.41363236308098
0.94414794445038,-0.69760672325753,-0.50563470457949,0.52513805374243,0.36249274015427,-0.85905557870865
-0.5756448507309,-0.5589910793496,-0.2951084189933,0.12820506994158,-0.055800631642342,-1.1389951705933
-1.5174744129181,-0.47360498252772,-0.15778463464932,-0.00038554563892225,-0.17786051332951,-0.64254093170166
-0.83027940988541,-0.42294546934289,-0.32920560232649,0.072323838680935,0.21137519180775,-0.10270696878433
0.58422619104385,-0.44256507595085,-0.69587292134151,0.21236761589352,0.64305639266968,-0.11946772783995
1.7851492166519,-0.53737370670157,-0.97422280928677,0.3094212183809,0.5637389421463,-0.61925584077835
0.7533021569252,-0.60752883397422,-0.9769140692122,0.32439320835881,0.20487262308598,-0.22504249215126
0.3645561337471,-0.56356983424051,-0.94953307670605,0.32993086345707,0.20465388894081,-0.17951944470406
