ax,roll,yaw,pitch,ay,az
-0.75399887561798,-0.36578782129513,0.1214574669405,0.64379062393958,-0.075427606701851,-0.51050418615341
-0.66736620664597,-0.34946178999014,0.02006868229736,0.78937910197918,0.2954568862915,-0.12230993062258
-0.21281686425209,-0.12194034153596,-0.29452908225926,0.96292045875338,0.62472653388977,0.33438608050346
0.085272416472435,0.12594247346289,-0.67791407751468,1.0082306089404,0.69635331630707,0.47052490711212
0.59314173460007,0.12687680379689,-0.86525590718244,0.94656582366846,0.82043105363846,0.42958277463913
0.8125815987587,-0.061383911610601,-0.76481167465124,0.77566050939254,0.68936932086945,0.0075816693715751
0.6796755194664,-0.15386401497231,-0.55379109937979,0.46991209078426,0.45680570602417,-0.73872190713882
-0.45352354645729,-0.12198133143297,-0.23776475832181,0.20653557892587,-0.02898421138525,-1.1597051620483
-0.88870143890381,-0.057196198883344,0.044773684002155,0.16241472594831,0.19707149267197,-0.43484848737717
-0.94919186830521,-0.0052773455439818,0.15960705676227,0.13387647911274,0.39998695254326,-0.14351388812065
-0.87566304206848,0.033016120205542,0.12071952928182,0.11742117881724,0.35824039578438,0.25758746266365
-0.5954897403717,0.052430431455263,-0.093988865186249,0.03809169770865,0.38082540035248,0.15843915939331
0.10021751374006,-0.046571465226245,-0.40452708752327,-0.058107341576732,0.41693145036697,-0.26784586906433
0.52833616733551,-0.1585826821907,-0.67205423295221,-0.12544846236119,0.1790337562561,-0.47662171721458
0.47337234020233,-0.21555152237178,-0.81389032939009,-0.11668524785643,0.082965947687626,-0.072768069803715
0.27102905511856,-0.22935316877677,-0.86646537393384,-0.10190630642859,0.044678065925837,-0.067539103329182
0.084675565361977,-0.19099841313752,-0.85995511491984,-0.078186029260149,0.042270191013813,-0.083287507295609
