ax,roll,yaw,pitch,ay,az
-0.57701814174652,-0.90928687328705,0.23353292520808,0.48196185207462,-0.21296471357346,-0.060695193707943
-0.18753609061241,-1.0148461773625,0.17614554967838,0.68549275572743,0.27143648266792,0.24937111139297
0.33865457773209,-0.98916981488756,-0.026165650073816,0.90519390154235,0.61903393268585,0.36079278588295
0.49266219139099,-0.83649205355989,-0.35778589496582,1.0045877552456,0.57022875547409,0.26373183727264
1.0350780487061,-0.71700950765398,-0.68552213381781,1.007425541074,0.76207053661346,-0.12222009897232
1.2504024505615,-0.7413982473624,-0.78504485914932,0.86262213511863,0.58231991529465,-0.47537168860435
1.1256619691849,-0.73873476612182,-0.69503638537024,0.59110239890701,0.30459117889404,-0.75677311420441
0.3442095220089,-0.63221006731606,-0.50653436630725,0.24270262417097,-0.012801150791347,-1.022141456604
-1.0574120283127,-0.41690316785549,-0.21428839025675,-0.05566493262815,-0.25328329205513,-1.1002982854843
-1.2290614843369,-0.21452040305322,0.0064261618552865,-0.13767276789996,-0.12437511980534,-0.37820526957512
-0.83230793476105,-0.15077976298131,0.052258238953497,-0.14635180228566,0.014204266481102,0.22434681653976
-0.42588344216347,-0.20804590521433,-0.065006181800858,-0.18781780220369,0.055059995502234,0.15506203472614
-0.35852321982384,-0.33354603277079,-0.28686208008175,-0.22574190832934,0.011705158278346,-0.1191251128912
0.44162854552269,-0.52335219235361,-0.62048584024769,-0.19604820761475,0.1583393663168,-0.57741469144821
1.0377149581909,-0.65320971838223,-0.88918624890018,-0.09875596688564,0.012747858650982,-0.43775948882103
1.0962783098221,-0.72187580116986,-1.0015330412422,-0.033350838432029,0.031871426850557,-0.38688904047012
0.66511404514313,-0.71077956793861,-0.99622134864894,-0.010586832305341,-0.048260599374771,-0.29873806238174
