ax,roll,yaw,pitch,ay,az
-0.17149764299393,-1.6590936232848,0.68683787601571,0.63739544268182,0.010936799459159,0.063073888421059
0.095413386821747,-1.8759839882503,0.72492294584467,0.73926184778532,-0.043222092092037,-0.15410657227039
0.50838631391525,-2.2161568255925,0.72719810122844,0.90586661284624,-0.074642635881901,-0.7112073302269
0.6342579126358,-2.5603482420483,0.82848883283073,1.0587124613871,-0.0079591404646635,-1.1403323411942
0.70920521020889,-2.8432666901926,1.003261132648,1.0491575089065,0.31571894884109,-0.78534311056137
0.80909538269043,-2.8472893948612,0.96129498267853,0.99839877178834,0.61538499593735,-0.73886531591415
0.77755528688431,-2.405156163487,0.53550677864504,0.86217835805313,0.77270495891571,-0.81663292646408
0.1943095177412,-1.9765993411674,0.118088270907,0.48107194135813,0.63541340827942,-0.60668069124222
-1.1599332094193,-1.8257794495307,-0.12134527315448,-0.0087753090827417,0.25001385807991,-0.55715090036392
-1.3303763866425,-1.7952778699931,-0.2703180514173,-0.36100125617483,-0.25441047549248,-0.61975187063217
-0.81326824426651,-1.8567064874894,-0.3153220699204,-0.50247810094182,-0.38618561625481,-0.59577178955078
-0.22559016942978,-1.8512392386468,-0.29614844648252,-0.49826353659434,-0.36519950628281,-0.49723303318024
-0.19664059579372,-1.7829343741792,-0.25854141522563,-0.45549056813887,-0.35114255547523,-0.54462891817093
