ax,roll,yaw,pitch,ay,az
0.018161401152611,-1.4224727870276,0.5805005637003,0.68008000737039,-0.43948885798454,-0.20847709476948
0.37289193272591,-1.7510129057643,0.67985658635887,0.82929623981489,-0.22819626331329,-0.31176388263702
0.85029405355453,-2.0139918117973,0.71926790542166,0.97062014247993,0.078242115676403,-0.62723737955093
0.69907814264297,-2.2324326266127,0.73784711633254,1.0081992891626,0.040803771466017,-0.76802384853363
0.65791141986847,-2.4146141356213,0.80595696019724,1.0308212883828,0.089121043682098,-0.73364180326462
0.88750809431076,-2.4800515289065,0.85142413532852,1.0479646067775,0.29440248012543,-0.70840626955032
0.90353256464005,-2.3442842952824,0.7217167212217,0.97693179439255,0.57963889837265,-0.58876407146454
0.9407821893692,-2.04878089257,0.39583594828246,0.70922759515918,0.79104882478714,-0.51708537340164
-0.041501149535179,-1.852847098619,0.10400662372126,0.18630575266716,0.56418186426163,-0.6878314614296
-1.5540207624435,-1.8417050429442,-0.037657241854227,-0.35205984578561,0.048386953771114,-0.45286875963211
-1.6366275548935,-1.8104262876433,-0.19396301532459,-0.65649727936617,-0.31118214130402,-0.7859845161438
