ax,roll,yaw,pitch,ay,az
-0.050033498555422,-1.6579921755292,0.56957084544244,0.53377806920661,-0.12394671142101,-0.023060597479343
-0.1152565330267,-1.6771579097182,0.42179244453254,0.60541367662842,-0.15779589116573,-0.22030362486839
0.12310526520014,-1.6847773135931,0.23287370288915,0.73798007946019,-0.11184258013964,-0.61328816413879
0.44344392418861,-1.691598584089,0.05007088758342,0.92493938467654,-0.014022538438439,-0.95986115932465
0.51012545824051,-1.8664748795656,0.16911874378201,1.0800895892921,0.16410452127457,-0.52398991584778
0.54233032464981,-2.0292946185862,0.33436860743064,1.1593123222584,0.30326229333878,-0.36658743023872
0.50234735012054,-1.977487367319,0.2934665924275,1.1950160886141,0.4874267578125,-0.33528366684914
0.52349585294724,-1.600230234862,-0.063189577424481,1.0703475278014,0.60067963600159,-0.34256628155708
0.32278475165367,-1.2495087342025,-0.35090941483433,0.65967642744374,0.63770252466202,-0.4091582596302
-0.36665514111519,-1.1596387510232,-0.41120262776272,0.11123326822701,0.30659118294716,-0.85235673189163
-0.88432818651199,-1.1840267235067,-0.37879476610023,-0.23726078463294,-0.22930371761322,-0.8944463133812
-0.17386685311794,-1.1155176474894,-0.36576116839757,-0.27370035569087,-0.25244310498238,-0.49382993578911
0.31103697419167,-1.1049205203278,-0.34756856909289,-0.22065358345677,-0.073069669306278,-0.30697074532509
