ax,roll,yaw,pitch,ay,az
-0.41245144605637,-1.2910369621349,0.33345524972183,0.45145257640115,-0.12254958599806,-0.18197447061539
-0.04935909435153,-1.3856413648534,0.21269944065786,0.55637868906196,-0.044044278562069,-0.43941706418991
0.1141699925065,-1.5721119171625,0.087602225634261,0.70830623001863,-0.019724477082491,-0.88872504234314
0.040559343993664,-1.8936099188364,0.097122090285973,0.86295675128841,-0.20535005629063,-0.95766872167587
0.32570266723633,-2.2141610241,0.20361980789606,1.0850415539158,0.0043331948108971,-0.98995923995972
0.59999644756317,-2.8092866765554,0.66319494274866,1.2592539788621,0.38429597020149,-0.66794699430466
0.55925410985947,3.0661123998313,0.8616415358684,1.2252880259322,0.55932694673538,-0.54399418830872
0.5033632516861,-3.0061614748434,0.5031860453921,1.2442449649912,0.63840788602829,-0.68989628553391
0.28963646292686,-2.2612479533324,-0.24250665228245,1.1724710326148,0.84640967845917,-0.76036834716797
0.16269752383232,-1.7475418597553,-0.71155848713534,0.88748375631706,0.9767490029335,-0.81741654872894
-0.10820899158716,-1.4306780901741,-0.93973209556368,0.45180134865687,1.034471988678,-0.9106537103653
-0.269890666008,-1.3389996350408,-0.98227895203544,-0.005036441622237,0.87829488515854,-0.75895440578461
-0.70875710248947,-1.3480391116357,-0.94717900881615,-0.43771273425064,0.58125799894333,-0.68050795793533
-0.74191600084305,-1.4023385005811,-0.89476795352044,-0.75025852497056,0.20627941191196,-0.58433842658997
-0.48263791203499,-1.3774835237281,-0.83323817019489,-0.86652350899039,0.019030058756471,-0.23549056053162
0.13323840498924,-1.301167391664,-0.83188127689854,-0.790305442613,0.03520505875349,-0.33947312831879
