ax,roll,yaw,pitch,ay,az
-0.085110105574131,-1.791703257897,0.5503817181219,0.4501596351293,-0.10447201877832,-0.10713700205088
-0.011675561778247,-1.9259139025256,0.51415470113603,0.53445805673232,-0.24154077470303,-0.28050461411476
-0.0041629332117736,-2.1196177724344,0.44358815950856,0.66289360971387,-0.24270831048489,-0.55160892009735
-0.007970611564815,-2.3153684217291,0.38398661395465,0.85563178258289,-0.19197510182858,-0.89836275577545
0.42819646000862,-2.6485594423014,0.48520158509191,1.0568798472969,0.099677175283432,-1.0821373462677
0.41724178195,-2.9715839693266,0.65199832107109,1.1268552333923,0.22891741991043,-1.0119633674622
0.43172168731689,-3.0753091583694,0.67845077268122,1.1156155236912,0.34628641605377,-0.70513880252838
0.58045470714569,-2.9151006117907,0.48728538605594,1.1150242820696,0.57710546255112,-0.61371326446533
0.5801745057106,-2.4170900976984,-0.013458372642494,1.0702309817056,0.85156977176666,-0.86941963434219
0.28750306367874,-1.8288044573397,-0.56525549778898,0.80865884739398,0.95163327455521,-1.0102527141571
-0.35254910588264,-1.5160310714538,-0.81623905443725,0.32727925486285,0.90386533737183,-0.90760970115662
-0.6555004119873,-1.3819356676797,-0.96113873563096,-0.1341751679408,0.58393949270248,-1.3571145534515
-0.61291891336441,-1.3441238709528,-0.94882780076115,-0.43724566990866,0.18179397284985,-0.899662733078
-0.42783471941948,-1.2506037338511,-0.88362825350419,-0.55459522648291,-0.014773684553802,-0.55714952945709
0.17726619541645,-1.1792388914049,-0.86431208322167,-0.5134729985038,0.033834360539913,-0.52609014511108
