ax,roll,yaw,pitch,ay,az
-0.30858832597733,-1.7448702991273,0.52626972185518,0.4493770602923,-0.18209633231163,0.20772282779217
-0.011368967592716,-1.9484457416788,0.55173991310491,0.56391588304534,0.012588248588145,-0.067442923784256
0.12346934527159,-2.1913997227445,0.51502769033014,0.68617715704534,-0.11792643368244,-0.27208563685417
0.22703216969967,-2.4150523714919,0.43235871505246,0.87397768485161,-0.17656309902668,-0.70505857467651
0.30802270770073,-2.6653876581306,0.45901061332087,1.0472585925975,-0.0020928462035954,-1.1535671949387
0.39109733700752,-2.8827337128745,0.57302219665942,1.1126987585997,0.14080718159676,-0.93858617544174
0.45110714435577,-2.9400337189246,0.59830387976674,1.1133370811421,0.34093368053436,-0.73254865407944
0.59337294101715,-2.8089983817725,0.45016052503923,1.0759071637687,0.69709897041321,-0.60372269153595
0.59206181764603,-2.4119858721007,0.052504153553406,0.97378615961861,0.8373960852623,-0.67152047157288
0.16626305878162,-2.0142184383153,-0.35949702813707,0.68140866603985,0.76268500089645,-0.8405025601387
-0.64312088489532,-1.7528249430378,-0.6041768449343,0.2395069166796,0.57219988107681,-0.69857805967331
-1.1840144395828,-1.671754110671,-0.75140210655925,-0.22016358618996,0.31205204129219,-0.47745817899704
-1.1515208482742,-1.6969870377461,-0.90853635183537,-0.5354023674493,0.0025234010536224,-0.67616105079651
-0.67676556110382,-1.7254684838414,-0.98492003336651,-0.6537121555119,-0.19238124787807,-0.67965251207352
-0.37916779518127,-1.6788113165859,-0.91937492895363,-0.65180444998361,-0.12554277479649,-0.46938619017601
