ax,roll,yaw,pitch,ay,az
-0.68815875053406,-1.6917265272809,0.58702652009307,0.53773702237861,-0.33305165171623,0.12859791517258
0.88198506832123,-1.7046249446572,0.35275985907064,0.85292950783173,0.094580233097076,-0.95561075210571
0.88209253549576,-1.8390546714946,0.27983349956238,0.98436811953751,0.080557443201542,-1.0182745456696
0.7474422454834,-1.9223397543271,0.31586556479267,0.97859211697171,0.19139139354229,-0.52866792678833
0.71599584817886,-1.8903490782036,0.25714526411986,0.92311945120237,0.28914102911949,-0.43216297030449
0.83067983388901,-1.7601282742729,0.095716933857398,0.78162094961145,0.54390841722488,-0.46175199747086
0.63160651922226,-1.6135273838484,-0.1181097304466,0.45624030031671,0.70026540756226,-0.55339384078979
-0.75777554512024,-1.4661217049054,-0.32170023916654,-0.02136500090982,0.1218556240201,-1.0292835235596
-0.82442247867584,-1.4434433665447,-0.42977065370266,-0.29092630924451,-0.33844497799873,-1.1165635585785
-0.2395751029253,-1.4169605842361,-0.44651256291326,-0.32050201065758,-0.29607638716698,-0.72740644216537
