ax,roll,yaw,pitch,ay,az
-0.10523152351379,-1.3738330286558,0.084405623487016,0.11739277508255,-0.29695442318916,0.23163782060146
0.42213219404221,-1.5824536414555,-0.064207449767412,0.31124991657276,-0.58324712514877,-0.31384661793709
1.1936432123184,-1.774246394235,-0.27448043090012,0.62025879649646,-0.27048459649086,-1.6280210018158
1.0819519758224,-2.0868673525665,-0.16941194416256,0.73351318845765,-0.11838885396719,-1.0222152471542
0.91919958591461,-2.271029704132,-0.077897047814833,0.74282388907015,0.23360630869865,-0.51429504156113
1.2336970567703,-2.2552980997851,-0.14469420370096,0.73109672836094,0.68886566162109,-0.55793589353561
1.4283088445663,-1.9104549683062,-0.50151965443821,0.53860499105069,0.96707111597061,-0.8968830704689
0.50751119852066,-1.617603447774,-0.88510954022632,-0.03946261416533,0.64495009183884,-1.2716071605682
-1.8305418491364,-1.6430557228256,-1.116570762587,-0.59683446646736,0.10090635716915,-1.6519240140915
-1.0471459627151,-1.6380526347284,-1.2534405095899,-0.73000210018758,-0.29817309975624,-1.121780872345
