ax,roll,yaw,pitch,ay,az
-0.17747712135315,-0.79906865217862,0.19869508108089,0.46037489599391,-0.077139340341091,-0.095782496035099
-0.31118986010551,-0.80532674258875,0.15806194705426,0.50253103221726,-0.25442352890968,-0.32212361693382
0.24647095799446,-0.9427839599437,0.069350454034796,0.6886253144079,0.00010037970059784,-0.47486287355423
1.1976001262665,-1.085130745508,-0.061607082022804,0.92946540618301,0.36030596494675,-0.55038374662399
1.3678426742554,-1.1843133852913,-0.12778062514551,1.0848815897391,0.45378240942955,-0.71633011102676
1.1193585395813,-1.4831395748969,0.09772042130405,1.1028247193017,0.57020419836044,-0.26118516921997
0.74260759353638,-1.5318000064653,0.15925515498048,0.95949845861218,0.66834533214569,-0.085961908102036
0.70460551977158,-1.3777439926556,0.071491204320992,0.72905552573471,0.69239538908005,0.039998218417168
0.35827460885048,-1.180509052863,-0.14100465021059,0.4047394535618,0.47356748580933,-0.38987821340561
0.067642644047737,-1.1373408371065,-0.39375123574885,0.097624519010731,0.42342776060104,-1.0432637929916
-0.13414181768894,-1.1533416284037,-0.64727721076492,-0.1128612286937,0.27762174606323,-1.5881416797638
0.10584128648043,-1.1797881294129,-0.78187134967777,-0.18619741728524,0.027355249971151,-1.1340118646622
0.45876917243004,-1.1175983410818,-0.74493877071027,-0.19027186199534,0.026328267529607,-0.54489713907242
