ax,roll,yaw,pitch,ay,az
-0.32221695780754,-0.4044705255415,0.073187698785086,0.37712032282636,-0.23488949239254,-0.0095784040167928
-0.13783495128155,-0.47493015903478,-0.06312409566861,0.44543727858657,-0.22533644735813,-0.083973921835423
0.30385538935661,-0.5734146652698,-0.29301458194779,0.5824449915687,-0.071362011134624,-0.1678391546011
0.98764210939407,-0.66380740595059,-0.54511679012328,0.78369747341406,0.22219955921173,-0.21503338217735
0.99303954839706,-0.7138840073885,-0.70539801761388,0.88889124182283,0.35091260075569,-0.29513901472092
0.96396821737289,-0.64951177500267,-0.78350267296002,0.94278481585423,0.45134827494621,-0.020455418154597
0.98147195577621,-0.70529816585268,-0.68778988232373,0.90966874206304,0.67704153060913,-0.029096269980073
0.8650997877121,-0.85851531069835,-0.42327529581667,0.76866498741719,0.69534403085709,0.41871958971024
0.36139324307442,-0.73246601974358,-0.4100037529003,0.41641455973588,0.38835549354553,0.14738145470619
-0.12172023206949,-0.72249607841526,-0.46209573897537,0.028286784450328,-0.028845896944404,-1.1634726524353
0.20192474126816,-0.59282671240531,-0.60508181970858,-0.13780567467487,-0.31692010164261,-1.0754246711731
0.3444935977459,-0.61491424139789,-0.71741086719847,-0.25433608684942,-0.19328381121159,-0.82421517372131
0.26653563976288,-0.62000061847743,-0.70562542827234,-0.30382805484572,-0.23716339468956,-0.4512737095356
0.24794736504555,-0.59394261942738,-0.67625130879128,-0.3166694626747,-0.27202042937279,-0.26164516806602
