ax,roll,yaw,pitch,ay,az
-0.29070621728897,-0.69251760501552,0.15370199257442,0.42745762170545,-0.20594012737274,-0.058749258518219
-0.14082716405392,-0.79052763522739,0.066375355409423,0.49822059037466,-0.21158993244171,-0.072385631501675
0.39928752183914,-0.8470094531434,-0.13964339168042,0.62565144423784,-0.039221975952387,-0.22666914761066
0.53910595178604,-0.90743197018985,-0.3537695184842,0.76179294019699,0.05208208411932,-0.37579354643822
0.66059517860413,-0.82835797283771,-0.61197430368917,0.88830723511087,0.24278679490089,-0.39539742469788
0.78365921974182,-0.74489426103349,-0.81556156937255,1.0094630056647,0.38380807638168,-0.21347583830357
0.77071613073349,-0.81024853184821,-0.86273811771033,1.0574890888504,0.34144678711891,-0.17119184136391
0.76094156503677,-0.83840963285926,-0.83124103609366,1.0488219516915,0.41389456391335,-0.21074637770653
0.91895753145218,-0.84420415289504,-0.74185024075663,1.0050763791159,0.5312756896019,-0.25321927666664
0.67715203762054,-0.90835239499816,-0.5692105267902,0.85858426995235,0.57893967628479,-0.060631915926933
0.42881619930267,-0.80603339280381,-0.50668519883788,0.60485062046161,0.37654632329941,-0.067172221839428
0.060843724757433,-0.61340490338058,-0.56380630813062,0.30557267912803,0.14567275345325,-0.45822414755821
-0.10759398341179,-0.5598233356791,-0.63598946441856,0.073626683782576,-0.060595095157623,-0.57715737819672
0.11231075227261,-0.59319764171104,-0.75809679846884,-0.1204014299271,-0.14115260541439,-0.92184042930603
0.35192662477493,-0.63463523068832,-0.83452528606719,-0.2324896767618,-0.15622797608376,-0.85381352901459
0.37239554524422,-0.65587313607698,-0.79984709297563,-0.28273972966907,-0.1164968162775,-0.41369500756264
