ax,roll,yaw,pitch,ay,az
-0.49705550074577,-1.0315718572533,0.19892446003412,0.35224618886194,-0.42457008361816,-0.041875340044498
-0.26520857214928,-1.138140654015,0.13261554770848,0.43968081110542,-0.33207032084465,-0.050496857613325
0.60121071338654,-1.3138004121563,-0.014648914181687,0.61473043714154,-0.06439021974802,-0.5912299156189
1.0502105951309,-1.4969189210593,-0.11785817796786,0.78468261449345,0.044598065316677,-1.0725878477097
0.94614195823669,-1.5999710150721,-0.11071139455208,0.87520147713366,0.14541923999786,-0.73220998048782
1.0837891101837,-1.6021732335913,-0.075171346967023,0.90559221676027,0.43919560313225,-0.20710740983486
1.1123018264771,-1.4906288339212,-0.11886338329348,0.85803906918956,0.74398851394653,-0.065522193908691
1.044380903244,-1.2456168463909,-0.26703808078041,0.67945875843538,0.82687366008759,0.0098639912903309
0.48433592915535,-1.0318101788197,-0.4373793765568,0.33407133362292,0.58929032087326,-0.67850077152252
-0.37593188881874,-0.98919595347024,-0.55077893382522,-0.02487435869584,0.035766623914242,-1.6738610267639
-0.36974129080772,-0.94151638839614,-0.62157885000786,-0.20570690317643,-0.32187396287918,-1.2543971538544
0.027539661154151,-0.92303108304919,-0.66773799766131,-0.26642263937796,-0.26552504301071,-0.87573820352554
0.25539395213127,-0.91385210486609,-0.68724867431704,-0.2809696443995,-0.18898478150368,-0.65517550706863
0.47956749796867,-0.91462762131878,-0.68417621752208,-0.26032267948006,-0.085639409720898,-0.59812253713608
