ax,roll,yaw,pitch,ay,az
0.13744762539864,-0.40816320036403,0.11536191720534,0.5362235753033,-0.013322411105037,0.11159640550613
0.023505318909883,-0.43129729963484,0.1590855195498,0.51686647296981,-0.15229548513889,0.14017653465271
-0.16342712938786,-0.47052482239577,0.19154224184081,0.53926351427185,-0.1465452760458,0.11396028846502
-0.28705778717995,-0.46648042325518,0.15168196673572,0.5372998698329,-0.14064761996269,0.038332004100084
-0.30977326631546,-0.47401162632267,0.069374350415991,0.5549784722721,-0.030982064083219,-0.010977253317833
-0.1705881357193,-0.51251305743464,-0.070601777939207,0.61198229454691,-0.040514390915632,0.066600628197193
0.20127393305302,-0.54558761192625,-0.29432038197692,0.67573244281101,-0.04019570723176,-0.24687443673611
0.94703543186188,-0.58457054521944,-0.52097057757968,0.76684360724379,0.15158367156982,-0.41024228930473
1.0282826423645,-0.63209481523646,-0.6214745656057,0.839490979381,0.30608612298965,-0.21903394162655
0.8515340089798,-0.63679635312169,-0.59553984408763,0.85197535287136,0.39082726836205,0.17118956148624
0.64012461900711,-0.67654155207595,-0.48680411123642,0.78900591571128,0.50533807277679,0.2328250259161
0.6350439786911,-0.65564498361848,-0.40744126193558,0.68341458778437,0.57536840438843,0.16992390155792
0.39035305380821,-0.47545944125852,-0.4030473536722,0.44096823780677,0.30703377723694,-0.16271927952766
-0.15954850614071,-0.44008346706045,-0.33360092405823,0.15861880566712,-0.012898161076009,-0.64661937952042
-0.80048835277557,-0.43958158652331,-0.25137130330226,-0.11535800163486,-0.35352090001106,-1.1929273605347
-0.19677060842514,-0.36751566865671,-0.29469796007292,-0.26718907097473,-0.35143887996674,-0.8234931230545
-0.19731289148331,-0.32304244143053,-0.26635258038545,-0.31000334289036,-0.31717729568481,-0.23942965269089
-0.0070164883509278,-0.32109785540844,-0.25304814684224,-0.32115838549819,-0.18015263974667,-0.21183998882771
0.079798266291618,-0.33984483533674,-0.24160591690045,-0.30922662714619,-0.16175916790962,-0.36733829975128
