ax,roll,yaw,pitch,ay,az
-0.31337776780128,-0.92907220957571,0.37510222787449,0.73316869155918,-0.15196999907494,0.091811209917068
-0.00069312751293182,-0.98933001289507,0.29223358203952,0.81124177252278,-0.065689690411091,0.046364456415176
0.17625977098942,-1.0255439552475,0.10169187246907,0.92505058056278,-0.081994526088238,-0.25598913431168
0.81353163719177,-0.97604293921084,-0.20206693590178,1.0687138942896,0.23195947706699,-0.5852717757225
0.73046028614044,-0.9768078560681,-0.37074903341002,1.1203223299402,0.38051122426987,-0.39449200034142
0.96191841363907,-0.96150386062849,-0.44291148410066,1.1440406131706,0.51901704072952,-0.31357988715172
0.94883716106415,-1.0433924795374,-0.30304491029707,1.0779103349627,0.70325183868408,-0.23738218843937
0.83057034015656,-1.0996720394496,-0.10045265312787,0.8835072494686,0.65323305130005,0.018206674605608
0.36880344152451,-1.0127612611361,-0.019001624552395,0.54721829655226,0.4930157661438,0.07738035172224
-0.21191243827343,-0.89832994155362,-0.034385970264089,0.13736039848222,0.24488478899002,-0.22602863609791
-0.32070219516754,-0.82481467533976,-0.14215158348456,-0.21348219612338,0.14661040902138,-1.1578961610794
-0.25045102834702,-0.82667563323216,-0.21695057303095,-0.42631458688534,-0.039647195488214,-1.13241314888
-0.03225914016366,-0.86970531154147,-0.26581107302031,-0.5051507571299,-0.14563676714897,-0.78104954957962
0.049248103052378,-0.85704509667308,-0.24863157815796,-0.53300408415894,-0.19058756530285,-0.41467028856277
