ax,roll,yaw,pitch,ay,az
-0.72751617431641,-0.55118990544391,0.13764878953129,0.48310179074446,0.062749043107033,0.04182343184948
-0.60894626379013,-0.6559741714063,0.057770911571468,0.55763049945352,-0.047589816153049,0.35636627674103
0.54611718654633,-0.65933198938154,-0.24636135321299,0.65695479689098,0.0010891560232267,-0.3593912422657
1.3582211732864,-0.67616845114854,-0.45947793541967,0.77249433175043,0.099687702953815,-0.43435326218605
1.0248715877533,-0.76611101529866,-0.4561258181517,0.86529826287152,0.27891257405281,0.18778985738754
0.99014163017273,-0.92297789326206,-0.34692249881189,0.86467487041188,0.70656305551529,0.46104335784912
1.1513992547989,-0.95155931509128,-0.28736815873556,0.69499728934994,0.90832769870758,0.41116797924042
0.56443816423416,-0.79334772218806,-0.34312803979219,0.3289151435723,0.61485612392426,-0.34396758675575
-0.65121948719025,-0.66810280532364,-0.40075273127021,-0.10095703576095,-0.10078562796116,-1.2744796276093
-0.97951114177704,-0.67094006563671,-0.46048513625307,-0.35927151842615,-0.39395076036453,-1.0078737735748
-0.14462710916996,-0.63970046586888,-0.57149477328121,-0.4570950568923,-0.37072557210922,-0.71348357200623
0.038692981004715,-0.59627534487727,-0.56196237857063,-0.46959945706216,-0.31507796049118,-0.30869150161743
