ax,roll,yaw,pitch,ay,az
-0.078786849975586,-0.65345593154455,0.25641509851633,0.73605009505607,-0.038442585617304,-0.06342575699091
-0.14305521547794,-0.68628566472019,0.19546082312158,0.77592177300608,0.010997488163412,-0.15053254365921
-0.025868859142065,-0.73514471981244,0.077920291052207,0.84804996766801,0.032203298062086,-0.16128380596638
0.23976562917233,-0.73035578258396,-0.13813821200119,0.9335283246927,0.056379351764917,-0.27757099270821
0.6115061044693,-0.68002176416286,-0.37793093365306,1.0199454125283,0.15525634586811,-0.27908161282539
0.65976917743683,-0.64026331985029,-0.57422865563029,1.090818780601,0.19306606054306,-0.18115010857582
0.61127120256424,-0.63104044570161,-0.69704662307174,1.1407436920247,0.29488435387611,-0.06791502982378
0.65508079528809,-0.56994093457322,-0.774851890959,1.1277537687298,0.43694457411766,0.062176574021578
0.64306169748306,-0.57945667451487,-0.74972564119381,1.0478430172597,0.61405915021896,0.090199269354343
0.71664863824844,-0.62530385452889,-0.63265101325566,0.90837007433762,0.7725111246109,0.18744044005871
0.44185253977776,-0.54486440474124,-0.58834475597286,0.62666358654938,0.61397242546082,-0.27977281808853
-0.06198525801301,-0.62490328514624,-0.49013805739561,0.3605444141054,0.44743394851685,-0.40270021557808
-0.2514528632164,-0.62126998341014,-0.47274372872769,0.095999587226469,0.089611351490021,-0.90051931142807
-0.22601127624512,-0.57669637717123,-0.4526386789314,-0.074030444130211,-0.11635176092386,-0.65948033332825
-0.090870670974255,-0.52736412519847,-0.42157764156282,-0.17095389389725,-0.12285070121288,-0.39868885278702
-0.075158506631851,-0.48437324974238,-0.39611354914063,-0.21699698903572,-0.091045677661896,-0.31042376160622
0.14480756223202,-0.44872995725826,-0.39483314268934,-0.21454443757023,-0.007244368083775,-0.26327368617058
