ax,roll,yaw,pitch,ay,az
-0.31926819682121,-0.81775581516161,0.22228059456956,0.50663278437606,-0.069146573543549,-0.044835645705462
-0.28543773293495,-0.90672729416884,0.17268293560081,0.56430569435082,-0.10941205918789,-0.075725451111794
0.34580671787262,-0.95432924680569,-0.01728506595054,0.69160522115554,0.068117998540401,-0.25047621130943
1.0570216178894,-0.95809296071204,-0.25265853964456,0.80890055618504,0.20093040168285,-0.53800708055496
0.85693293809891,-0.95405054151377,-0.37382208366192,0.86614521432461,0.11004316061735,-0.51990336179733
0.59888899326324,-0.98342456625327,-0.33874955841573,0.89632960717324,0.13293828070164,-0.062619596719742
0.60045063495636,-0.9759773609078,-0.3167893373463,0.89278192985123,0.39188733696938,0.20229867100716
1.1120101213455,-0.90821758168972,-0.34368928498375,0.84463061746533,0.9057611823082,0.11928099393845
1.3499398231506,-0.8040903716143,-0.33012450913829,0.66753822446511,1.0676476955414,0.37108114361763
0.056775502860546,-0.68437390230006,-0.3562051972487,0.22161337798699,0.59176731109619,-1.0000694990158
-0.78581178188324,-0.6587224525073,-0.32843451153084,-0.10572957992629,-0.32059007883072,-1.4693019390106
-0.22145798802376,-0.63933625565555,-0.32872021225579,-0.21247797712165,-0.25083029270172,-0.77965718507767
0.17818163335323,-0.60359490247909,-0.33414100313919,-0.21811008111917,-0.12834165990353,-0.2626571059227
0.35274678468704,-0.58508311907722,-0.31643155448952,-0.21455454257677,-0.14766563475132,-0.11739448457956
0.35505977272987,-0.59131398058055,-0.30489270679135,-0.21728137950351,-0.15685990452766,-0.2512623667717
0.40614578127861,-0.55738484782044,-0.31193444161203,-0.19873281089344,-0.1767363101244,-0.24165514111519
