ax,roll,yaw,pitch,ay,az
0.075680553913116,-0.60477713972524,0.29805372486198,0.89432971206449,0.081181190907955,0.092423044145107
0.10762155056,-0.58928704027285,0.29343738227101,0.89517897501394,0.031587496399879,0.051791802048683
0.015141955576837,-0.56535180758366,0.29086533414289,0.8923201312968,-0.0398751758039,0.023131150752306
-0.072769768536091,-0.53787910865666,0.2737162004259,0.87195338143743,-0.025703199207783,-0.020155150443316
-0.23746751248837,-0.56882042836196,0.27153148706548,0.84619353293158,0.063963569700718,-0.027578752487898
-0.4982682466507,-0.63573470331585,0.24397490803461,0.8577244413757,-0.041114151477814,0.013833250850439
-0.19514480233192,-0.6036317481414,0.056424869502783,0.90873012789256,0.087521351873875,-0.12479587644339
0.10108057409525,-0.48824861405418,-0.24838487550943,0.96951900055887,0.10575690120459,-0.22028125822544
0.56920820474625,-0.38487884283164,-0.55168914772503,1.0195201853245,0.24242077767849,-0.16182041168213
0.69925409555435,-0.35739954538506,-0.73720490262163,1.0513836645743,0.36676809191704,-0.08843170106411
0.59223741292953,-0.47019096068389,-0.7106158027836,1.0558053857149,0.4970977306366,0.13861799240112
0.54666072130203,-0.62875115363062,-0.58082929362855,0.98021666562902,0.59921848773956,0.13036143779755
0.55904388427734,-0.64920213016383,-0.47632701917029,0.79240448012985,0.71144849061966,-0.20316907763481
0.27869248390198,-0.59011284132382,-0.34911942280862,0.50206291743404,0.62083756923676,-0.19629622995853
-0.33112299442291,-0.48849215600508,-0.26099208360197,0.14374203599964,0.32127183675766,-0.55273169279099
-0.50426334142685,-0.45563799179959,-0.19429181693144,-0.14993854389582,0.058035358786583,-0.92296195030212
-0.27156549692154,-0.42892826799173,-0.18072396727898,-0.30725771114958,-0.017472771927714,-0.544693171978
-0.13105297088623,-0.38644345055645,-0.16477656426543,-0.38927630445139,-0.078096844255924,-0.31555926799774
-0.07141288369894,-0.34965631907709,-0.12926326051181,-0.41260550573083,-0.091091513633728,-0.21207574009895
-0.10169743001461,-0.32893378089466,-0.12736930922999,-0.39854698974162,-0.011858908459544,-0.23658016324043
