ax,roll,yaw,pitch,ay,az
-0.5277179479599,-0.54752743737741,0.25741362805475,0.86788136027931,-0.046090472489595,-0.011838211677969
-0.53731155395508,-0.54352255915453,0.18209742279383,0.89894444741731,-0.0025164659600705,-0.16493900120258
-0.21855747699738,-0.54786043724452,0.0052097519726091,0.99807420403291,0.070561967790127,-0.03827840462327
0.18643513321877,-0.44242204468605,-0.31925395401707,1.0779489135457,0.11234298348427,-0.15930204093456
0.68710649013519,-0.25680203724598,-0.71110608684217,1.1207275259645,0.2878378033638,-0.14070062339306
0.4581755399704,-0.26064540903346,-0.88134787471075,1.1371126493638,0.342848777771,0.024126034229994
0.66153335571289,-0.27828416021498,-0.93990961980694,1.1535153000006,0.63363087177277,0.22443191707134
0.77019226551056,-0.50534648611104,-0.73025919148312,1.0939704565562,0.76531779766083,0.18350046873093
0.70271527767181,-0.63976928557697,-0.47872013698917,0.89220241114355,0.92597806453705,0.052786041051149
0.23238028585911,-0.54655974775268,-0.35893715072252,0.4950980999163,0.93587237596512,-0.59445840120316
-0.82683342695236,-0.48828789332395,-0.16585485815695,0.079966721086118,0.31834587454796,-0.66759747266769
-0.81180363893509,-0.45281204917457,-0.085220681910977,-0.20202138801094,-0.13178710639477,-1.1358059644699
-0.37063357234001,-0.40383712616698,-0.088662253525733,-0.3322285335809,-0.077905282378197,-0.53285366296768
-0.09871730953455,-0.36600372254422,-0.095271937236753,-0.37056263893508,-0.061358671635389,-0.26654782891273
-0.070357792079449,-0.33142585434935,-0.098008797192401,-0.36144039945404,-0.084105931222439,-0.20920497179031
