ax,roll,yaw,pitch,ay,az
-0.7343253493309,-1.0886026481392,0.20489598693155,0.35721561223334,-0.01706275716424,0.12282060086727
0.27375817298889,-1.0377582613113,0.12120921527385,0.82657770238115,1.1557528972626,0.89700108766556
0.78690958023071,-0.77526084509428,-0.32136407041315,1.1057649433503,1.377724647522,0.76106631755829
2.0911204814911,-0.54790582625794,-0.9046061568835,1.0229149173544,1.2672499418259,0.15178538858891
0.73140144348145,-0.76460237768539,-0.84994385539139,0.51386702725179,0.32263371348381,-1.322166800499
-0.26202577352524,-0.80245377458166,-0.71016610619782,0.11414609430237,-0.57329642772675,-1.596244931221
-0.64921003580093,-0.73501356137122,-0.53536053741498,0.054765221506098,-0.61535185575485,-0.80761510133743
-0.3431499004364,-0.74294876011505,-0.4066960152181,0.26908425985014,-0.25768029689789,0.15316624939442
0.25176855921745,-0.74587761325073,-0.46872425758448,0.55047812611314,0.3919760286808,0.48895016312599
0.43658563494682,-0.67677452170588,-0.67152340294055,0.76081628243813,0.89037954807281,0.58339434862137
1.1943267583847,-0.50423189995336,-1.0452992715366,0.78729643583921,1.1166661977768,0.4371877014637
2.3422844409943,-0.35018709456844,-1.3746927931023,0.5340428115749,1.3114923238754,-0.39230525493622
1.7833805084229,-0.39652766815294,-1.2838444371424,0.080292335636296,0.72754496335983,-1.3482033014297
-0.21370129287243,-0.27349791156067,-0.87918739640948,-0.31179263202933,-0.23205830156803,-1.2578308582306
-0.69928926229477,-0.042509800342669,-0.5265732935252,-0.41704115767511,-0.49432089924812,-0.29155161976814
-0.24726557731628,0.023043404725004,-0.39823075577749,-0.39493859746376,-0.2438213378191,0.01429735776037
