ax,roll,yaw,pitch,ay,az
-0.98846292495728,-0.73091248396745,0.27170410772147,0.69568184312625,-0.14885540306568,-0.50516480207443
-0.58862799406052,-0.70359335360165,0.18399784397867,0.95131219379848,0.54808002710342,0.18009783327579
-0.1711773276329,-0.12034025558491,-0.43469387572906,1.2423701929161,1.1002529859543,0.84347534179688
0.08424885571003,0.56935934702445,-1.2434489566275,1.1218224887172,1.1757037639618,0.74876368045807
0.95169389247894,0.52024727668066,-1.3562177336066,0.83199656282339,1.0206189155579,0.36070528626442
0.95360815525055,0.20456659888035,-1.0764721094299,0.52167325959824,0.49860617518425,-0.85148453712463
0.010897063650191,-0.012405255823738,-0.68410429874228,0.29373412932584,-0.058677151799202,-1.3298000097275
-0.93639916181564,-0.057834986283321,-0.35180629784046,0.23374478824025,-0.39591085910797,-0.89219349622726
-1.0351836681366,-0.044410104293046,-0.23985315623008,0.34889814092517,-0.060450695455074,0.086955733597279
-0.60970771312714,0.0012494344286561,-0.36376221818157,0.50141357666464,0.32398834824562,0.52138876914978
-0.2691861987114,0.1149849973492,-0.71084870052077,0.57121096240157,0.67840754985809,0.70075821876526
0.70676529407501,0.27652123365375,-1.1548586290262,0.35306017901238,1.2539739608765,0.80527633428574
0.90951466560364,0.23972442277922,-1.1656636059643,-0.05256268487814,0.93487298488617,-0.40977519750595
0.74134463071823,0.37511652414105,-0.77646209002838,-0.28326704691185,0.6063397526741,-0.1762270629406
-0.45595690608025,0.61213116770012,-0.17438344866334,-0.33876432356665,0.084227778017521,-0.87237620353699
-0.89507335424423,0.6899556020427,0.18214678817239,-0.1893207679377,0.002893969649449,-0.72164785861969
-0.5966083407402,0.69895019995547,0.26711092183174,-0.051763611472152,0.18820396065712,-0.22412422299385
