ax,roll,yaw,pitch,ay,az
-0.6195108294487,-1.0620573665288,0.19279617180518,0.34168412071671,0.018347635865211,0.18090409040451
0.12614883482456,-1.0619310962791,0.12679416454419,0.68879162746261,0.80160516500473,0.6819012761116
0.69452524185181,-0.88833264730593,-0.24196333263669,0.96381826733156,1.1140085458755,0.54526388645172
1.2247890233994,-0.52512248109994,-0.88114572315157,0.95161181855165,1.1212062835693,0.35260683298111
1.3434591293335,-0.47144527886036,-1.1643933200117,0.66600447319875,0.45824229717255,-1.0945374965668
0.86437094211578,-0.54624744683477,-1.0816820937541,0.34944005951638,-0.13667789101601,-1.2812826633453
-0.041704524308443,-0.53463178581795,-0.86304338516239,0.13665942702788,-0.61385709047318,-1.0163557529449
-0.6485116481781,-0.4818634602229,-0.62280985120666,0.097852391492091,-0.69017601013184,-0.61926579475403
-0.39232322573662,-0.45963926544022,-0.46226483548038,0.21729610519017,-0.14294566214085,0.11666858196259
-0.14233902096748,-0.50573107951291,-0.40787710631291,0.37411884931816,0.081898406147957,0.42345529794693
0.060349248349667,-0.5849131307649,-0.47647718017672,0.52829892568786,0.25099787116051,0.67303192615509
0.33915647864342,-0.54628795907571,-0.78655539803582,0.62319381588903,0.68762022256851,0.81497603654861
1.8312710523605,-0.52114238579281,-1.3363674596197,0.49769468141924,1.6000665426254,-0.49484089016914
1.9254585504532,-0.57121405726687,-1.3512857365939,0.064392655656625,0.70308113098145,-1.1591402292252
0.44652330875397,-0.43085323511666,-0.97398983236265,-0.35770631466657,0.10353239625692,-1.267082452774
-0.93461388349533,-0.15219519480348,-0.43408755621292,-0.41681118304913,-0.48538258671761,-0.58780801296234
-0.63338732719421,0.036537521947828,-0.24801397212863,-0.32368018682899,-0.10852409154177,-0.0067087719216943
-0.26645013689995,0.08339505770425,-0.19530887814997,-0.24038652106894,-0.20580570399761,0.30695140361786
