ax,roll,yaw,pitch,ay,az
-0.19444027543068,-0.73193722648041,0.45561913699464,1.0906951453683,0.080277062952518,-0.16571706533432
-0.61826860904694,-0.78640714869661,0.4543906690284,1.1340389892449,0.034073036164045,-0.095465198159218
-0.30408564209938,-0.54179357279053,0.15811585280462,1.253643812126,0.31816929578781,0.131685718894
0.082992479205132,-0.0048244532777275,-0.49132309524189,1.2887556463492,0.57432007789612,0.28127309679985
0.43142652511597,0.2093982370497,-0.8749877940978,1.1908784915858,0.82992494106293,0.21758672595024
0.84064245223999,0.045007024279974,-0.80765967625282,1.0038123407385,0.78894394636154,-0.42611515522003
0.44172713160515,-0.17829584319206,-0.51353976357702,0.79335595068928,0.32175061106682,-0.69364988803864
-0.87958151102066,-0.26561379590635,-0.23219545729046,0.58329864489344,-0.25332751870155,-0.83594644069672
-1.1093738079071,-0.23958831194799,-0.12567075231882,0.52079351627312,-0.35407018661499,-0.50626015663147
-0.69068765640259,-0.22931241810719,-0.16233781818018,0.59640143393673,0.056084062904119,0.012567661702633
-0.22770351171494,-0.16560254362632,-0.34649966978413,0.66397145663315,0.40488469600677,0.29821529984474
0.11961202323437,-0.028048440199767,-0.63539824904657,0.65113386210052,0.71055030822754,0.55680298805237
0.59604758024216,0.11719618129624,-0.93446159241053,0.45587498307257,0.99698030948639,0.62493240833282
0.63600933551788,0.024397237327081,-0.97055874150203,0.13821180103308,1.0168462991714,-0.14711414277554
0.25002384185791,-0.12611887092625,-0.73489382416246,-0.14446318334346,0.69554680585861,-1.3112145662308
-0.64300394058228,-0.065463601057047,-0.36174672258056,-0.18488744078825,0.04651078954339,-1.2574449777603
-0.64974212646484,0.015809972988367,-0.10574821980858,-0.033398061727603,0.24207507073879,-0.067790724337101
-0.41966059803963,0.032090633412567,0.032087448922179,0.12669583590039,0.34240636229515,0.47874826192856
