ax,roll,yaw,pitch,ay,az
-0.55151659250259,-0.47208123245013,0.23800897088746,0.93558825180387,-0.20284898579121,-0.31563851237297
-0.53323221206665,-0.43009564382547,0.10537735201768,1.0530521019895,0.25103312730789,0.019442142918706
-0.29603973031044,-0.12914316868564,-0.29508320381821,1.1633180706604,0.53793507814407,0.16747042536736
0.16617369651794,0.25030996596048,-0.78902596558955,1.1663110881169,0.6788724064827,0.37656599283218
0.65033233165741,0.34898749703133,-1.0391761219026,1.0519359162561,0.77805286645889,0.17161041498184
1.0709497928619,0.19135765247047,-0.95249108984715,0.88254562909861,0.58769649267197,-0.4210390150547
0.20443354547024,-0.0048993929043548,-0.60809539995864,0.72300056117665,-0.11808658391237,-0.606798350811
-1.2031162977219,-0.10644423378019,-0.35924777064634,0.62939809633402,-0.65389537811279,-0.60332834720612
-0.76990419626236,-0.095173316252552,-0.38002092504415,0.68027121296753,-0.076120018959045,0.20581452548504
-0.13036248087883,-0.022802496436693,-0.57838146777395,0.68565082373704,0.41770756244659,0.61944800615311
0.3176856637001,-0.04853733375356,-0.81659428967891,0.56891470127827,0.75745278596878,0.52548438310623
0.68300777673721,-0.092006277253561,-1.0000595693707,0.21654368256823,0.99412167072296,-0.43724444508553
0.4748812019825,-0.24098569020291,-0.89514006695802,-0.12134193773228,0.87506461143494,-1.1414449214935
-0.88305473327637,-0.22250367657032,-0.49287494577629,-0.27101141485416,0.070367656648159,-0.85764539241791
-0.92882865667343,-0.13071693459351,-0.22356492934093,-0.20392720213376,-0.14543357491493,-0.15551003813744
-0.66933280229568,-0.10672409389061,-0.10744232161851,-0.083621922067214,0.018480507656932,0.22153362631798
