ax,roll,yaw,pitch,ay,az
-0.66761082410812,-1.1287948281847,0.31069262148045,0.49275537545013,-0.27509841322899,-0.44917327165604
-0.088897943496704,-1.2415316661806,0.33377622248092,0.71007799629214,0.32233360409737,0.29495671391487
0.52814871072769,-1.1626642125752,0.12518892041207,0.96519103709497,0.84413033723831,0.39907822012901
1.0551524162292,-0.81794939051053,-0.35667695585311,1.0722696185924,1.064063668251,0.040347918868065
2.268298625946,-0.5997137730682,-0.67123514294906,0.95837092946073,0.90268301963806,-0.52500206232071
0.17174929380417,-0.68409144976924,-0.46701247765147,0.60174845803136,0.10769538581371,-1.3082798719406
-1.0068374872208,-0.64693013967794,-0.29451790509274,0.38551907553545,-0.59995776414871,-1.0317615270615
-0.65734523534775,-0.65319013517315,-0.222998782443,0.42080215209472,-0.20870998501778,-0.32383728027344
0.2036370486021,-0.63957281589891,-0.29332177010564,0.55512552198304,0.28982156515121,0.16004517674446
0.5337747335434,-0.65151529262386,-0.43574105696434,0.67834447376065,0.41609433293343,0.53080832958221
0.93304812908173,-0.57306402753874,-0.74061869003241,0.69662197074979,0.96319407224655,0.49541544914246
1.2323168516159,-0.41220503286762,-1.0942915213572,0.42747520309578,1.5997093915939,-0.19390253722668
0.85078656673431,-0.55927063195731,-1.1059022429288,0.07477433046502,1.2775702476501,-1.3259909152985
-0.46018949151039,-0.58089042160595,-0.79330504639892,-0.20239099627996,0.24288131296635,-1.4050269126892
-0.57386302947998,-0.44839552734029,-0.4884402617798,-0.24564280075774,0.013381416909397,-0.57064008712769
-0.19611756503582,-0.384131343589,-0.30007259626129,-0.16277136191349,0.094858676195145,0.12522722780704
