ax,roll,yaw,pitch,ay,az
-0.50510388612747,-0.66116118052544,0.24574563142199,0.70176273426437,-0.16368494927883,0.019906727597117
-0.38608282804489,-0.7219483114255,0.16682286840383,0.83548551825718,0.21893249452114,0.12943835556507
-0.017968574538827,-0.62186309220931,-0.10027167012541,1.0075540539192,0.67083048820496,0.33023127913475
0.51244330406189,-0.46197682605904,-0.47056314728292,1.0899226576012,0.6870214343071,0.37520170211792
1.2491164207458,-0.30655551911895,-0.77846351224395,0.98960504426035,0.56292104721069,-0.026792695745826
0.86693924665451,-0.29330326604126,-0.78175203743234,0.79986196358112,0.17998269200325,-0.18037937581539
0.40330821275711,-0.25896522560374,-0.67852271077246,0.58376380926608,-0.28597462177277,-0.40604436397552
-0.17684644460678,-0.19223157682005,-0.55505145852825,0.42588999787977,-0.41560390591621,-0.52484983205795
-0.86322283744812,-0.17501194187135,-0.44969209332846,0.39262455774357,-0.45001175999641,-0.36052983999252
-0.492521494627,-0.18405267580161,-0.47976646802638,0.44284172979277,-0.06596752256155,0.13199029862881
-0.1191655471921,-0.19345392238791,-0.61382671344524,0.47605201927674,0.1006992906332,0.26201704144478
0.1783671528101,-0.22494786631065,-0.76037933287875,0.50414791596943,0.26856875419617,0.45563846826553
0.54813545942307,-0.26026915207599,-0.90539110776852,0.47660305366354,0.42079958319664,0.34135949611664
0.82496762275696,-0.28321078292732,-1.017530655465,0.35333057736073,0.4691324532032,0.064896762371063
1.0494244098663,-0.15897913964818,-1.1411922259812,0.075994888458082,0.48545241355896,-0.31352558732033
0.38769009709358,-0.19898969718003,-1.0168886798188,-0.18134455860555,0.060675568878651,-0.58666509389877
0.074105553328991,-0.14169685339967,-0.80637423224145,-0.36919118102756,-0.21373599767685,-0.93318796157837
-0.37102401256561,0.019334157854333,-0.50779130153023,-0.37181428256305,-0.050989452749491,-0.44907385110855
-0.50244265794754,0.13371352566636,-0.27069399862661,-0.30179824744321,-0.027858981862664,-0.0074852402321994
-0.46729791164398,0.14767290928827,-0.17127996517627,-0.26153885031985,-0.059562254697084,0.19365394115448
-0.023835260421038,0.038866445448005,-0.16302267531708,-0.23237137170321,-0.049377594143152,-0.066918507218361
