ax,roll,yaw,pitch,ay,az
-0.86081033945084,-0.67477793301262,0.34213626223866,0.92519333890028,-0.17594857513905,-0.24685542285442
-0.58990097045898,-0.66828713711222,0.23965097674901,1.0646319945775,0.30826535820961,0.30693918466568
-0.0790049508214,-0.32851627885106,-0.22251884669723,1.1818468743565,0.70442175865173,0.4507183432579
0.18479204177856,0.051545055293389,-0.73556281250305,1.1007061495824,0.92909455299377,0.30743709206581
1.1979948282242,0.15578205245851,-1.005334348397,0.91737924457361,1.1491289138794,0.081163100898266
1.23137819767,0.013345830042799,-0.921463236188,0.66284972267529,0.29967653751373,-1.0545102357864
-0.63953673839569,-0.048492193128423,-0.66548448971192,0.46857965088296,-0.7421213388443,-1.078290104866
-0.65393608808517,0.037067815668046,-0.57966382091424,0.37901273207578,-0.41245201230049,-0.2321455180645
-0.95557940006256,-0.032966724912414,-0.48946719945239,0.39455645595015,-0.41803044080734,-0.20891098678112
-0.38065513968468,-0.077650987157289,-0.5633327465601,0.44969670155615,0.035385176539421,0.10968775302172
0.15861585736275,-0.058150363618348,-0.7498655168428,0.48752629369063,0.50051575899124,0.54600250720978
0.51639020442963,-0.047191649393281,-0.94187510373531,0.45933621592512,0.74343258142471,0.61452633142471
0.94177025556564,-0.066937328775165,-1.0550826069808,0.30298963509152,0.84189307689667,0.1390635818243
1.260932803154,-0.036517330257581,-1.050336844446,0.012161885789916,0.74424779415131,-0.63973289728165
0.37835934758186,0.16329636282062,-0.8160319177308,-0.27881668468042,0.31401517987251,-1.3249825239182
-1.035517334938,0.39763712584061,-0.4149055008688,-0.29354225728848,-0.23215483129025,-0.96642762422562
-0.89024019241333,0.49965718412856,-0.2624999905033,-0.21277873194744,-0.089564226567745,-0.11206466704607
