ax,roll,yaw,pitch,ay,az
-1.0190756320953,-0.73480985865343,0.4025780421922,0.99148757265103,-0.11205704510212,-0.045280005782843
-0.6509348154068,-0.6268958576017,0.19037128277396,1.1823214477284,0.63543349504471,0.34816613793373
-0.23127157986164,0.047305914711296,-0.5943434731776,1.2749235318192,1.0240377187729,0.61758822202682
0.42033395171165,0.39390157975064,-1.1343594089975,1.1136045207011,1.1141536235809,0.53691244125366
1.4566321372986,0.21337782114713,-1.0597808917228,0.82636231658043,0.79484343528748,-0.52585977315903
-0.10029828548431,-0.011504041783931,-0.70967499838574,0.57701012273031,-0.44489687681198,-1.0426952838898
-1.0419574975967,-0.062771486637103,-0.48690323319363,0.48012998173636,-0.90153938531876,-0.62787342071533
-0.88875502347946,-0.070701024308475,-0.45641041439964,0.53590994888258,-0.34544017910957,-0.0033819070085883
-0.38268426060677,-0.041216222168315,-0.5708686384774,0.60347904862896,0.2342584580183,0.47661289572716
-0.11188649386168,0.001606170857633,-0.76563129474047,0.58780754593228,0.56029045581818,0.79907637834549
0.46069976687431,0.011436823178335,-0.95463395317334,0.45703824278638,0.91190385818481,0.88555550575256
1.3197249174118,-0.077065979564115,-1.0421118298906,0.10746323536212,1.0409418344498,-0.56386488676071
0.26735708117485,-0.11297935047251,-0.82336154501709,-0.24350051336353,0.19240084290504,-1.3162659406662
-0.68545228242874,0.052618403066489,-0.52844150652771,-0.4006848675435,-0.30444723367691,-0.77802062034607
-0.80632215738297,0.19833967540562,-0.27479293648932,-0.39536874996048,-0.21666097640991,-0.56855028867722
-0.43296477198601,0.282787993253,-0.1749795299289,-0.33986219294791,-0.124815300107,-0.061015896499157
