ax,roll,yaw,pitch,ay,az
-0.49856296181679,-0.69929527565885,0.31044595348696,0.82031517299267,-0.033180825412273,0.23341158032417
-0.4593713581562,-0.76380534389505,0.2315175156329,0.94148013846376,0.25517699122429,0.31092035770416
0.32670548558235,-0.62507260859688,-0.11120276656583,1.0865789325683,0.77288746833801,0.42569887638092
1.4574978351593,-0.38730365166607,-0.58681468980762,1.0870858303263,0.83833932876587,-0.16029179096222
1.2442408800125,-0.29136189936355,-0.69087578025803,0.9150768506516,0.068015336990356,-0.45561063289642
-0.43339279294014,-0.36447372892478,-0.46592748922749,0.75748539522527,-0.62393856048584,-0.30341500043869
-0.90734034776688,-0.33962967949259,-0.37754519747883,0.70735494865504,-0.57043504714966,-0.0087063731625676
-0.40075048804283,-0.33777509750017,-0.44510326109842,0.75554467378359,-0.073210671544075,0.24285912513733
0.063720591366291,-0.35536305321788,-0.60893899359469,0.79566901722518,0.44892057776451,0.42762863636017
1.2756506204605,-0.39381500122358,-0.81578759532902,0.77395198576888,1.1741256713867,0.46889725327492
1.8240531682968,-0.47743559810259,-0.8725957959562,0.50519569583135,1.0149235725403,-0.69900178909302
0.63493752479553,-0.43014093413383,-0.67769844252011,0.1152110651786,0.25770232081413,-1.3925440311432
-1.3959990739822,-0.22203092829656,-0.36428085759965,-0.10982991790881,-0.60323107242584,-1.2849416732788
-0.88331353664398,0.00093212197117547,-0.24693140467595,-0.090829754999538,-0.20799922943115,-0.2000607252121
-0.27724906802177,0.026203571197218,-0.1599423254539,-0.018262737744403,-0.11677246540785,0.36916467547417
