ax,roll,yaw,pitch,ay,az
-0.52875918149948,-1.0156472457346,0.35642429308672,0.63525318594664,-0.034884076565504,0.51178967952728
0.10923222452402,-1.0223278359606,0.26025941477836,0.82827174043881,0.54842466115952,0.70096623897552
0.98033618927002,-0.85986306295546,-0.089038265808903,0.98478089167648,0.80000883340836,0.53768873214722
1.9407101869583,-0.64992017356253,-0.49205856685224,0.93019230895868,0.55661773681641,-0.36475935578346
1.0348199605942,-0.62119269255666,-0.4877300168914,0.72648284355128,-0.25042819976807,-0.60857784748077
-0.4382675588131,-0.61949194354241,-0.3253890859525,0.54160828455043,-0.701480448246,-0.32812249660492
-0.83473199605942,-0.5960342931514,-0.251866766786,0.49446798007983,-0.69233721494675,0.043903484940529
-0.091624096035957,-0.5816602100727,-0.35126509483679,0.59669268600161,0.096821844577789,0.42241409420967
0.27306279540062,-0.53943550407541,-0.58624985877439,0.68554347114904,0.6324987411499,0.58288717269897
0.94430911540985,-0.44970004102393,-0.92623513094227,0.67425223981448,1.2147064208984,0.66150027513504
1.8018543720245,-0.50988997217667,-1.2031863931445,0.42749303726666,1.5056704282761,-0.82723718881607
1.3152173757553,-0.56582373997495,-1.2647991524428,-0.016019614533706,0.64448827505112,-1.9561624526978
-0.29198268055916,-0.47486484357246,-0.96138794419139,-0.34647734907362,-0.28319010138512,-1.7309393882751
-0.84245920181274,-0.25105515756644,-0.59991761211793,-0.36340400645437,-0.35234519839287,-0.16702778637409
-0.41047567129135,-0.17317929577842,-0.50058450658937,-0.3207004351046,-0.21856693923473,0.36861151456833
