ax,roll,yaw,pitch,ay,az
-0.53285610675812,-0.63270337182714,0.32884303495104,0.94543521271806,-0.074776828289032,-0.16233739256859
-0.50131410360336,-0.67490355017245,0.30691488179362,1.0310564595442,0.14469233155251,0.16801579296589
-0.27510917186737,-0.49729298033818,0.074991464040916,1.1432417645198,0.37670302391052,0.40040382742882
-0.00096715794643387,-0.016319558838429,-0.46690332171646,1.1553701758176,0.56217646598816,0.42104318737984
0.28283879160881,0.35988653242551,-0.89313947200006,1.0340877074353,0.66605216264725,0.37200179696083
0.67423158884048,0.39726190106731,-1.0134704160475,0.841710773962,0.55523216724396,0.01782638579607
0.69332075119019,0.24805091022803,-0.90024717037591,0.64324466058392,0.34877249598503,-0.5333423614502
0.39640268683434,0.11401735602613,-0.67988803981146,0.48032945417691,0.18018049001694,-0.6893652677536
-0.19069965183735,0.028342638801051,-0.40442247693363,0.39008775655075,-0.073343701660633,-0.56203752756119
-0.80301344394684,0.011344537232063,-0.171949887602,0.36572446520123,-0.30368998646736,-0.32402291893959
-0.78590494394302,0.0024310848628284,-0.059097517891915,0.37814157068691,-0.19881445169449,-0.044801995158195
-0.65030056238174,-0.033605954075976,-0.045130747733078,0.39913526833149,-0.051777437329292,-0.032293632626534
-0.42618009448051,-0.078260298563481,-0.1105980497558,0.42922446493849,0.021848125383258,-0.042484227567911
-0.18726497888565,-0.13375616558541,-0.22426247056921,0.46890327004011,0.15280541777611,0.1093772649765
0.037939574569464,-0.12105292405743,-0.40384402453863,0.49036013377404,0.28379455208778,0.32242399454117
0.37101727724075,-0.10321173067762,-0.58393733432612,0.48098477690863,0.46852707862854,0.48628360033035
0.4800136089325,-0.1036836312985,-0.69966870643474,0.38818931697157,0.49176383018494,0.28674456477165
0.55869716405869,-0.10132992802361,-0.76521983124234,0.23526354058128,0.46285086870193,0.01359208021313
0.44114631414413,-0.063835139404442,-0.77643926633228,0.028469081110012,0.32772061228752,-0.39172339439392
0.18465287983418,-0.010767490998923,-0.69137393647276,-0.17867147838708,0.15876446664333,-0.54005473852158
-0.13654850423336,0.093666630113405,-0.53014030747813,-0.3289832294433,-0.10428517311811,-0.79918640851974
-0.2238481938839,0.26971291943465,-0.35809299051437,-0.35242455228961,-0.16180947422981,-0.67960524559021
-0.45859801769257,0.4328645962279,-0.21380076870303,-0.27257083663383,-0.11918383836746,-0.3078587949276
-0.49550515413284,0.46429180953803,-0.12743540560658,-0.17900582261778,-0.0070155998691916,-0.05900639668107
