ax,roll,yaw,pitch,ay,az
-0.6315153837204,-1.9363549480404,0.45784391764848,0.32307969551358,0.075880765914917,0.18844382464886
-0.29570010304451,-2.0442871719346,0.54938265247222,0.52860650905127,0.23867501318455,0.0095782484859228
0.16129349172115,-2.3197107043855,0.71519756053508,0.86965714034163,0.53540909290314,-0.16625545918941
0.36173501610756,-2.5590872609989,0.93775597819121,1.3285715585182,0.62553083896637,-0.28374156355858
0.81357622146606,0.97964331759671,-2.6007581538937,1.2870515762449,0.76135963201523,-0.40530222654343
0.89889097213745,0.69542041394733,-2.3061235670747,1.0297966923965,0.66835153102875,-0.42568698525429
0.612140417099,0.30292953005891,-1.7452679203106,0.97958904541779,0.43364667892456,-0.61579620838165
-0.10730925947428,-0.33531504002076,-0.73861865312896,0.88858724329734,0.54006725549698,-0.36192712187767
-0.42243450880051,-0.69080449595152,0.032505287747999,0.50416335128002,0.54728406667709,0.088641278445721
-0.81309056282043,-0.75492645588338,0.4287793421736,0.0034761809192441,0.59682947397232,0.38060027360916
-0.49835735559464,-0.88784709191492,0.41341473786542,-0.49778953617303,0.63082236051559,0.12468575686216
-0.88198018074036,-1.2593750180086,-0.051991738807442,-0.82622824282297,0.42271563410759,-0.22598297894001
-0.68196779489517,-1.7121768648712,-0.72703854618663,-0.59443507408548,0.19273626804352,-0.83970040082932
-0.04639358446002,-1.8803433307067,-0.82616263538715,-0.22829741110878,-0.031541001051664,-1.1472936868668
0.23269884288311,-1.9719807285203,-0.72161508517555,-0.11739090762186,-0.093439802527428,-1.1033669710159
-0.38720193505287,-1.9992040471685,-0.44294190934833,-0.29934805518325,-0.1417448669672,-0.65251809358597
-0.66975146532059,-1.8383485622635,0.032004622929008,-0.32278391476804,0.23540438711643,-0.0051586586050689
-0.19357718527317,-1.6338919558728,0.37469922955493,0.023374016118308,0.51526945829391,0.37960562109947
-0.38714569807053,-1.5718107602784,0.52203467063911,0.38204812529781,0.41530218720436,0.090107880532742
0.083462722599506,-1.580077150764,0.58940893969389,0.84531837665999,0.65389829874039,0.17906874418259
0.66404342651367,-1.3198180377923,0.17150618009279,1.3065303979273,0.65034306049347,0.025181604549289
0.68079322576523,-0.0066936425172937,-1.3061188950016,1.3607578185,0.22516949474812,-0.18597732484341
0.30471286177635,0.12527274066741,-1.4920996826138,1.2869282784417,-0.05682060867548,-0.30114910006523
