ax,roll,yaw,pitch,ay,az
-0.15071715414524,-0.73524275668657,0.31356872567331,0.78785271680553,-0.098563306033611,-0.046079523861408
-0.05445571243763,-0.74241126896576,0.2496138458917,0.88726611494252,0.0024294184986502,0.048805490136147
-0.047417465597391,-0.70814826536545,0.11056141300646,1.0216728507425,0.14054952561855,0.055689211934805
0.20978486537933,-0.42674456127635,-0.29420855456753,1.1562982560202,0.28191095590591,0.047795798629522
0.66063106060028,0.33484336196628,-1.0926219738366,1.1337384077441,0.69993096590042,0.13658419251442
0.4507363140583,0.75017905019819,-1.5452893199969,0.93693288526575,0.62505084276199,0.22720927000046
0.63386088609695,0.83675209438499,-1.6564304220952,0.72557757691544,0.61309152841568,0.4754202067852
1.0221436023712,0.64838016526187,-1.4292603738764,0.50237859904068,0.77916479110718,-0.040451187640429
0.23888370394707,0.37810839123525,-0.84054672563449,0.41656842067817,0.63973212242126,-0.31394562125206
-0.16538035869598,0.049200959451457,-0.15747123827118,0.33367004675485,0.28506290912628,0.0072104218415916
-0.35616245865822,-0.14593648872349,0.29124351058783,0.18386955424859,0.1247603148222,0.18822330236435
-0.64895033836365,-0.24875572757841,0.58094734384822,0.023494428616586,0.074761800467968,0.13283142447472
-0.55122184753418,-0.31512283990743,0.65331476738191,-0.16191199093842,0.085117146372795,-0.024292750284076
-0.38537013530731,-0.51875426751636,0.47424480981666,-0.33565664758185,0.098589278757572,-0.40043953061104
-0.24781610071659,-0.81389616376813,0.16704135863397,-0.31181840511299,-0.022533878684044,-0.29709497094154
-0.045889426022768,-1.0039218838737,-0.2870167890621,-0.15331726045405,0.0092700077220798,-0.60624867677689
0.41289955377579,-1.0579042168348,-0.68393028851742,0.05181297358219,0.064530894160271,-1.1399030685425
0.55444937944412,-1.1247689134123,-0.64836486352076,0.21450970769803,0.1648795157671,-0.77740025520325
0.62572401762009,-1.2096347278109,-0.4041460371006,0.27529925078808,0.15728718042374,-0.48407217860222
0.39697363972664,-1.2610411512914,-0.11419462210667,0.2540201006644,-0.043075479567051,-0.38230928778648
0.080353438854218,-1.2463502894993,0.16924318939818,0.2185644224404,-0.028487127274275,-0.29980778694153
-0.20091526210308,-1.1642264213764,0.48188989931116,0.16248642139773,0.073485024273396,0.052376821637154
-0.39289817214012,-1.1607209570055,0.73515779923623,0.17873188213581,0.041536055505276,0.12590901553631
-0.41443681716919,-1.1429747554642,0.84357993439649,0.33815370974256,0.20161896944046,0.17795404791832
-0.29629772901535,-1.0995260428914,0.78258669178556,0.59727160237148,0.35497584939003,0.19231015443802
-0.03438426181674,-1.0650839028037,0.6183544707168,0.86604874044397,0.37354570627213,0.089698061347008
0.41240429878235,-0.89540779437548,0.23901464350445,1.0575946404871,0.28258448839188,0.084038473665714
0.94350707530975,-0.64699600487364,-0.24974191593442,1.0932410222534,0.1036973670125,-0.32695835828781
