ax,roll,yaw,pitch,ay,az
-0.76983535289764,-0.7148047459832,0.14016810770428,0.3770684970483,0.060167327523232,0.1808794438839
-0.4411972463131,-0.81706019595795,0.093986739254481,0.64882163074846,0.69583112001419,0.46505576372147
-0.062405336648226,-0.7116808182281,-0.2313512012702,0.9677828636284,1.3643102645874,0.61072474718094
0.23645615577698,-0.34937176274689,-0.92876272420205,1.1211625038728,1.671907544136,0.72211450338364
1.3318619728088,-0.27872861000799,-1.4537952185684,0.87290322958551,1.9653249979019,-0.61026901006699
1.3766342401505,-0.54457622854989,-1.4373364252772,0.41756973560352,0.89902466535568,-1.3513408899307
-0.30327191948891,-0.68094403541534,-1.2764894983077,0.0065869640882218,-0.84035217761993,-2.568222284317
-0.8702467083931,-0.64312613260758,-0.99212301769504,-0.033019434816652,-0.82407486438751,-0.81137156486511
-0.57521909475327,-0.66760945880574,-0.77791571375981,0.14581582277993,-0.19762636721134,0.37767803668976
0.11375264823437,-0.6898454741528,-0.82800106853762,0.34766669535685,0.29729378223419,0.64032560586929
0.44613826274872,-0.65358777118922,-1.0645588376242,0.4883151625829,0.73836469650269,0.74128025770187
0.68159472942352,-0.56239150227086,-1.4217909986757,0.4659031842634,1.2441518306732,0.63745188713074
1.229435801506,-0.50458293592699,-1.8207185033018,0.19123603763299,1.7753539085388,-0.32261922955513
1.0676481723785,-0.76840616300376,-1.8320811234811,-0.25885764791168,1.5038959980011,-1.7570389509201
-0.40973576903343,-0.72803350980626,-1.3049493815325,-0.7455088077397,0.53628438711166,-1.840213060379
-1.4290421009064,-0.12291661632127,-0.40530444098979,-0.76286758712989,0.12733171880245,-0.62216538190842
