ax,roll,yaw,pitch,ay,az
-0.56336373090744,-0.51879244519921,0.15438603906484,0.5794561864694,-0.040336940437555,-0.073588781058788
-0.56349062919617,-0.55161675611378,0.068085607819812,0.72531697683049,0.15891708433628,0.16974191367626
0.031126249581575,-0.35149831971579,-0.3122986657509,0.9103869992279,0.53215759992599,0.23811881244183
0.75922590494156,-0.20619498550056,-0.74642257748736,1.0030927863664,0.61422562599182,0.028473973274231
0.68926614522934,-0.26288021166968,-0.80347894652782,0.94396191791452,0.53637462854385,-0.30353245139122
0.79819113016129,-0.48669108674567,-0.56542365406476,0.89515874998555,0.7034193277359,0.08349335193634
0.60647428035736,-0.58428972098384,-0.34219213967541,0.66787460616252,0.64007061719894,-0.24222172796726
-1.1749085187912,-0.61714732387163,-0.031608448552247,0.30471847155313,-0.24750648438931,-0.87897437810898
-2.0751087665558,-0.54847672984924,0.15485704074541,0.21586382950095,-0.48637023568153,-0.5981707572937
-0.73266243934631,-0.52565306896057,0.029534099069603,0.47311707506908,0.44301363825798,0.4926805794239
0.31530737876892,-0.36097316949642,-0.43314441025531,0.6076470822324,1.1510764360428,0.47632023692131
1.3361541032791,-0.24889618009597,-0.91998287446002,0.37848533824389,1.6469639539719,-0.3366676568985
1.0886255502701,-0.34979324738402,-0.81420520505831,-0.004812174937313,0.794000685215,-1.0755056142807
-0.68253082036972,-0.15835853220966,-0.33135960555698,-0.38645898692642,-0.541339635849,-1.5231912136078
-1.0268861055374,0.10088112492923,0.065673606864138,-0.33279473872873,-0.25567129254341,-0.45810970664024
-0.58796924352646,0.12806564884147,0.17922497333058,-0.17772213406947,0.16735868155956,-0.0038527746219188
