ax,roll,yaw,pitch,ay,az
-0.39255976676941,-0.43997298309472,0.20512666126163,0.83800302689621,-0.16146114468575,0.11351022869349
-1.1105135679245,-0.55332693186724,0.29192073784721,0.86256036523275,-0.03676937520504,-0.078346200287342
-0.65196967124939,-0.30053096126179,0.023395007350987,1.1287388507873,0.680515229702,0.6597855091095
-0.078863725066185,0.54415541005748,-0.907381581677,1.138364859346,1.1095485687256,0.77162063121796
0.72209429740906,0.63196341564189,-1.1490908696627,0.87125129564295,1.2031844854355,0.72619885206223
1.1385135650635,0.16003608700554,-0.77811105108692,0.60219216195674,0.89166098833084,-0.48338612914085
-1.2046505212784,-0.14428790344025,-0.10080250888903,0.2610434096069,-0.25057825446129,-1.5695223808289
-1.8572437763214,-0.087446646757425,0.11117950432693,0.29420577685688,-0.4754773080349,-0.73743522167206
-0.85617870092392,0.015591847588903,-0.084960630805828,0.49420070899139,0.23438370227814,0.41529053449631
-0.23634371161461,0.15284668376863,-0.48995994665853,0.5542935702786,0.72664487361908,0.63638025522232
0.74335271120071,0.26329058489605,-0.88880684600258,0.38890825299669,1.1161016225815,0.94874894618988
1.6123144626617,0.14609148442962,-0.90421700087109,-0.028499012375123,0.97036045789719,-0.18852911889553
0.44288793206215,0.23624396192607,-0.45615861831498,-0.33126990447505,0.17998962104321,-1.1974723339081
-0.96137112379074,0.45282053509658,0.042463416139463,-0.30132020411606,-0.15708696842194,-1.1291358470917
-1.0110399723053,0.56985973489494,0.19697702699281,-0.12065948216447,-0.029088841751218,-0.2627472281456
-0.61901921033859,0.56856767184877,0.20084500418812,-0.0035102074219476,0.070922173559666,0.039445195347071
