ax,roll,yaw,pitch,ay,az
-0.42527809739113,-1.3183475273512,0.60334098470674,0.77207446074034,-0.11791349202394,0.079361572861671
-0.43573981523514,-1.3377926037667,0.42533662568599,0.85409437697404,0.0043272450566292,-0.18076390028
-0.04724932089448,-1.4500222361009,0.22863833991489,1.1189141311549,0.24977023899555,-0.37459129095078
0.22156894207001,-2.0644492728817,0.50482987699762,1.441628734378,0.42784196138382,-0.66712987422943
0.48314017057419,2.7269798550307,1.7585247901715,1.4348519003981,0.63759380578995,-0.55359363555908
0.54684817790985,-1.7650106762118,0.018159531080918,1.4782402722685,0.8852613568306,-0.70820611715317
0.37091279029846,-1.4281535263855,-0.16954300367117,1.1200813375635,0.62421125173569,-0.59583467245102
-0.5068234205246,-1.1943255748848,-0.14083515189317,0.6607314619396,0.052598360925913,-0.95713770389557
-1.1138633489609,-1.0554805097282,0.024743735014433,0.34392305887943,-0.17847250401974,-0.83435899019241
-1.0508519411087,-1.0221234674955,0.22467036995929,0.3041877756672,-0.073253884911537,-0.24842166900635
-0.15093472599983,-1.030317408208,0.29473794134328,0.58266979235735,0.38231688737869,0.28737184405327
0.057838417589664,-0.96227833745058,0.14203524487512,0.94328000045936,0.74810218811035,0.43529272079468
0.21695303916931,-0.13383306096381,-0.94418256033601,1.1127056442508,1.4439260959625,0.49289304018021
1.4597622156143,0.072173407951806,-1.6395616422073,0.38211062203367,1.8794257640839,-1.3995786905289
0.71290630102158,0.014963575187944,-1.2707956420118,0.086251596439359,0.97235989570618,-0.69995009899139
-0.58279192447662,0.15837453589576,-0.56173467843854,-0.14671870941098,0.6192489862442,-0.56479626893997
-0.40469852089882,0.20236963355915,-0.20732307793313,-0.13667346035597,-0.128084897995,-0.16532990336418
-0.12307011336088,0.18496384090338,-0.10902490019855,-0.066032217378943,0.083353526890278,0.17634212970734
0.08494433760643,0.144215271064,-0.090949024810185,-0.076402358614578,0.056179277598858,0.057059790939093
0.21242560446262,0.094822325309044,-0.10701942250998,-0.06595641296386,0.00020773026335519,-0.015873145312071
0.17898121476173,0.045544067851772,-0.1228250921571,-0.040588956579313,-0.022892877459526,0.0089587653055787
