ax,roll,yaw,pitch,ay,az
-0.26476722955704,-0.36053219337642,0.047626480507908,0.19785957305068,0.30608344078064,0.28998121619225
-0.66410613059998,-0.37936052341015,0.18887366722478,-0.11292503407633,0.25946143269539,0.1085015758872
-1.1720510721207,-0.49095741331553,0.1023237644022,-0.37248512699551,0.12111514061689,-0.54645133018494
-1.1928113698959,-0.82466282938712,-0.173057312618,-0.32760191591724,0.08627711981535,-0.91688203811646
-0.39899125695229,-1.1405139151574,-0.40886023905115,0.12457204438623,0.33372277021408,-0.90982002019882
0.53495788574219,-1.355386729225,-0.43929424718702,0.82035781929974,0.89766496419907,-0.25611883401871
0.67107552289963,-1.7707460148491,-0.12988908370146,1.1858244527409,0.84659349918365,0.073391385376453
0.61364102363586,-2.0763514972919,0.12835490127501,1.2462910242075,0.75002419948578,0.045661244541407
0.50080507993698,-1.8962742780974,-0.041770663549831,1.1513644470336,0.57532304525375,0.073911778628826
0.089236915111542,-1.6541179648707,-0.28666649537994,0.84892687829295,0.16231487691402,-0.313874989748
-0.49889209866524,-1.4986824322781,-0.31829907949955,0.46194189742979,-0.20835018157959,-0.61410444974899
-1.1018131971359,-1.4425516573237,-0.079172331720764,0.21591793521629,-0.28267359733582,-0.05828845500946
-1.0615546703339,-1.4274924914497,0.19461664329307,0.27220487612445,0.14467975497246,0.53555059432983
-0.63450789451599,-1.4981352591609,0.36790114419489,0.51834837203347,0.51548099517822,0.47239297628403
-0.13732971251011,-1.6998214098228,0.46831764658873,0.87295816096213,0.80100780725479,0.29847249388695
0.39873966574669,-1.750391023732,0.38660957261608,1.205962000707,0.93703627586365,0.14312891662121
0.68479472398758,-1.5558738308296,-0.017831597761823,1.2710894422662,0.77082222700119,0.11977731436491
0.086804613471031,-1.2984892815848,-0.47770283555981,1.0388128862842,-0.009870920330286,-0.3277775645256
-0.49574971199036,-1.1119689454467,-0.64821609149058,0.82729013925189,-0.77145326137543,-0.21764050424099
-0.37963798642159,-1.0513068361311,-0.67421039898136,0.78326473795241,-0.48475676774979,0.016989015042782
