ax,roll,yaw,pitch,ay,az
0.50029677152634,-0.55424275052081,0.35855274555073,1.1420742810132,0.63680797815323,-0.0679861754179
0.30647510290146,-0.79370681037451,0.5968205715325,0.90901654732514,0.22220359742641,-0.58667087554932
-0.61134576797485,-1.0475823228859,1.019837470289,0.58447966128375,-0.086494401097298,-0.87682682275772
-0.85233598947525,-1.1326984129773,1.4004610004569,0.48309224210611,0.076290369033813,-0.45910635590553
-1.1602277755737,-1.2659999350321,1.7383861028431,0.55988287318298,0.35034653544426,0.15372370183468
-0.40783387422562,-1.5218513503788,1.9453970910958,0.86361765659496,0.70517468452454,0.055986918509007
-0.086639113724232,-1.9882625176988,2.2379543676891,1.1933291479906,0.88304656744003,-0.060963496565819
0.41083490848541,-2.7917392212029,2.8737314949178,1.4296319060617,0.97218477725983,-0.01518412027508
0.42594274878502,-2.7631401915254,2.6083857690498,1.5420666193102,0.78486561775208,-0.13457298278809
0.25214502215385,-0.99924609860732,0.67845895386808,1.3256299605205,0.69484370946884,-0.25232645869255
0.16885329782963,-1.0646522087274,0.60607550405096,0.89839911566807,0.63287097215652,-0.3833487033844
-0.30840384960175,-1.1621600891564,0.62749831698255,0.40387483998281,0.38773536682129,-1.205961227417
-0.95349931716919,-1.1658327421962,0.88940745102633,-0.030366026920241,0.14937189221382,-0.90816783905029
-1.0582752227783,-1.0375045289056,1.2195205253045,-0.13410148859779,0.057401146739721,-0.033592749387026
-0.79492169618607,-0.87096016417014,1.3558745705755,0.025736095511841,0.45522239804268,-0.096736758947372
-0.14711789786816,-0.76015106700253,1.388644428451,0.28986807823961,0.54380613565445,0.13781087100506
0.42785316705704,-0.76217926360069,1.4116479928969,0.44065079226688,0.48393175005913,0.54034441709518
