ax,roll,yaw,pitch,ay,az
0.85006409883499,-0.073921693962307,0.020207513662771,0.65792794707686,0.25779515504837,0.45510038733482
0.65423589944839,0.0067764364767294,0.098368679864517,0.72978098819408,0.50243026018143,0.34500426054001
-0.090430319309235,-0.40071607823331,0.7681293642927,0.84039674007946,0.66832405328751,0.63564735651016
-0.35459926724434,-0.7254091161832,1.3702714957461,0.74095862274112,0.69542706012726,0.82818204164505
-0.75579607486725,-0.78990907286105,1.7516852509576,0.5004432310226,0.55388063192368,1.0601401329041
-1.1966824531555,-0.67837835864658,1.8648247503865,0.2285748272464,0.27767607569695,1.1511627435684
-1.5068327188492,-0.71122945210378,1.7483421658735,-0.091367905714426,-0.076027825474739,0.49381038546562
-1.2251538038254,-1.0539259150297,1.4731882339863,-0.24660742538702,-0.57056200504303,-0.10965569317341
-0.10511808842421,-1.3258980606197,1.2044692038898,-0.011970970542443,-0.32801067829132,-0.17906853556633
0.88479191064835,-1.5230776862932,1.0871925995715,0.4123806794119,0.16000790894032,-0.15292300283909
1.2860368490219,-1.5524008176023,1.054834894437,0.62642220317487,0.40984314680099,0.051782451570034
1.2101732492447,-1.4934140505741,1.0351700478148,0.52683685327683,0.53112196922302,0.30463087558746
0.83614736795425,-1.3571755682468,0.97946506939812,0.1233464347767,0.35145798325539,0.072770066559315
-0.4366449713707,-1.2379614473434,1.0138289334641,-0.42083569402863,0.32539385557175,-0.32835534214973
-1.6766253709793,-0.88643716842309,1.3138519708612,-0.89483523973107,-0.039780113846064,-0.79370468854904
-2.2228450775146,-0.10438450784601,1.9515873139263,-0.90950779160912,-0.050706628710032,-0.48369088768959
-1.1827458143234,0.080600832156842,2.0530150143791,-0.5525155172046,0.19773457944393,0.12014155834913
-0.97843343019485,0.12089173377627,2.056039290853,-0.27680707379946,0.36242601275444,0.71595960855484
-0.70666629076004,0.12206212275112,2.0106647162907,-0.18862214869039,0.32984358072281,0.5924020409584
