ax,roll,yaw,pitch,ay,az
0.25821596384048,0.36643101389083,-0.19465974277726,0.99853507617509,0.75562608242035,-0.051759492605925
-0.26959469914436,-0.49890062045832,0.75750969735953,1.3398039504451,1.1081442832947,0.52594274282455
-0.52087241411209,-1.5050776778869,1.9608589854002,1.0608492427177,1.0185832977295,0.91059625148773
-1.0916814804077,-1.4506533113969,1.9441402769334,0.70743038238701,0.50008738040924,1.2309248447418
-1.2371197938919,-1.4170417538478,1.6512609846132,0.49808521295284,0.0074531193822622,0.62506598234177
-0.47746723890305,-1.5330503468548,1.3794578181925,0.57691838144074,-0.064007587730885,-0.073564887046814
0.34893423318863,-1.6340881551632,1.2431402610949,0.90478290562422,0.39734452962875,-0.08844131976366
0.76884835958481,-1.6090197297536,1.118223809717,1.1507831898676,0.70423656702042,-0.046817481517792
0.81982409954071,-1.553340232146,1.0693321897966,1.0822529267226,0.79346358776093,0.0952437967062
0.6784942150116,-1.4429856513967,1.0413090905751,0.7307290192682,0.74172300100327,0.0037183223757893
-0.73558056354523,-1.2988978710915,1.0944233702084,0.17428966315047,0.28636944293976,-0.52165615558624
-1.9665925502777,-0.97724858295578,1.3474180007971,-0.1179461363681,0.043231096118689,-0.15405303239822
-1.4017684459686,-0.65642914132206,1.4922246893837,-0.034204769409726,-0.0046876021660864,0.59832328557968
-0.69784092903137,-0.50841755934433,1.4511331283394,0.16095235318884,0.21340471506119,0.6705601811409
-0.27141574025154,-0.38328127766516,1.359361405886,0.29133088093708,0.24477730691433,0.42328977584839
-0.21162727475166,-0.33627501430301,1.3380735661282,0.33698950575433,0.27026838064194,0.4260665178299
