ax,roll,yaw,pitch,ay,az
0.40572398900986,-0.44480792916006,0.21652023968085,0.8851228978689,0.2632811665535,0.025147832930088
0.34923276305199,-0.47953314282794,0.30593189623474,0.77688546735391,0.16033612191677,-0.040471285581589
0.12398289144039,-0.47674807966386,0.40102199482193,0.62195505353408,-0.10005298256874,-0.46547782421112
-0.58776092529297,-0.47079626167512,0.51747890306671,0.54647506926957,-0.2483264952898,-1.0380555391312
-0.83766436576843,-0.56731626305993,0.69965985236655,0.67878195967371,0.18274658918381,-0.58646577596664
-0.49662366509438,-0.75402031136044,0.89828838665388,0.9170108314456,0.50588428974152,0.076747350394726
-0.054455112665892,-0.94630893360011,0.99195359585511,1.16101380038,0.7539689540863,0.27963483333588
0.33375418186188,-1.0050456481758,0.92446209782732,1.3219828753834,0.88154357671738,0.35778871178627
0.28305768966675,-0.77347191653978,0.6268082449235,1.2823198852624,0.65229713916779,0.4958790242672
0.4506208896637,-0.47931508108383,0.25203532071976,1.1191501831883,0.6807205080986,0.37289056181908
0.59764385223389,-0.30016774216791,0.043193805034986,0.77002084654415,0.5664199590683,-0.19462005794048
0.39561367034912,-0.28650970003014,0.0047461045247285,0.37216916072002,0.51802533864975,-0.67056518793106
0.10600977391005,-0.42137397104919,0.12400372762739,-0.007361485189305,0.4948205947876,-1.0208159685135
-0.31845021247864,-0.47667550509309,0.34358801801802,-0.27177631156506,0.10432924330235,-1.1762225627899
-0.60876530408859,-0.34369356757053,0.58820637103491,-0.29289786716244,0.076506495475769,-0.40064457058907
-0.4142874777317,-0.25324525437833,0.7442245799208,-0.18938808433993,0.40500375628471,0.21626676619053
-0.20921538770199,-0.25782536549658,0.83999760145991,-0.10173695946858,0.24997042119503,0.35495227575302
