ax,roll,yaw,pitch,ay,az
-0.17325992882252,-0.11497409228751,-0.01379804625859,-0.20674936056363,0.26046442985535,0.14222463965416
-0.44399386644363,-0.19721849751876,-0.1220319232323,-0.36607498823553,0.10870630294085,-0.45569854974747
-0.36716851592064,-0.22741331539144,-0.37255847952719,-0.41334773635266,0.051707047969103,-0.58103358745575
-0.14450378715992,-0.28536080501293,-0.63521115528043,-0.334384798362,0.048597168177366,-0.90598076581955
-0.013691576197743,-0.34228818477058,-0.81601092751286,-0.088978222815218,0.17519249022007,-0.99272185564041
0.3996733725071,-0.36464832047559,-0.94138914510066,0.30297548516591,0.52870815992355,-0.5085563659668
0.69783353805542,-0.35808284165608,-0.98726569270158,0.71197493396453,0.80039441585541,-0.050820153206587
0.59599250555038,-0.42894052083307,-0.81080699991544,0.98910577690197,0.78957557678223,0.27769234776497
0.47575190663338,-0.70889101673335,-0.3916144628869,1.0829107601393,0.8645424246788,0.29668462276459
0.084983728826046,-0.93122333354665,0.017089867698057,0.97755563963749,0.76513797044754,0.19364123046398
-0.18464152514935,-0.94136834832711,0.24934942313789,0.80386282220898,0.58199572563171,0.23749946057796
-0.42415204644203,-0.79747717655131,0.30787648560906,0.61502611215156,0.35861134529114,0.13179664313793
-0.70022338628769,-0.62793593021825,0.20406648753388,0.47091301361103,0.14629656076431,-0.069932475686073
-0.31004390120506,-0.50833933854375,-0.062721005665343,0.35139586834708,0.060425747185946,-0.53604257106781
0.10108435153961,-0.39423873774415,-0.40955257150401,0.2710529881198,-0.12483199685812,-0.54317504167557
0.36801686882973,-0.36880105220527,-0.61898104754676,0.27848218082227,-0.1114711612463,-0.46566328406334
0.22020395100117,-0.39368906082156,-0.66642406885398,0.37847963271214,0.021790843456984,-0.055325593799353
0.20343860983849,-0.37391610009044,-0.69371093087388,0.46141746612775,0.15453784167767,0.11107914149761
