ax,roll,yaw,pitch,ay,az
-0.48871785402298,-0.46203394732067,-0.022246747568493,-0.060572333068125,0.4466210603714,-0.22375775873661
-0.36354014277458,-0.50016515975097,-0.35722924852231,-0.19092519632442,0.45769357681274,-0.87669241428375
0.062564097344875,-0.52200863881012,-0.66379247750726,-0.076474536868621,0.35237196087837,-1.394518494606
0.39798566699028,-0.57737352299027,-0.79602244469386,0.24610186950686,0.59083890914917,-1.5065610408783
0.71473097801208,-0.64128400755802,-0.74825878596165,0.70726302677948,1.0056059360504,-0.64510250091553
0.7694776058197,-0.92800389616293,-0.38522218684837,1.1011900019183,1.1697006225586,-0.21942760050297
0.61816239356995,-1.4326603054863,0.34683889819887,1.1624005933111,1.1008645296097,0.095410473644733
0.27424910664558,-1.547300112954,0.67801837096862,0.96855692714787,0.9126158952713,0.030063211917877
-0.15558876097202,-1.3465602119807,0.69990711916637,0.74438332813076,0.6747260093689,0.045079067349434
-0.60628342628479,-1.116401681842,0.60444188983336,0.54050523424063,0.33575156331062,-0.0036548033822328
-0.62144154310226,-0.92064932710386,0.34856898303958,0.43485727139494,0.18480023741722,-0.25559747219086
-0.12083414196968,-0.82703227392658,-0.078951372607169,0.39874095690687,-0.096330255270004,-1.3729090690613
0.32601338624954,-0.79864282328367,-0.35167486916332,0.51271143944881,0.060701750218868,-0.94998252391815
0.671835064888,-0.82845211957688,-0.4363494994015,0.70760921577488,0.44645130634308,-0.30538934469223
