ax,roll,yaw,pitch,ay,az
-0.1252007484436,-0.25292695510422,-0.040249918941982,-0.26391250083349,0.15106669068336,-0.15719544887543
-0.17704136669636,-0.30478803148863,-0.23340762295641,-0.31412398032069,0.17441499233246,-0.4850854575634
-0.068832240998745,-0.30867232000907,-0.49235289550178,-0.23439682802496,0.32075265049934,-0.79639875888824
0.17755889892578,-0.3033928454488,-0.67693441166849,-0.010225312198828,0.42184272408485,-0.89412546157837
0.47205665707588,-0.37594088954763,-0.77813079600692,0.31254801241844,0.52072578668594,-0.92498993873596
0.64091312885284,-0.45688760043064,-0.7524566385127,0.71358093725067,0.69640010595322,-0.44206693768501
0.59820294380188,-0.61855283593241,-0.5626996771234,1.0361294882351,0.84430992603302,-0.15544380247593
0.65412950515747,-0.96899851556777,-0.078477449863798,1.2054057117431,1.0034728050232,0.26934698224068
0.46748578548431,-1.2544890082588,0.333152708638,1.0978006992179,0.96009290218353,0.15888591110706
0.058470096439123,-1.2791154037941,0.49918394771822,0.84368096837893,0.71398341655731,0.061738025397062
-0.27627611160278,-1.1798384635253,0.53538738051101,0.57822361692358,0.39997652173042,0.050280202180147
-0.70399743318558,-1.01592637218,0.42755251621825,0.43457677501176,0.11505729705095,-0.096081279218197
-0.51449644565582,-0.89541250824804,0.13485102984892,0.41597067502076,0.13454678654671,-0.53102231025696
0.22300316393375,-0.75579901440476,-0.26322239698405,0.46938784000177,0.043023411184549,-0.87529021501541
0.57591593265533,-0.76399444278901,-0.48273776537336,0.57736953104446,0.096191003918648,-0.92687571048737
0.622922539711,-0.77773462731519,-0.45174679994648,0.68758722036718,0.27569618821144,-0.16080126166344
