ax,roll,yaw,pitch,ay,az
0.33086133003235,0.29847429452825,-0.10457559318088,0.70674801588222,0.52823984622955,0.57212996482849
-0.22248084843159,0.14509728803261,0.22591114766434,0.83477458186044,0.80883318185806,0.54090762138367
-0.68966424465179,-0.1713579707866,0.79471791504705,0.89811097904452,0.80471903085709,0.56560778617859
-1.0817230939865,-0.33334330006406,1.1967668582102,0.80833512469456,0.56296670436859,0.62362992763519
-1.5555341243744,-0.25548271196994,1.2796271942441,0.63712323564337,0.29253262281418,0.50658649206161
-1.6739959716797,-0.28791283328386,1.1241501283922,0.39668510994895,-0.23596672713757,-0.3658929169178
-1.0227508544922,-0.41450788244887,0.85177701443403,0.29143123739044,-0.53256183862686,-0.66568505764008
0.1648642718792,-0.50481902175892,0.58589525432359,0.48510059434421,-0.058452405035496,0.29875642061234
0.46183481812477,-0.60386938208762,0.43348227019529,0.68508397028355,0.26292604207993,0.51935786008835
0.59189164638519,-0.56726996532702,0.30742936235235,0.81086919239453,0.52755951881409,0.61371719837189
0.44143396615982,-0.53008629646226,0.3128364594773,0.82604780021695,0.57423239946365,0.80042225122452
0.43543395400047,-0.50135669030244,0.36158764009348,0.71320878307738,0.51005303859711,0.88374418020248
0.14300926029682,-0.54250270394124,0.42767273864048,0.40683863924634,0.32052794098854,0.240891456604
-0.58097648620605,-0.51098006858927,0.52337529321372,-0.013906935076368,-0.20407676696777,-0.60540354251862
-1.1138362884521,-0.29201912206723,0.70215747034722,-0.37819863166529,-0.2471614331007,-1.2795528173447
-1.6828588247299,0.063056109477978,1.0675094636004,-0.35802969273119,-0.17063525319099,-0.76087468862534
-1.4560762643814,0.30006984922498,1.2097351197019,-0.097588948824169,0.029335888102651,0.01516252104193
-0.9195408821106,0.42600548896201,1.1912564246233,0.026964740132593,0.24851907789707,0.28092864155769
