ax,roll,yaw,pitch,ay,az
-0.13544876873493,-0.78270663542649,-0.064511714026694,-0.14040982203804,0.063450746238232,-0.40589553117752
-0.17217755317688,-0.80984792800326,-0.27667896080829,-0.15194934202923,-0.083173781633377,-0.85645359754562
0.091863669455051,-0.90450206312337,-0.43867495960058,-0.010082286481572,-0.00091158616123721,-1.3097802400589
0.42683553695679,-1.0044690964242,-0.47581665413122,0.26827383541314,0.29212123155594,-1.310338139534
0.73998200893402,-1.1164704035819,-0.37989086390345,0.6089568292021,0.5269376039505,-1.1415710449219
0.95701104402542,-1.3504207145437,-0.088223753374165,0.86646874490479,0.91774785518646,-0.69927453994751
0.86121499538422,-1.6216116948823,0.311350864107,0.90722839236602,0.91789609193802,-0.2637682557106
0.76215326786041,-1.7271331019127,0.57968652906774,0.75829544882877,0.70846736431122,0.07166750729084
0.22605988383293,-1.6705787343413,0.65359934687818,0.54803342567394,0.36416453123093,0.092095948755741
-0.27163353562355,-1.5609184080314,0.60478096393821,0.38073047984639,0.030351147055626,-0.073837369680405
-0.47734352946281,-1.4505303127776,0.46502393844253,0.31333322478181,-0.20292289555073,-0.20402625203133
-0.17257963120937,-1.4127204926256,0.25436564762421,0.35843480304578,-0.2403928488493,-0.54109317064285
0.3974301815033,-1.395231504612,0.033466651293056,0.47009084157967,-0.15079247951508,-1.3468149900436
0.55819433927536,-1.3411708896786,-0.031256859439093,0.57973415453538,-0.005894117988646,-0.95831996202469
