ax,roll,yaw,pitch,ay,az
-0.019762957468629,0.32613250857211,-0.14712105184556,0.83334273672432,0.066675506532192,0.05560190603137
0.31500759720802,0.34631552630502,-0.16830812720886,0.89385353755453,0.21628950536251,-0.10384684801102
0.15374152362347,0.26337991303393,-0.003098186633713,1.0442580549783,0.86812245845795,0.20439083874226
-0.45786553621292,-0.17276984570947,0.56203218290398,1.1377973802016,0.89820528030396,0.51495629549026
-0.92555165290833,-0.47309435386451,1.0007860632442,1.0051623205663,0.60006260871887,0.56651544570923
-1.4758962392807,-0.40315300054759,0.97134063439191,0.78505949095394,0.028949769213796,0.052614826709032
-0.9319389462471,-0.33209015436449,0.70248488652451,0.63655551349325,-0.68280780315399,-1.1139795780182
-0.16881449520588,-0.35112109026733,0.46728831137653,0.70122850807585,-0.4638366997242,-1.0843241214752
0.19947171211243,-0.3475159351942,0.33433995400193,0.92325192400486,0.37523472309113,0.14578291773796
0.3285239636898,-0.30536169980616,0.22985694283241,1.0781723381263,0.8538733124733,0.59223467111588
0.25506913661957,-0.31202611670561,0.24987724764164,1.0900791327021,0.99414640665054,0.7638783454895
0.26771047711372,-0.30463585427207,0.31405460792771,0.96651504898047,1.0435832738876,0.83771014213562
0.36536309123039,-0.23337639235436,0.31545277988391,0.61576147814976,0.87653052806854,-0.16859512031078
0.071588814258575,-0.22983259124766,0.43363574772136,0.21141181754007,0.097032256424427,-1.0507056713104
-0.82252305746078,-0.10776500404145,0.61093691404302,-0.021934640279602,-0.26863697171211,-1.4941231012344
-0.97882723808289,0.10168806541657,0.72334087769216,-0.019993698331531,-0.065066829323769,-0.86377829313278
-0.95729333162308,0.2221930002118,0.80427431186301,0.069578186296199,0.20013730227947,0.23344765603542
