ax,roll,yaw,pitch,ay,az
-0.34786128997803,-0.44655360499053,-0.041779758965555,-0.14592273669536,0.14149034023285,-0.34444600343704
-0.13184244930744,-0.5115902713333,-0.22275345901372,-0.1346768934555,0.011939573101699,-0.78364914655685
0.17456464469433,-0.61647762276783,-0.37977145765107,-0.0042315038317998,0.089655838906765,-1.1656699180603
0.53423511981964,-0.71418257526195,-0.47072460379941,0.26659639822245,0.34485524892807,-1.2862628698349
0.75350970029831,-0.80200308819839,-0.44033654191827,0.62983155698909,0.69569808244705,-1.0349367856979
0.8922011256218,-0.9441165967093,-0.23497922739217,0.94861129745629,1.168396115303,-0.48481923341751
0.72486227750778,-1.2934641151275,0.27708402905789,1.0746337480581,1.0868133306503,0.13973869383335
0.62677842378616,-1.5156879378651,0.65810206262632,0.99127525055104,0.82572346925735,0.24197053909302
0.048747945576906,-1.5266397449146,0.7918935652138,0.76428710606262,0.5012418627739,0.069081448018551
-0.21735438704491,-1.4175879988241,0.80907738586143,0.53353592103984,0.1937006264925,0.10674089938402
-0.59319341182709,-1.3015477688772,0.72042293350168,0.4091833555947,-0.028073612600565,-0.077058732509613
-0.31212273240089,-1.1881335125527,0.49923069008065,0.40758221722673,-0.26915183663368,-0.36184644699097
0.14915850758553,-1.141820583342,0.20734245308008,0.50715766597491,-0.24938224256039,-0.93956172466278
0.81381684541702,-1.0746894884861,-0.00092530207273574,0.64853916441691,0.13541014492512,-0.77109110355377
0.70196890830994,-1.0697690909972,-0.023202847603795,0.70904188572322,0.2091971039772,-0.42938402295113
