ax,roll,yaw,pitch,ay,az
0.19328209757805,0.088290745672748,-0.031071590785552,0.75358582042222,0.14197596907616,-0.021067555993795
0.071404471993446,0.050147111464681,0.12055385753995,0.64431956971817,0.13495634496212,-0.85834151506424
-0.88699567317963,0.026210574271806,0.3545343495362,0.64629263383751,0.0088013308122754,-1.1504538059235
-1.1703406572342,-0.0026837095822423,0.49986361847038,0.86146040995178,0.34952333569527,-0.5908140540123
-0.83568376302719,0.057695994883501,0.45445299990596,1.1173827472479,0.6324166059494,0.027838127687573
-0.4502275288105,0.36391484069547,0.047572470985054,1.2785217664866,0.76046270132065,0.25591000914574
-0.33447903394699,0.71841395548168,-0.4516217103081,1.2740443195986,0.75540935993195,0.35404115915298
0.17868888378143,0.67270686596513,-0.56717653490219,1.1800513167759,0.80206698179245,0.34800851345062
0.47413516044617,0.35310054232581,-0.36487893460727,1.0213418614942,0.87150150537491,0.045057360082865
0.069873049855232,0.072300432827845,-0.073609888228961,0.77057643670728,0.63264513015747,-0.22079710662365
0.19456945359707,-0.0027177667921648,0.084251582359091,0.46369824072196,0.49611750245094,-0.57643920183182
-0.21950431168079,-0.014365397463086,0.22505208128139,0.21086834327546,0.12521789968014,-1.1399118900299
-0.41923385858536,0.077897373538409,0.34502414402009,0.079259593218959,-0.067979134619236,-1.3176246881485
-0.94720524549484,0.20557347311717,0.47084920244967,0.10991308093969,0.05506543815136,-0.67527866363525
-0.70645719766617,0.33697457378962,0.51271009878481,0.19932078852845,0.39111885428429,0.060999371111393
-0.39854580163956,0.35487352353012,0.54612681997002,0.26397547114787,0.47437557578087,0.1457334458828
-0.27599537372589,0.31616774805652,0.59047290946737,0.28557206555519,0.2838426232338,-0.199462428689
