ax,roll,yaw,pitch,ay,az
-0.53340077400208,-0.16317661793874,-0.013706497804097,-0.13048094271767,0.022705757990479,-0.190708309412
-0.50166636705399,-0.23644762929751,-0.17894130396235,-0.21086905244933,0.0025432459078729,-0.53693741559982
-0.10783094912767,-0.33150140838972,-0.43385517693441,-0.17967216882781,0.052372064441442,-0.82479339838028
0.38858205080032,-0.45262834274777,-0.62610897003712,-0.013958929222085,0.011996714398265,-1.1391931772232
0.80353778600693,-0.53817787606065,-0.7097402797706,0.28491968873763,0.27940189838409,-1.1650322675705
0.80000311136246,-0.64966951454627,-0.62336834138509,0.64699899328885,0.6690788269043,-0.69823569059372
0.59193682670593,-0.85016987772034,-0.30448446493108,0.94391510155621,1.0661780834198,0.23538275063038
0.64326071739197,-1.1029963681723,0.099354245035561,1.0612896090356,1.0717157125473,0.39939516782761
0.46559646725655,-1.2443705772875,0.40053535802566,0.95442619962435,0.90712291002274,0.48712375760078
-0.36322778463364,-1.2435756720251,0.53285476751679,0.71057786937806,0.53104078769684,0.34744662046432
-0.7557669878006,-1.1101529720628,0.47669747580755,0.49933877661134,0.1209044829011,0.016697341576219
-0.79719769954681,-0.96035750330451,0.29870148801192,0.43069554909693,-0.23059886693954,-0.0052456064149737
0.088371932506561,-0.8329958839552,-0.047360493726998,0.44715470467224,-0.21945370733738,-0.91195183992386
0.82141268253326,-0.75641496436808,-0.28790764601564,0.53624349858818,0.062530852854252,-0.51280289888382
0.62162727117538,-0.70470094513622,-0.34367580034488,0.58371751587494,0.13190974295139,-0.097000747919083
