ax,roll,yaw,pitch,ay,az
-0.0099725965410471,-0.44849774683873,0.022415304804552,0.10542808501038,0.14652316272259,0.025078792124987
-0.19601342082024,-0.45575808637475,-0.079504671340606,0.003300115877253,0.085087217390537,-0.20026758313179
-0.27814835309982,-0.48227031489668,-0.25208824023502,-0.067289383930416,-0.046578217297792,-0.5197166800499
-0.17235562205315,-0.54249416370531,-0.42050803187781,-0.028777159272309,-0.12313353270292,-0.79860925674438
-0.074707627296448,-0.64956651287132,-0.51789492319554,0.14498944918111,-0.06225934997201,-0.98488253355026
0.30552285909653,-0.73334195930142,-0.57016913531377,0.45366028940693,0.37533125281334,-0.83471012115479
0.7084134221077,-0.80149841375309,-0.54311418337093,0.79611618603931,0.67649787664413,-0.42402881383896
0.74834358692169,-0.98303313490178,-0.3211362319184,1.0189638603081,0.79521453380585,-0.086989171802998
0.65820741653442,-1.262748231748,0.069420453336297,1.0731001024014,0.8476026058197,0.098056137561798
0.32757264375687,-1.3889033233319,0.34556659165052,0.96550719325877,0.70861387252808,0.16951668262482
-0.14774210751057,-1.3113847567249,0.42670829279792,0.79313463348105,0.46707272529602,0.23876465857029
-0.70513927936554,-1.1650618216519,0.35899639808312,0.60260816027411,0.19603511691093,0.087593086063862
-0.76688784360886,-1.0305029296206,0.16412970185214,0.4908563758538,-0.13694080710411,-0.18355344235897
-0.11398004740477,-0.90215874355494,-0.1588376076725,0.48974472160823,-0.11991615593433,-0.84681177139282
0.58562195301056,-0.83675493005998,-0.39319579075571,0.56116098437209,0.037906810641289,-0.78324544429779
0.62586885690689,-0.85111914559981,-0.42248959238719,0.6312084869087,0.19595578312874,-0.20086659491062
