ax,roll,yaw,pitch,ay,az
0.17977777123451,0.27752049565224,-0.12104147357282,0.84494222609843,0.52793157100677,0.05388904735446
-0.14907349646091,0.20036694484058,0.089955962891475,0.68153919623823,0.11592049151659,-0.97408628463745
-0.72369432449341,0.16330415312502,0.34025329294039,0.67623698198177,-0.15792043507099,-1.3264515399933
-1.4104110002518,0.12962763200889,0.55076362887758,0.90455422570087,0.031419537961483,-0.84053361415863
-0.95333075523376,0.26496767547664,0.40488252583736,1.2068961989836,0.62779885530472,-0.17490163445473
-0.57914769649506,0.9583298361982,-0.37795819495041,1.3359280898905,0.81400620937347,0.22248412668705
-0.43481120467186,1.3517402658211,-0.88878442749629,1.23527545378,0.86719733476639,0.31369289755821
-0.16327661275864,1.2179583633446,-0.87465697714685,1.1034285230533,0.84667581319809,0.28459513187408
-0.067025810480118,0.87388015997941,-0.58842661894439,0.98173308248026,0.60604333877563,-0.2430817335844
-0.04677240550518,0.58049802283138,-0.28161731413693,0.83032070243861,0.61474996805191,-0.28467452526093
0.0074136080220342,0.35635380410655,0.0060252078149078,0.58085980256241,0.5594088435173,-0.54839336872101
-0.13934229314327,0.23544198040766,0.26393220093042,0.34032864824794,-0.055348005145788,-1.5223566293716
-0.84636563062668,0.27377668301916,0.51404759696666,0.3555955841343,-0.14216192066669,-1.0247354507446
-0.96862453222275,0.34079344907859,0.62374307393309,0.45334677089219,0.33354553580284,-0.055760234594345
-0.72510254383087,0.31738790124954,0.65784877403051,0.47662967239821,0.52531540393829,0.24411489069462
-0.44002169370651,0.26762908239613,0.66540136407066,0.44868853053606,0.35431650280952,-0.22303888201714
