ax,roll,yaw,pitch,ay,az
0.02610195800662,-0.62036036700595,0.050472153462528,0.16593841939953,0.25961458683014,-0.059537746012211
-0.17988069355488,-0.62995576319521,-0.052144782096566,0.082247198502263,0.17695735394955,-0.33133569359779
-0.35083711147308,-0.64711208201931,-0.21099019921813,0.056980463988647,-0.061031322926283,-0.56294846534729
-0.1468313485384,-0.72516474996191,-0.35234788732641,0.13509738165804,-0.21136726438999,-1.0833954811096
0.16246834397316,-0.83419941485481,-0.39884528308954,0.35581781872485,0.17785535752773,-0.94879871606827
0.43586334586143,-1.0022344228012,-0.37671586347712,0.65668736055877,0.41490936279297,-0.92391765117645
0.75245451927185,-1.2575517468948,-0.15023084455609,0.92894439769707,0.75074118375778,-0.46557360887527
0.71825015544891,-1.54528550099,0.19354665234738,1.0226115513046,0.82374781370163,-0.14417743682861
0.63135713338852,-1.6882407631077,0.46855349038181,0.97224537344374,0.74012386798859,-0.038509927690029
0.23904490470886,-1.6610507825122,0.59445141580544,0.8138008212967,0.59152662754059,0.052742023020983
-0.47746193408966,-1.5617027220539,0.60219214899866,0.62947261005778,0.32533657550812,0.060237538069487
-0.76743096113205,-1.3755090053412,0.47175413662939,0.54825372514581,-0.0026060026139021,-0.013484524562955
-0.41854098439217,-1.2129889799949,0.22537873337791,0.5911156285625,-0.1777281910181,-0.33420437574387
0.5482924580574,-1.0931889318475,-0.084605389521009,0.69011955431661,-0.011304565705359,-0.99002516269684
0.4898601770401,-0.99917419289958,-0.18996203382629,0.73719668840209,0.10724321752787,-0.42023995518684
0.23552232980728,-0.9502959760283,-0.20028385500985,0.74445116435694,0.18686084449291,-0.28297427296638
