ax,roll,yaw,pitch,ay,az
0.024075724184513,1.2031580637407,-0.43651389816063,0.63649915413024,0.47484642267227,0.12416166067123
-0.12924405932426,1.1314102904609,-0.22051481528405,0.92483600924945,1.0773763656616,0.022545950487256
-0.48410174250603,0.1954972454177,1.0619543783146,1.1716882192603,1.3803465366364,-0.079804137349129
-1.181915640831,-0.28206896423054,1.9230057657247,0.70837472438029,1.2545126676559,-0.54708003997803
-1.7233018875122,-0.1006282629357,2.0531558699695,0.21023904858873,0.87586897611618,-0.71074318885803
-1.5230574607849,-0.078721008434472,1.8824960233264,-0.11798421837006,0.56870591640472,-0.95122003555298
-0.61465430259705,-0.13837902463534,1.4490343055477,-0.25829219139711,0.50570917129517,-0.77382916212082
-0.088017895817757,-0.26761234634676,0.94979517478895,-0.13598994782408,0.4126313328743,-0.88849288225174
0.18392170965672,-0.27320806638092,0.63825949638147,0.21722245127318,0.5921203494072,-0.38166350126266
0.19895607233047,-0.12350743092038,0.51308642167291,0.61875429402435,0.84514236450195,0.028367200866342
0.21089181303978,-0.062376309978822,0.67757831101454,0.95099596584956,1.0708303451538,0.65031492710114
-0.59009855985641,-0.37906858679515,1.3253147799303,0.986419898562,0.64763963222504,0.59946006536484
-1.0284476280212,-0.51272103112926,1.6667590491833,0.87031234306451,0.24869167804718,0.20530259609222
-0.7855623960495,-0.40986370553778,1.6771204238496,0.8119499355409,0.16880652308464,-0.19747318327427
