ax,roll,yaw,pitch,ay,az
-0.1347374767065,1.3121780810902,-0.50245120167371,0.65899615002387,0.42651721835136,0.09100303798914
-0.18357023596764,1.3337061529277,-0.40089542648958,0.96553291735217,0.66848260164261,-0.037152614444494
-0.18437430262566,1.1957935181883,-0.11369110114394,1.4306380336421,0.91409826278687,-0.021691957488656
-0.22457538545132,-1.2137176995905,2.5465399303461,1.2128516378732,1.1102639436722,-0.10071424394846
-0.64688366651535,-0.98667980471764,2.6192041455131,0.77093020217214,1.0775858163834,-0.30755081772804
-0.751309633255,-0.55565218279054,2.466949358826,0.41302011286003,1.1158090829849,-0.43931797146797
-0.89044469594955,-0.34465876770725,2.2530012414626,0.084064958311254,0.93650501966476,-0.63418489694595
-1.2529253959656,-0.34559706193178,1.9873524172332,-0.19049342725771,0.31433394551277,-0.59106928110123
-0.73969572782516,-0.38267728187858,1.547797609788,-0.26840471771872,0.24660143256187,-0.92128157615662
0.020858759060502,-0.53421521245438,1.1792847590454,-0.053467667526297,0.45479756593704,-0.90922296047211
0.66569793224335,-0.55724283543251,1.0822146897552,0.33153838424384,0.49079647660255,-0.22101612389088
0.47872591018677,-0.54769462734303,1.1940200001475,0.68685025667184,0.65790849924088,0.23194999992847
0.20248562097549,-0.66929408366154,1.5177808753047,0.94103733916134,0.87120354175568,0.46904620528221
-0.47607269883156,-0.84251176507556,1.9372653359686,0.91776130980528,0.79784440994263,0.43316009640694
-0.97309935092926,-0.86629335159903,2.1605476146619,0.78275393827578,0.57999038696289,0.24997280538082
