ax,roll,yaw,pitch,ay,az
-0.22920574247837,0.84916526639331,-0.33811153481083,0.74858883787814,0.30882519483566,0.33029416203499
-0.51307654380798,0.84627489840843,-0.14214309573283,0.95019524772294,0.64221864938736,0.27513048052788
-0.97431164979935,0.634250413626,0.27801558352188,1.0885791138837,0.72880333662033,0.23443947732449
-1.2051609754562,0.37438270591458,0.69222736812633,1.0511807643273,0.80702072381973,0.26038551330566
-1.2091610431671,0.25058964785602,0.94447405466033,0.81708487384253,0.9778111577034,-0.24972948431969
-1.1597727537155,0.26824233174101,1.0039868979537,0.41858605465606,0.9670158624649,-0.74100369215012
-1.2385956048965,0.29890514786121,0.98630668524135,0.0023351920764633,0.30027830600739,-1.1316081285477
-1.2215583324432,0.25062536461003,0.86171160117882,-0.24604996349173,-0.28567379713058,-1.218012213707
-0.74015384912491,0.2029812003154,0.56173866400037,-0.3523590803855,-0.13956174254417,-1.1432838439941
-0.32013556361198,0.1475485339525,0.2593046439608,-0.18939711488512,0.24451820552349,-0.67203170061111
-0.075184352695942,0.22086282635467,0.064010561746206,0.07989032946243,0.43171882629395,-0.028028873726726
-0.046112552285194,0.36006341306693,0.0096735661826102,0.35930169172081,0.41178601980209,0.38941761851311
-0.3958734869957,0.44833253419206,0.089153465720803,0.61940945484304,0.4151186645031,0.56534159183502
-0.55838775634766,0.51843008121111,0.20814582354405,0.79183283174345,0.39192467927933,0.62615704536438
-0.96556729078293,0.45478197049859,0.46218598652304,0.84694523367478,0.36345759034157,0.10190206766129
-1.2463997602463,0.4009494849506,0.66884958796463,0.83116854886106,0.18293331563473,-0.23771873116493
