ax,roll,yaw,pitch,ay,az
0.039933420717716,0.55274072228931,-0.23268411667839,0.79716993076643,0.043491218239069,0.10376372933388
0.083663150668144,0.53117035863704,-0.11060162828914,0.88636644897733,0.44700556993484,0.39100551605225
-0.1419213861227,0.30888420624119,0.24513126528298,0.95687720917407,0.68171542882919,0.36331054568291
-0.89762985706329,-0.0056906377737777,0.73564328067989,0.88931774238917,0.87265050411224,0.176638931036
-1.4480845928192,-0.11026537138893,1.0082192439371,0.69384220279348,0.57513415813446,-0.057483807206154
-1.140726685524,-0.10457494799544,0.98688679929234,0.4696229132161,0.21291077136993,-0.41910177469254
-1.1452510356903,-0.037533315533045,0.77796599955578,0.15734503067456,-0.034663889557123,-1.2856775522232
-0.33682632446289,-0.10503351722809,0.45810457731146,0.092031898878244,-0.023088201880455,-1.2337186336517
0.2829857468605,-0.093230439716968,0.21243642951343,0.23405238382638,0.077410809695721,-0.62639951705933
0.52636915445328,-0.030749058616074,0.087419671518569,0.45695747863539,0.22820709645748,-0.12115258723497
0.40736317634583,0.069277721999199,0.0779706107001,0.67770187202851,0.59631896018982,0.40464949607849
0.11851749569178,0.067010729505188,0.22651244694585,0.83699967313922,0.67623090744019,0.67315006256104
-0.72076690196991,-0.066441691704952,0.5214308765658,0.85939787291144,0.3130678832531,0.30352216959
-0.88295274972916,-0.094130922393747,0.68929553886152,0.82632637190119,0.18581029772758,-0.021645607426763
