ax,roll,yaw,pitch,ay,az
-0.15903227031231,1.1654649206246,-0.21602660845871,0.33758957760963,0.090933531522751,0.12595702707767
-0.52518403530121,1.1890513002897,-0.10487011012668,0.44929419806227,0.26329410076141,0.076640821993351
-0.89767217636108,1.1835200405643,0.074901795813966,0.59641733838971,0.36942121386528,0.08182816952467
-1.3290228843689,1.0603789239227,0.40319482433192,0.65934772510085,0.51297676563263,-0.50883448123932
-1.4262542724609,0.95208319973662,0.66986468580553,0.58901213333861,0.517957508564,-0.7571262717247
-1.2259186506271,0.94482927153648,0.81104939791798,0.37897003207363,0.56666487455368,-1.2105721235275
-0.67266196012497,1.0485373932141,0.8158196821321,0.097925301179785,0.33939176797867,-0.78760826587677
-0.3651188313961,0.9974372401557,0.77615444881198,-0.19897704736463,0.19720025360584,-1.314742565155
0.069551326334476,0.94844330539658,0.60103057642733,-0.37843748235358,0.24144721031189,-1.0528272390366
-0.0099493907764554,0.9252782725004,0.43181725148077,-0.36509423623007,0.091586321592331,-0.64076817035675
-0.081071883440018,0.91123405782426,0.29263243763611,-0.23114545959079,0.1626004576683,-0.44739493727684
-0.31211894750595,0.94476787119844,0.21579831600039,0.0082040121298629,0.25878375768661,-0.093379490077496
-0.69928181171417,0.97419533957195,0.21166063243645,0.30323570181922,0.32268819212914,0.24039350450039
-0.94655758142471,1.0008362697499,0.28175586099853,0.51352166523602,0.27973037958145,0.27568027377129
-1.1450527906418,1.015095744943,0.4485947493982,0.57489242033428,0.15185302495956,-0.27695879340172
