ax,roll,yaw,pitch,ay,az
-0.042106058448553,0.54162440141651,-0.21223692971288,0.73344473873425,0.11865133792162,0.16761410236359
-0.07718788087368,0.53960809985694,-0.16809324418398,0.78868495166708,0.17369098961353,0.27494025230408
-0.099791578948498,0.48850606988183,-0.013971952323145,0.84630858554809,0.23153558373451,0.27952325344086
-0.22551965713501,0.32858477071384,0.28207148279129,0.88711242944364,0.49863973259926,0.4508108496666
-0.52891659736633,0.11430975632277,0.67286407734139,0.79680159846687,0.89075273275375,0.15045988559723
-0.71618175506592,0.07097354295092,0.95380973950001,0.56277302442683,0.91179901361465,0.15724819898605
-1.3055070638657,0.1468394274536,1.0746105488987,0.20098286413514,0.85339534282684,-0.28602993488312
-1.3016203641891,0.15740866499449,0.99862611601468,-0.21855961659223,0.39525207877159,-1.6277772188187
-0.56959247589111,0.13199701184499,0.71443939364385,-0.40407733132083,0.015688698738813,-1.1681836843491
-0.0419338978827,0.00017974470151023,0.40385136724602,-0.32048157746948,0.0058076530694962,-0.64101934432983
0.33610418438911,-0.064843864989178,0.1817727526004,-0.088733181950819,0.19389969110489,-0.31817662715912
0.4214263856411,-0.03997509677457,0.098586664110712,0.21715498043964,0.35005006194115,0.33748960494995
0.26900255680084,0.033139123180657,0.141453681473,0.47031510949626,0.52332711219788,0.69174784421921
-0.20844079554081,0.08415945005487,0.33624450553863,0.55282467457903,0.51534289121628,0.74561560153961
-1.0964647531509,0.074303599786331,0.60899803718128,0.4797255109499,0.18780827522278,-0.13388082385063
-1.2274475097656,0.1435504319972,0.71793689827743,0.43406436398818,-0.11921796947718,-0.36381715536118
