ax,roll,yaw,pitch,ay,az
0.082665622234344,0.88471634148492,-0.55187685554947,1.0900680137882,0.52198857069016,0.16451719403267
0.18118153512478,0.6858156733483,-0.26146882591979,1.1945215526585,0.87739706039429,0.20576392114162
-0.45195549726486,-0.054394149071246,0.6530078515203,1.1698392537634,1.0488159656525,0.075177602469921
-1.034574508667,-0.32544523234138,1.1503659871661,0.87264984811616,1.0679606199265,-0.3021212220192
-1.5247187614441,-0.25102786966342,1.2108486588162,0.5006719778297,0.69858205318451,-0.55244165658951
-1.1842061281204,-0.12011136705797,0.93309036215407,0.12557919838753,0.33646154403687,-1.4370197057724
-0.43587446212769,-0.086350021081439,0.59752763582331,-0.022828430637294,-0.033187165856361,-1.2327299118042
0.22027404606342,-0.14623716452662,0.32407144100665,0.14250085518687,0.15218141674995,-0.77060997486115
0.5009052157402,-0.12281327949428,0.15243820197958,0.48906222278775,0.6014968752861,-0.079350166022778
0.35544711351395,-0.0052752901866816,0.11336936487914,0.7807979889906,0.72018867731094,0.32136517763138
-0.17758280038834,-0.00074691079729245,0.3056542788541,0.93838435236287,0.82764601707458,0.38991990685463
-1.0478177070618,-0.14005345122093,0.66654538036267,0.93246687980922,0.33806544542313,0.17078511416912
-1.0120927095413,-0.13255474151089,0.7801518547693,0.86117542596966,0.062487725168467,-0.20933306217194
-0.44831466674805,-0.052152751834343,0.72699303706523,0.81937728439669,0.20423159003258,-0.24841234087944
