ax,roll,yaw,pitch,ay,az
-0.18727883696556,1.0731370851846,-0.27363622090334,0.4714135430314,0.47712582349777,0.39371621608734
-0.57240319252014,1.059068356854,-0.095485042389133,0.69713434497525,0.75750178098679,0.054327953606844
-0.99762612581253,0.91760842212761,0.32361195302114,0.9286597141189,1.0835022926331,-0.017012413591146
-1.7567058801651,0.60106056367558,0.99930964485949,0.89736136733,1.0720435380936,-0.3738622367382
-2.1401255130768,0.52195914715473,1.3214057845548,0.51502839970353,0.87323582172394,-1.1612992286682
-1.8587290048599,0.55564432981172,1.3008298905946,0.081580253241404,0.15467093884945,-1.7189843654633
-0.78563725948334,0.52078197980801,1.0365867197687,-0.14053514046745,-0.089169673621655,-1.4573751688004
0.061880756169558,0.43776630498138,0.6786267985269,-0.069604823392578,0.18357941508293,-0.74628782272339
-0.0090185580775142,0.55279355474795,0.44113387038704,0.1773485090069,0.39428529143333,0.35130766034126
-0.47757235169411,0.73058803988048,0.3663087354558,0.43973309480954,0.52185887098312,0.59070611000061
-1.1515156030655,0.81914886450436,0.49118783616009,0.62234663796152,0.45946928858757,0.27077651023865
-1.4683402776718,0.79966227025005,0.67942441943494,0.68322903252678,0.10023365169764,-0.34333953261375
-1.3492761850357,0.80713201051398,0.7482788936312,0.67168798374489,0.039590284228325,-0.62280994653702
-0.94551378488541,0.86354463296015,0.68996679357882,0.64805677871003,0.10607971996069,-0.19496592879295
