ax,roll,yaw,pitch,ay,az
-0.39078992605209,0.81219153964202,-0.29609264359626,0.6655625389588,-0.019690044224262,-0.052142571657896
-0.26930528879166,0.84020128271054,-0.34915387672409,0.71891950075693,0.06395223736763,0.20081898570061
-0.10274448245764,0.85482016382469,-0.35458219484739,0.78108706988784,0.27555447816849,0.29370000958443
0.05971360206604,0.75978557639047,-0.26631115300023,0.89416682593388,0.71848464012146,0.34730315208435
-0.30763098597527,0.49478931838041,0.098492104817234,1.0100890905967,0.84768790006638,0.1655936986208
-0.82359600067139,0.15719356457906,0.66741183061577,0.95258237908397,0.79756569862366,-0.17629884183407
-1.229092001915,0.046652443889316,0.99571446217992,0.71451249863814,0.6942201256752,-0.67883503437042
-1.3987145423889,0.057878640521088,1.1274639437642,0.48310576251117,0.65505295991898,-0.40978014469147
-1.518177986145,0.027924908165076,1.0893743672468,0.17371013889335,0.37933501601219,-0.8127207159996
-0.9755072593689,0.034652265427031,0.79629348423887,-0.070711322743898,0.21860845386982,-0.98547393083572
-0.077206835150719,-0.030077837791805,0.43854343726294,-0.07614721232364,0.11762142181396,-1.1678996086121
0.53352814912796,-0.036315085626265,0.15977959857519,0.13951781583923,0.42153632640839,-0.7977232336998
0.35692319273949,0.13020840174889,0.035283757266046,0.45146848033513,1.0217366218567,0.29802840948105
-0.42027249932289,0.24400317663124,0.14286286249301,0.74224869060501,0.9196754693985,0.77406561374664
-1.1152518987656,0.15043215314635,0.45169145188616,0.88523034335841,0.54598772525787,0.50076276063919
-1.1698077917099,0.10715077126269,0.64526957175757,0.87761715524376,0.068138152360916,0.045630019158125
-0.77849024534225,0.15498026063947,0.64798144605575,0.83160993192901,0.16311971843243,-0.28240087628365
