ax,roll,yaw,pitch,ay,az
-0.42955067753792,-0.066052236613099,0.01278710795967,0.43491130400265,0.0054058814421296,0.060844074934721
-0.75087177753448,-0.11475126731299,-0.070486524277916,0.4569804176429,0.17747697234154,-0.0588150434196
-0.34366282820702,-0.0092533909952622,-0.32456699771673,0.46617385083198,0.51564908027649,0.33110728859901
0.42274212837219,-0.045345324409932,-0.55667699710871,0.37450512150354,0.69129723310471,0.38340640068054
0.55351012945175,-0.19842655313201,-0.56646366690298,0.15559977744784,0.4451490342617,-0.34089919924736
0.34478262066841,-0.27829487033602,-0.43790170664823,-0.067622314001054,0.03667725622654,-0.92215728759766
-0.5865513086319,-0.22992885839718,-0.16656062821317,-0.16069032847956,0.15056246519089,-1.2740297317505
-1.484988451004,-0.12887235708385,0.12821356710613,-0.03314184012181,0.26912558078766,-0.82414478063583
-1.0212438106537,-0.099643023972356,0.21919407013533,0.37441009295174,0.6207589507103,-0.41010525822639
-0.52213948965073,-0.067927428821235,0.054343554053746,0.78931212243857,0.89892536401749,-0.0085484636947513
0.28326663374901,0.1886390420791,-0.3839586091734,1.0893443623227,0.90698391199112,0.53268700838089
0.41790819168091,0.34289280616087,-0.73538085369308,1.180360577444,0.58845484256744,0.34088814258575
0.19498474895954,0.33251871678017,-0.80937561143371,1.1517466534265,0.34356027841568,0.013846187852323
