ax,roll,yaw,pitch,ay,az
-0.81188160181046,-0.18444446428209,0.047693284131436,0.47937956774924,-0.22468431293964,-0.39954283833504
-0.81632149219513,-0.18457199309441,-0.016934740971798,0.62774326187057,0.33616009354591,0.024291470646858
-0.09055719524622,-0.092371384719367,-0.2772038830704,0.76846829330664,0.90282899141312,0.76478481292725
0.4542308151722,-0.044240231071886,-0.5352639829955,0.73532820439488,0.9780205488205,0.83007264137268
0.8538493514061,-0.10398251323123,-0.63575802425453,0.43741993316531,0.67627400159836,0.062911629676819
0.64775907993317,-0.18166186675457,-0.55712749291535,0.04207647440338,-0.092533715069294,-1.3343881368637
-0.68543833494186,-0.11064198073764,-0.25908447575977,-0.15712012082324,-0.3522447347641,-1.6458444595337
-1.536477804184,-0.047021421364704,0.045774927949526,-0.0068859339777089,-0.23369252681732,-1.2729033231735
-1.2387067079544,-0.11239000328735,0.11667921961432,0.38533963217459,0.63368636369705,-0.60961693525314
-0.72974216938019,-0.10738723988006,-0.053727549210203,0.82494355722902,1.0541505813599,-0.2105798125267
0.069780252873898,0.28348285765786,-0.58788072556843,1.101209175037,1.1689158678055,0.53678220510483
0.47026890516281,0.56963381250645,-1.0454889061103,1.1439343999998,0.79181545972824,0.66900080442429
0.35060247778893,0.55673508859725,-1.1026925707984,1.0957598130778,0.25805044174194,0.090708829462528
