ax,roll,yaw,pitch,ay,az
0.47105798125267,0.12026353257284,-0.062271211035158,0.71427342706981,0.26207849383354,0.069875158369541
0.79255187511444,0.32060193158829,-0.27641289471151,0.78590946731068,0.68171143531799,0.13826286792755
0.07562518119812,-0.069202685895678,0.29974325186604,0.98902244667844,0.86576265096664,0.47977119684219
0.20746186375618,-0.65120908455044,1.1080531210042,0.87378877782543,0.67893695831299,0.57476580142975
-0.5432510972023,-0.9287528019353,1.6371471875172,0.49470281469385,0.68570762872696,0.52395677566528
-1.6387641429901,-0.98647363079523,1.8625693153775,0.1696454852859,0.086862698197365,0.3796226978302
-0.51329219341278,-0.9319312154424,1.767024405389,0.18112768044315,0.1133054420352,0.41712716221809
0.20554830133915,-1.0585324473669,1.6294182503432,0.29070525636976,0.31357499957085,0.62980329990387
0.30743238329887,-0.91489836908362,1.2236427774378,0.47405575300745,0.56460702419281,0.6146080493927
0.50717735290527,-0.38973659653077,0.27246866457379,0.50554121541758,1.4887976646423,0.27744174003601
1.1399824619293,-0.46644298019759,-0.46488467012691,-0.015273950886284,1.351624250412,-1.0869263410568
0.082627594470978,-0.72328509554947,-0.33829168701253,-0.60960547721484,1.3336753845215,-1.5640280246735
-1.3974381685257,-0.071781014787086,0.70920948005202,-0.97142601235606,0.21579767763615,-1.7615640163422
-0.85541760921478,0.296497950748,1.1315711012835,-0.58121873314294,-0.024171130731702,-0.39357689023018
-0.50582683086395,0.28019620504796,1.1825830558981,-0.20343358578192,0.12130044400692,0.50669002532959
