ax,roll,yaw,pitch,ay,az
0.88795751333237,0.32086942821549,-0.12672099025201,0.65278087784271,0.87724959850311,0.16974648833275
1.0152391195297,0.43163532937584,-0.12343191219342,0.56159528399615,0.85570305585861,0.020851787179708
-0.71766227483749,0.092202435246164,0.64026508262913,0.80397287639073,0.47475701570511,0.17973458766937
-1.0091465711594,-0.28338552885918,1.2414085472865,0.90944267493859,-0.13565839827061,0.54160803556442
-0.45185190439224,-0.29132930261829,1.3462534371356,0.98368966077882,0.33887931704521,0.80379056930542
0.30064982175827,-0.12349407840434,1.2237520399487,0.94838410748277,0.78003430366516,0.88032990694046
0.2233060002327,-0.19630019593668,1.3368177747754,0.71311525707681,0.67668455839157,0.85345077514648
-0.45921719074249,-0.30597605648192,1.4828957490136,0.18946842437354,0.067883968353271,-0.58050924539566
-1.5135830640793,-0.28944124137793,1.6380336125201,-0.18933130006419,-0.61944609880447,-1.2314828634262
-1.6234720945358,-0.29651621926044,1.7652034441223,-0.19605595763638,-0.57578384876251,-0.60308367013931
-0.86380273103714,-0.39117222736535,1.6613927976185,0.057461489858143,-0.092564016580582,0.010873377323151
-0.12497804313898,-0.35557232490282,1.3364672993332,0.40363437232485,0.51342976093292,0.6468580365181
0.0472203604877,-0.15937613288598,0.79773600559834,0.62778169787627,0.89925575256348,0.97285771369934
0.43817454576492,-0.027072248281163,0.26121956885035,0.50189669089944,1.1536965370178,1.1066360473633
1.0488398075104,-0.32356501983943,0.010844921353186,0.053943654081032,1.4716573953629,0.14460480213165
0.45812180638313,-0.70579894887194,0.070134714469374,-0.59607499434501,1.0349301099777,-1.5904210805893
-1.0995761156082,-0.61062261626247,0.60095989290104,-0.99419193005959,-0.11100852489471,-1.8561490774155
-0.93138521909714,-0.086960750538996,1.2480485969956,-0.9088037418441,-0.20731760561466,-0.6099688410759
-0.99088555574417,0.19517228915454,1.5168951540445,-0.641154249505,-0.234549716115,0.17951643466949
