ax,roll,yaw,pitch,ay,az
0.45294210314751,1.1443946684445,-0.29845518190555,0.48556443440889,0.32641834020615,-0.42662912607193
-1.2634214162827,1.1259372694409,0.012071885486293,0.91448977401846,0.10920691490173,-0.24129015207291
-1.1103515625,1.1118471102801,0.095419266442346,1.1134317150476,-0.040341690182686,-0.035133644938469
-0.40956753492355,1.2183373096135,0.058328738442434,1.1576201972476,0.33337640762329,0.14742703735828
-0.18976777791977,0.92997825866013,0.41113477662955,1.2391799941332,0.45296362042427,0.19842770695686
-0.84607863426208,-0.079705995561421,1.4943181990967,1.1521258259158,0.34643056988716,-0.36941805481911
-0.50429779291153,-0.19487501359495,1.6845663535388,0.93417699067421,0.19063049554825,-0.59349930286407
-0.55446422100067,-0.16138704400864,1.6751586636765,0.81357906832191,0.1955918520689,-0.65452861785889
-0.93475192785263,-0.15373230509552,1.6502376662381,0.86908275799558,0.2831158041954,-0.3415778875351
-1.0920292139053,0.22146364103537,1.2213990480354,1.050604335795,0.47538974881172,-0.085740774869919
-0.48582774400711,1.036549708283,0.32832980103008,0.83039148630693,0.61166965961456,0.44704082608223
-0.51199275255203,1.0545404821933,0.19276506482313,0.36304633226965,0.58655369281769,0.2486991584301
0.33619353175163,0.69882370102828,0.18842663262568,-0.1973366565307,0.68889033794403,-0.46381297707558
-0.14263682067394,0.63150325230861,0.46343872433646,-0.4436131240272,0.58002585172653,-0.64772433042526
-0.44546589255333,0.65545608405397,0.89353801706674,-0.46962077151413,0.30793464183807,-1.0835521221161
-0.63928586244583,0.72634029233679,1.2170447403711,-0.27247346994084,0.038533221930265,-1.059557557106
-0.78590327501297,0.78124290313381,1.2902890638437,0.053095447726755,0.29188579320908,-0.424720287323
