ax,roll,yaw,pitch,ay,az
0.93426066637039,0.49241013369837,-0.24050311310195,0.87357807271269,0.76512068510056,-0.15798038244247
-0.23773775994778,0.15066699954014,0.27197789255902,1.0066860689516,0.52914667129517,-0.26344621181488
-0.35324248671532,-0.57955171977267,1.1815248831405,1.1442847709251,0.015822093933821,0.34458777308464
-0.31275001168251,-0.82274513994194,1.5730239951072,1.108522478785,0.17291854321957,0.43793097138405
0.19054813683033,-0.94662247059772,1.7375975572581,1.0741055758753,0.34934863448143,0.48124921321869
0.19627340137959,-0.9096786918763,1.755103589624,0.93795356034786,0.3365313410759,0.32371470332146
0.046185489743948,-0.80829449604469,1.7202102379721,0.74125176265546,0.14499934017658,0.23595669865608
-0.18071419000626,-0.65394453748643,1.6211979442081,0.4847635656827,-0.041309807449579,-0.1640569716692
-0.7627899646759,-0.56184690683858,1.5946979884125,0.18449195205957,-0.30423906445503,-0.74644285440445
-0.7084413766861,-0.53693457881183,1.6411578876136,0.17811920929908,-0.24535226821899,-0.064546823501587
-0.31807878613472,-0.50598508035221,1.5218678425851,0.2879660636342,-0.026559529826045,0.29726812243462
-0.082440227270126,-0.57958976432604,1.2519151141872,0.4371708871771,0.14450846612453,0.30386745929718
0.17414586246014,-0.37814377834061,0.71014657447061,0.46368518088671,0.30454698204994,0.29522621631622
0.43946444988251,-0.32911933042051,0.16589476419568,0.30144654685069,0.73518002033234,0.087935954332352
0.54022777080536,-0.39702830872716,-0.090459423437069,-0.021872759972543,0.97280365228653,0.093014068901539
0.44432896375656,-0.5679949748291,-0.084558275868342,-0.48617561597199,0.88283431529999,-0.54524075984955
0.16915403306484,-0.62844335615413,0.28687593153994,-0.85327606310283,0.54953998327255,-0.96857780218124
-0.70674979686737,-0.13570103627606,1.1593953879378,-0.94774840513853,0.19294692575932,-1.0082160234451
-0.73211938142776,0.11386901373329,1.5819123971265,-0.62925278916746,0.30927106738091,-0.45400086045265
