ax,roll,yaw,pitch,ay,az
0.44516396522522,0.45651858414063,-0.044955613587485,0.13662843292248,0.45738598704338,0.48352715373039
0.69370877742767,0.53537064451313,-0.11790464734831,0.10881214220992,0.55650401115417,0.4241915345192
0.21928128600121,0.55483506811308,0.19156458831191,0.30730387842062,0.66047638654709,0.57751685380936
-1.2885466814041,0.37372705058771,0.84020471045983,0.54587909251713,-0.26874849200249,0.25308865308762
-1.7514061927795,0.33282240797094,1.1957959450416,0.56966331902037,-0.78573995828629,-0.026301596313715
-0.57376366853714,0.35346501468624,1.1129152394134,0.68037275223794,-0.073233418166637,0.6440315246582
-0.33830666542053,0.5171776081962,1.0049677242508,0.655647066821,0.35150882601738,0.80552023649216
-0.30881255865097,0.61274489783841,1.0930976503608,0.47574007964997,0.38995751738548,0.84528607130051
-0.50256264209747,0.57703545822044,1.4016819685324,0.14966658523013,0.16810564696789,0.3210851252079
-0.74273359775543,0.48288180545196,1.6616469676106,-0.28862960802581,-0.16960278153419,-1.5194594860077
-0.93334954977036,0.4549024143389,1.7568542990462,-0.52934084801938,-0.4734246134758,-1.7615488767624
-1.0269447565079,0.36662117708801,1.7036479628655,-0.49978057914142,-0.48257464170456,-0.75340914726257
-0.92383098602295,0.19957279914705,1.5138018103536,-0.32649532372004,-0.29742532968521,-0.15845039486885
-0.39750048518181,0.16766123223272,1.1424225404838,-0.14505061617272,0.10094089061022,0.65880537033081
0.034087613224983,0.18203504737223,0.74765495230586,-0.15045998107851,0.274209856987,1.0617827177048
0.38813230395317,0.060564698139224,0.48051943949624,-0.33026733514203,0.46662813425064,1.027107000351
0.81717538833618,-0.4281539464813,0.30952995606398,-0.7073823388488,0.81406658887863,-0.33780905604362
0.32431614398956,-0.6074335118249,0.2526622654251,-1.408466743267,0.89763754606247,-2.0206439495087
-0.60808074474335,1.3870770729576,2.5315567441507,-1.2493131399582,0.50386881828308,-1.7712551355362
-0.95764136314392,1.076733326794,2.3113071493886,-0.80674611302567,0.38188782334328,-0.77561789751053
-1.1040695905685,0.98681029714761,2.1659589970609,-0.443543453356,0.18047641217709,-0.095106177031994
