ax,roll,yaw,pitch,ay,az
0.81925189495087,0.88711744855724,-0.28393467304104,0.57682099053344,0.8471046090126,0.10136356204748
-0.13393095135689,0.79541272611886,0.065266340809387,0.75255803786446,0.62157279253006,0.077038541436195
-1.006688952446,0.42786891168079,0.68415221095669,0.98189242491081,-0.029533987864852,0.1899780780077
-0.82808893918991,0.20809425212094,1.0102616179481,1.0251450078052,0.064475752413273,0.37899458408356
-0.0042225364595652,0.14337265398286,1.0915991307813,0.9740966372512,0.44436687231064,0.67765581607819
-0.20260761678219,-0.024803230928409,1.3197988339401,0.73941012160629,0.32994961738586,0.24533750116825
-0.24900054931641,-0.085940605659104,1.4742162819536,0.40396207859824,-0.0085009587928653,-0.3014272749424
-0.96298158168793,-0.11878649885862,1.5810866382896,0.20927938315379,-0.49623969197273,-0.79740422964096
-1.0140795707703,-0.14665221186586,1.5719264498403,0.27131004323632,-0.40540707111359,-0.52337658405304
-0.79058116674423,-0.12800618089909,1.4270645928216,0.53091592424215,0.098486490547657,0.064974591135979
-0.31313642859459,0.17199240529704,0.99092030222474,0.66261392623695,0.65003079175949,0.63593143224716
-0.1319504827261,0.47355925006215,0.54249484589586,0.48455332065719,0.77602434158325,0.8413353562355
0.14633068442345,0.35894464486331,0.3138405428746,0.19058156348372,0.90657776594162,0.64859479665756
0.42854225635529,-0.023471391275443,0.27898323126406,-0.14497602136415,0.92698818445206,-0.34555625915527
0.2394657433033,-0.30992089142367,0.48067260068661,-0.53154496839565,0.47811964154243,-1.2424594163895
-0.59423542022705,-0.18284989277986,0.92625987252741,-0.74097478098537,-0.16591320931911,-1.7530654668808
-1.0400613546371,0.14394517702585,1.3876026607501,-0.54738235435307,-0.090354345738888,-0.58008170127869
