ax,roll,yaw,pitch,ay,az
0.46568328142166,0.15959007201928,-0.078109735579458,0.92450215031521,0.065227799117565,-0.2960000038147
0.13008807599545,0.12102189888503,0.055988947401749,0.96479197500513,0.26796016097069,-0.056938510388136
-0.31656959652901,-0.042315290464233,0.31941012374481,1.006677223099,0.093091547489166,0.18339341878891
-0.18816877901554,-0.12108117320554,0.47693678838701,0.99394613084533,0.26726177334785,0.16340290009975
-0.054335165768862,-0.22932798787016,0.6520577793072,0.95121568274678,0.50879365205765,0.359634578228
-0.11518546938896,-0.34942140163922,0.80822978604413,0.84229264564989,0.34953442215919,0.24983640015125
-0.66966772079468,-0.42063745006527,0.87340202751916,0.69326676630436,-0.11744695156813,-0.36824461817741
-0.35885354876518,-0.35575258023369,0.78818686014375,0.57613995606421,-0.11431231349707,-0.42240124940872
-0.28968170285225,-0.3335658752028,0.71115530590432,0.51375227335025,-0.12398417294025,-0.50447434186935
-0.4186010658741,-0.30630755367165,0.64151006686683,0.53379180251326,-0.053363032639027,-0.22568067908287
-0.32147455215454,-0.24411709159529,0.49946656892411,0.5941042775039,0.16580002009869,0.32034754753113
0.15397608280182,-0.11662051552967,0.2477008171688,0.58083544112978,0.53616458177567,0.52882754802704
0.33615335822105,-0.11927654329925,0.039240083290953,0.47721077657439,0.74198764562607,0.51177477836609
0.95149618387222,-0.13212508141415,-0.064236595187749,0.21756007959394,0.83297431468964,-0.23830589652061
0.32599261403084,-0.19830080479757,0.05976131975661,-0.034278477821033,0.34014838933945,-0.87928879261017
-0.26308399438858,-0.16876711043897,0.28367826448419,-0.1581444523936,0.063766360282898,-1.1031233072281
-0.6322118639946,-0.033539952181413,0.49737420658451,-0.10584683701735,0.037615463137627,-0.22910198569298
-0.56642204523087,0.025593081831339,0.61148839482209,-0.0077873338049887,0.11757895350456,0.16208727657795
