ax,roll,yaw,pitch,ay,az
0.15873092412949,0.45771324242685,-0.17390370470496,0.71932152121874,-0.14175422489643,-0.17439259588718
0.19263677299023,0.46483610795918,-0.075296925417997,0.74108705674681,0.17570059001446,-0.21154437959194
-0.45548310875893,0.36326363946072,0.16653142109093,0.83511410308692,0.14599040150642,-0.18802388012409
-0.83994942903519,0.25886382047593,0.36311289316267,0.94400908670329,0.10277802497149,0.13159336149693
-0.51646339893341,0.27617696956717,0.41089980872056,0.98841419132786,0.36757975816727,0.45266446471214
-0.080362945795059,0.30746754325552,0.45411889520553,0.92697088968572,0.61500614881516,0.58588778972626
-0.23320344090462,0.14303343887921,0.60599911656793,0.78713866653857,0.34809169173241,0.064053639769554
-0.43417918682098,0.046883455646042,0.71887656602137,0.57986174967702,0.04255248606205,-0.73000890016556
-0.44088405370712,0.089791759108038,0.74208619158371,0.42090139668911,-0.1132977604866,-0.81118607521057
-0.55086302757263,0.10524806005433,0.7521264190065,0.38711064643997,-0.10194722563028,-0.64804428815842
-0.63722491264343,0.095973276035769,0.71971645363693,0.46609138574691,0.065258041024208,-0.050140973180532
-0.5390847325325,0.17044476102109,0.56901220770641,0.55127671609745,0.26312461495399,0.3127181828022
-0.26574310660362,0.30901521907141,0.33738478458414,0.5457424217343,0.41338568925858,0.73191964626312
-0.10293987393379,0.28881568794658,0.13889309044266,0.41527767003437,0.55293434858322,0.80564963817596
0.33604398369789,0.26974699021996,0.015710657816399,0.088603189636505,1.0952316522598,0.26917004585266
0.17012524604797,0.092918654744039,0.11190231030998,-0.22852214214183,0.81366860866547,-0.93544232845306
-0.76115745306015,0.099477398025333,0.42881966136935,-0.31803271796545,-0.074951358139515,-1.1609683036804
-0.91595321893692,0.23495148011535,0.64931880682664,-0.21784984097376,-0.044499926269054,-0.29325842857361
-0.75172412395477,0.26412655718405,0.7391384086336,-0.078912121397251,0.12302827090025,0.047293063253164
