ax,roll,yaw,pitch,ay,az
0.23474672436714,0.14538091118437,-0.048921572074372,0.71038247467814,-0.054739646613598,-0.18045747280121
0.50525748729706,0.13639234661884,0.059987682567771,0.73398688447453,0.25237002968788,0.024417171254754
-0.34144854545593,0.027680173372958,0.351094285184,0.76363130857724,0.11610953509808,-0.07950659096241
-0.82930982112885,-0.040063030788317,0.57587205717585,0.79115202870743,-0.078509226441383,0.00083276914665475
-0.48966673016548,-0.067398549547041,0.64996476227109,0.86490866837286,0.18790060281754,0.31819629669189
0.068906500935555,-0.006146884046431,0.62972654863224,0.87939487627425,0.65276896953583,0.69227761030197
0.077688939869404,-0.072123467255272,0.70313207511808,0.75032353290286,0.49649640917778,0.4625378549099
-0.18933668732643,-0.18234973426692,0.82484227785409,0.51092555828275,0.17297530174255,-0.15283595025539
-0.64509975910187,-0.18983141910662,0.88761529033512,0.29340201411405,-0.21643522381783,-0.87499421834946
-0.58353078365326,-0.14970681073743,0.86895460156911,0.21297846750713,-0.2537616789341,-0.78061228990555
-0.54026108980179,-0.14358069427054,0.84042888943164,0.29751124563863,-0.087244652211666,-0.098309360444546
-0.25299218297005,-0.10313697903744,0.72288232256777,0.42860296192403,0.14565727114677,0.48045864701271
-0.2289020717144,-0.0053789934490438,0.53534269287192,0.48003612229063,0.30502715706825,0.72142279148102
-0.24210451543331,0.048946297962793,0.25246609535464,0.40460940233017,0.54640018939972,0.73050272464752
0.54336059093475,0.03115451797263,-0.10257964170414,0.18030278471939,1.2168793678284,-0.093973726034164
0.58847028017044,-0.16866600238624,-0.12282862336159,-0.13982559113819,0.80990940332413,-0.93384575843811
-0.038624215871096,-0.19168975697613,0.15623863459616,-0.35512211715714,-0.0092496508732438,-1.0209908485413
-0.86790025234222,-0.028716392017615,0.50008147761269,-0.36566748523755,-0.24421516060829,-0.49136546254158
-0.70903873443604,0.070795005398445,0.65730418668879,-0.26031445439174,-0.04228125885129,0.061178606003523
