ax,roll,yaw,pitch,ay,az
0.60086899995804,0.70520747889759,-0.31191842026039,0.81833220996683,0.15006621181965,-0.059318784624338
-0.43787372112274,0.55440262999047,-0.0051899052861987,0.87137695648607,0.26646730303764,-0.42732444405556
-1.0578285455704,0.42905748176919,0.26274748385541,0.94272512866469,-0.050731461495161,-0.38767164945602
-0.92945897579193,0.3987067155034,0.34488658278357,1.0091653485727,0.20136812329292,-0.094807028770447
-0.3302458524704,0.41566716750841,0.30467473031438,1.0626081742377,0.53445518016815,0.35746794939041
-0.11976359784603,0.34061993835582,0.39615480027323,1.011756130372,0.69464260339737,0.29143610596657
-0.20624229311943,0.1888991107658,0.56645437341298,0.87435816327652,0.56481570005417,0.052655138075352
-0.3987880051136,0.11161976972506,0.68445728529637,0.65684750297731,0.10081200301647,-0.8441715836525
-0.54946142435074,0.10786879281588,0.73900872265299,0.45701330892655,-0.12599083781242,-0.92873364686966
-0.67497646808624,0.082537059952785,0.74398655658385,0.43612766683686,-0.090247295796871,-0.65908449888229
-0.75463044643402,0.026060562798714,0.71122448540898,0.56154871781036,0.20661576092243,-0.070817641913891
-0.56502485275269,0.14724589937621,0.51061889305791,0.67434885041831,0.53913795948029,0.36960026621819
-0.2818728685379,0.32445493826848,0.18631890860757,0.70433847474779,0.68296074867249,0.74808299541473
0.03654682636261,0.28297992425846,-0.037361682601483,0.52397033753392,1.0117505788803,0.50190478563309
0.75423657894135,0.022981324918487,-0.044962712441116,0.12954403431799,1.0160838365555,-1.1734817028046
-0.50610333681107,-0.013675297933792,0.29866110765967,-0.08430795430968,0.10422267019749,-1.2037029266357
-0.98002946376801,0.20421025152286,0.54275493084032,-0.050718376539892,0.038124773651361,-0.60712075233459
-0.7372710108757,0.37266198848649,0.62555603417313,0.099324072747359,0.25689095258713,-0.36081126332283
