ax,roll,yaw,pitch,ay,az
0.7596190571785,0.019057140858888,-0.011571972622983,1.0971837483618,0.14462612569332,-0.11120891571045
0.76423043012619,-0.029776045039115,0.11958017997821,1.0518967309735,0.30847471952438,-0.47414362430573
-0.064442224800587,-0.35530667249253,0.55739812969641,1.077854121186,0.07163342833519,-0.049745686352253
-0.3921035528183,-0.56797396036378,0.87132400535965,1.0343634430004,-0.0095118591561913,0.047255426645279
-0.13469281792641,-0.59782549203177,0.96619298528953,1.0087451324082,0.10150435566902,0.14615152776241
0.21742486953735,-0.5624613089546,0.95545990536238,0.98240562570573,0.47300931811333,0.39821466803551
0.38981586694717,-0.53971447333727,0.92281075393117,0.87618904633215,0.54766309261322,0.34930071234703
0.089561499655247,-0.5637570904513,0.92302894557349,0.66117158287558,0.05924765765667,-0.18503683805466
-0.13395699858665,-0.5410059550515,0.87812325076609,0.46824873252978,-0.24693322181702,-0.76454168558121
-0.11299666762352,-0.47145329775722,0.83423285044305,0.3793903759299,-0.23569433391094,-0.47038596868515
-0.28010809421539,-0.46994917371588,0.82275655365067,0.3512058040593,-0.20945180952549,-0.38547369837761
-0.29668179154396,-0.4919440552876,0.80434483928032,0.41105903485177,-0.048722818493843,-0.12737110257149
-0.12073841691017,-0.51104496655222,0.74109462899518,0.54198668853333,0.083221785724163,0.017142901197076
0.090362958610058,-0.51145925505466,0.62758177028567,0.69434424356907,0.31978273391724,0.12070966511965
0.23942700028419,-0.43677129120047,0.41012166335321,0.77477571067039,0.59651321172714,0.3037143945694
0.44442000985146,-0.36818939276308,0.16830248321292,0.7666864371496,0.85671645402908,0.35746145248413
0.72772759199142,-0.3480623458541,-0.050666666281817,0.61257925027261,0.98762309551239,-0.045926373451948
0.67365729808807,-0.35173546311273,-0.15469826593855,0.34509142321484,0.73447716236115,-0.60201287269592
0.45879611372948,-0.43308730872382,-0.10369632693284,0.034284870623143,0.18199849128723,-1.1825654506683
-0.14362187683582,-0.40769683595778,0.082052231998007,-0.16529238399403,-0.13414523005486,-0.95026528835297
-0.25975719094276,-0.29585397789227,0.3315397718211,-0.20236727590686,0.084197908639908,-0.50266367197037
-0.43629395961761,-0.18242736975449,0.56610688268322,-0.13508748726317,0.089398317039013,-0.070490181446075
-0.097981818020344,-0.12107795961233,0.67389102090007,-0.061426074423237,0.14793261885643,0.32990288734436
