ax,roll,yaw,pitch,ay,az
0.90335953235626,0.81064237490942,-0.20447954681857,0.4869385060678,0.4757806956768,0.088209711015224
-0.79150623083115,0.80394504024414,0.051790840499921,0.64236228969791,0.019498702138662,-0.14901904761791
-1.6303658485413,0.76876425064156,0.32147036882392,0.79410620301181,-0.44902449846268,-0.072552688419819
-1.1851692199707,0.75821025738584,0.38292579263496,0.83914565950043,-0.13466581702232,0.038841754198074
-0.27751162648201,0.73002942796215,0.39516259632339,0.81942884364547,0.72800946235657,0.41457056999207
-0.24154488742352,0.51727614777997,0.63452408608977,0.74282242846855,0.70220267772675,0.41032388806343
-0.85248893499374,0.32695544503985,0.95082531477281,0.49495373255059,-0.24285879731178,-0.96756106615067
-0.98833882808685,0.30849256224802,1.0716206080384,0.33899852508501,-0.39621698856354,-0.88523101806641
-1.209935426712,0.29745547207513,1.0778940202155,0.35929470806585,-0.18708221614361,-0.15654014050961
-1.106676697731,0.33604295743174,0.93038915932426,0.40854719872343,0.14897023141384,0.33650776743889
-0.45024701952934,0.42518473492285,0.64798842679862,0.34088499818348,0.63516360521317,0.81186836957932
0.37196817994118,0.39161581551025,0.43626237674355,0.13928460011004,0.84545391798019,0.73328965902328
0.80985003709793,0.29279238138557,0.47528687495094,-0.16909620264132,0.57294994592667,-0.96763682365417
-0.44427573680878,0.42499714352899,0.84552918568059,-0.30934441651934,-0.13887637853622,-1.6726093292236
-1.6360151767731,0.59705064978751,1.1635565403859,-0.12551118384183,0.0070202313363552,-0.52637076377869
-1.2754113674164,0.6314320996437,1.2525593941477,0.040437999783448,0.094809323549271,0.19829250872135
