ax,roll,yaw,pitch,ay,az
-0.11619325727224,0.4987064282197,-0.24854940169983,0.9069717499824,0.099622696638107,0.17907518148422
0.38869512081146,0.5518452215155,-0.2780368938739,0.90099225797079,0.14875043928623,0.10103235393763
0.96011054515839,0.55958506431393,-0.17351820511089,0.86798743407749,0.28474289178848,-0.30146595835686
-0.55145955085754,0.39304384795045,0.1324188559058,0.97023180495928,0.16580654680729,-0.1949015557766
-0.96079951524734,0.23468324828239,0.42163660861182,1.0518699883209,-0.063730984926224,0.017326375469565
-0.49411261081696,0.21673781234369,0.50301385333853,1.0585841617446,0.26762801408768,0.11191053688526
-0.20187029242516,0.21202743062027,0.52908518684465,1.0450195828819,0.75423187017441,0.38943430781364
0.33431729674339,0.090784044461496,0.63858597575745,0.98613629335277,0.99677205085754,0.48842483758926
-0.25860294699669,-0.14673348392235,0.89973893170465,0.77160565919889,0.12698981165886,-0.30252262949944
-0.55226022005081,-0.1993201745156,0.98146327292945,0.51156727977197,-0.2779726088047,-1.0030431747437
-0.93684720993042,-0.18137741776931,1.001293551991,0.39204227366036,-0.38496753573418,-0.85242694616318
-0.83563220500946,-0.15044788790055,0.93342928252494,0.5004532042037,0.029215913265944,-0.070411689579487
-0.50001376867294,-0.01114729915422,0.66044531195961,0.64196938234744,0.54350656270981,0.29572612047195
-0.16372618079185,0.17415294112318,0.28019375926663,0.65682521949973,0.73223346471786,0.49675258994102
0.14606714248657,0.20867011977921,0.0010689833319149,0.5794334512154,0.91136527061462,0.5386375784874
0.67152762413025,0.15939418785605,-0.13835922273114,0.35734947639479,1.055969119072,-0.056432608515024
0.87812781333923,0.11676372288516,-0.10509267042902,0.050762552891687,0.8636069893837,-0.39245739579201
0.50530463457108,0.17222004700348,0.07119053720204,-0.23070091215499,0.34121006727219,-1.1436476707458
-0.98043948411942,0.29372700196154,0.44961370181593,-0.31642759491627,-0.33436685800552,-1.2893389463425
-0.73316031694412,0.44157155743699,0.6323334260754,-0.26424240527813,0.029822323471308,-0.52488189935684
-0.40646159648895,0.42978270215948,0.79917955714992,-0.13411946791586,0.21070362627506,0.1025221273303
