ax,roll,yaw,pitch,ay,az
0.77530878782272,0.73417072746759,-0.32564567870376,0.81300272852006,0.15147939324379,0.054813202470541
0.065971776843071,0.6411825585638,-0.099306211439401,0.8702230865706,0.32624036073685,-0.27271693944931
-0.87107837200165,0.48223175315734,0.21970849192759,0.99362569863978,-0.053301766514778,0.025193031877279
-0.83685857057571,0.41642938049422,0.40069810889927,1.0162160089931,-0.060782417654991,0.020844860002398
-0.50043445825577,0.39467553648494,0.46478669348573,1.0200890941579,0.24099437892437,0.206921890378
-0.21108068525791,0.34105719470072,0.53120102645017,0.9937219382803,0.59532552957535,0.40836107730865
-0.043443433940411,0.16867947457625,0.69663575588798,0.91292810466093,0.49854236841202,0.24745258688927
-0.31579950451851,0.023019896428006,0.87942199175972,0.72287280210545,0.021649193018675,-0.44702193140984
-0.48926204442978,0.0033628484877214,0.97054475192126,0.54659758581175,-0.18065586686134,-0.65745609998703
-0.69482642412186,-0.0027335460771071,1.0161877173155,0.48052554023631,-0.17532797157764,-0.52095079421997
-0.72067767381668,0.0089182921410659,0.99118676064562,0.51264083516222,-0.031675439327955,-0.12609520554543
-0.58883112668991,0.056163647316386,0.85542889261421,0.5910897274921,0.10101315379143,0.040145259350538
-0.45535737276077,0.15041586008188,0.62557530431938,0.66030498694464,0.28256249427795,0.23437857627869
-0.16215333342552,0.26226023603552,0.36131786477132,0.62341930937793,0.4353466629982,0.39881071448326
0.011428534984589,0.30232630656162,0.15566978367326,0.50447973971818,0.5386346578598,0.31641998887062
0.21165743470192,0.24756998170295,0.061713291014595,0.31369337292536,0.64358055591583,0.13115285336971
0.32488745450974,0.14363329367833,0.07883315799747,0.059576027443625,0.47038367390633,-0.17239275574684
0.3346374630928,0.078565224920559,0.1919871839873,-0.22122837061761,0.22525867819786,-0.62085616588593
-0.29467365145683,0.092395641942699,0.50505623913557,-0.40489019056181,-0.21378780901432,-1.1425446271896
-0.83236569166183,0.21279754207129,0.8677490513577,-0.34444443612415,0.0056489687412977,-0.65348488092422
-0.79083275794983,0.32850303395825,1.0715327121658,-0.18649599107471,0.16478769481182,-0.00074885605135933
-0.62238091230392,0.21986524622599,1.1638858778856,-0.13953661506722,0.23718222975731,0.29111787676811
