ax,roll,yaw,pitch,ay,az
-0.36121624708176,-0.72266130788606,0.26711872510484,0.70040447656048,-0.22392699122429,-0.66139024496078
-0.30270516872406,-0.70292491751378,0.050397537512774,0.8348764566763,0.047503221780062,-1.2490214109421
0.21167950332165,-0.73530256252468,-0.046937651061441,1.2071034150351,0.54895412921906,-0.48235216736794
0.22803112864494,-2.5195184685555,1.6625527442295,1.5176078384804,0.65271490812302,-0.081564471125603
0.096381582319736,2.6465133189047,2.7433965317673,1.2856508397482,0.64182591438293,-0.021585112437606
0.29184424877167,2.6766127319838,2.7089936359334,1.0600632626177,0.84513425827026,0.43330454826355
0.15533412992954,2.7305372776286,2.7108379805144,1.0967044372606,1.0911847352982,0.20985546708107
0.24275301396847,2.8109296874481,2.6743192171235,1.3751227951247,1.290319442749,0.27068009972572
-0.018961969763041,-0.48009323919419,-0.40440492655242,1.1899754531759,1.4499205350876,-0.33223107457161
-0.90663653612137,-0.45607123555417,-0.56792902831406,0.47557258544885,0.24933621287346,-2.3191468715668
-0.21912188827991,-0.4029153656939,-0.64483548287067,0.23195031497583,0.073671817779541,-1.5209277868271
