ax,roll,yaw,pitch,ay,az
-0.22214125096798,-0.24782898805032,0.035371208924097,0.29194080492037,-0.16638167202473,-0.6582123041153
-0.50580418109894,-0.27313307503192,0.035010929930151,0.38824307896174,-0.14444740116596,-0.86120700836182
-0.47808852791786,-0.26240771886773,-0.027216163302407,0.61352461095422,0.21567592024803,-0.96028864383698
-0.22651222348213,-0.18022149469334,-0.18771171570606,0.96186275245732,0.87294709682465,-0.50941455364227
0.013135359622538,0.15483015484916,-0.60537081778472,1.2973605354799,0.95575338602066,0.2030903249979
0.11555673927069,1.1631860805004,-1.7182460343608,1.403127204312,0.87335139513016,0.3459560573101
0.10661412775517,1.7348038803175,-2.3509616406864,1.3494814480917,0.81260001659393,0.51799249649048
0.0059732361696661,1.6824988471467,-2.309526381404,1.3563663408096,0.93147403001785,0.62293237447739
-0.15403832495213,0.78511551754545,-1.4075516790093,1.3649974852348,0.99215793609619,0.336828738451
-0.085279412567616,0.07673080620359,-0.76698069347305,1.1435017066866,0.94242358207703,0.22231861948967
-0.66546261310577,-0.25295127835661,-0.61642783729997,0.66580341497164,0.24490369856358,-1.3673583269119
-0.42789390683174,-0.25530026878403,-0.67755537601593,0.32334225415685,-0.38506716489792,-1.6767466068268
-0.11295891553164,-0.18782337805721,-0.71344950172755,0.26017128185474,-0.12487978488207,-0.46872478723526
