ax,roll,yaw,pitch,ay,az
0.08782920986414,-0.30944800862272,0.17541182475663,1.0293401197163,0.25365710258484,0.21031074225903
0.2211032807827,-0.37654334335678,0.18646244459443,1.0304328617919,0.58652567863464,0.68703955411911
0.26443821191788,-0.38677203953618,0.17447909874301,0.9129028280999,0.44431239366531,0.31637591123581
0.23701214790344,-0.27777325206508,0.11314713347432,0.65582136023499,0.51865440607071,-0.17301294207573
0.040755070745945,-0.22708496238891,0.05813451849347,0.38258782851467,0.45768830180168,-0.19107083976269
-0.056317184120417,-0.24330596142135,-0.012065585502393,0.08738742998389,0.43969324231148,-0.52191090583801
-0.26903241872787,-0.36865541195428,-0.10103547556608,-0.21642858042502,0.062433000653982,-1.3756008148193
0.0053408253006637,-0.38876694027296,-0.12691617659352,-0.3474307778235,-0.24511577188969,-0.61827111244202
0.0021778629161417,-0.36895905897345,-0.081660084100207,-0.36812677352731,-0.14293414354324,-0.23238508403301
0.026384392753243,-0.33645675728028,-0.07704705303309,-0.35087173125999,-0.0091523490846157,-0.10535556823015
0.11566234380007,-0.29918854561725,-0.082674049155435,-0.32209429062148,0.079335443675518,-0.019666640087962
