ax,roll,yaw,pitch,ay,az
-0.053926676511765,0.072201554940224,-0.043864111529998,1.0848278443877,0.13059140741825,-0.00029267492936924
-0.066671401262283,0.054967903809158,-0.032169463699666,1.087752878978,0.11918221414089,0.097731947898865
-0.040807466953993,0.045110637837135,-0.029234604878469,1.0763866037347,0.23187245428562,0.17713923752308
0.038359388709068,0.022519122301921,-0.023019837685183,1.0532630456835,0.48725202679634,0.3415821492672
0.014997057616711,-0.0066777176821984,0.028751858753174,0.95480518870601,0.5000085234642,0.35122296214104
0.0057225991040468,-0.042437240734176,0.093705673412528,0.7894366481557,0.3651385307312,0.32111924886703
-0.035384435206652,-0.038067516218079,0.14054392702602,0.51794733254019,0.39504590630531,-0.064790852367878
-0.064200818538666,-0.073401126121135,0.16766423542039,0.2467437397026,0.53039568662643,-0.11955286562443
-0.61560320854187,-0.2114203638535,0.20955703821241,-0.031511879986948,0.16374480724335,-0.76892161369324
-0.17097735404968,-0.22487802127229,0.15043613164389,-0.26467322920174,-0.072781629860401,-0.98536288738251
-0.34724977612495,-0.19190430801307,0.18307145611286,-0.31264793478043,-0.24658989906311,-0.42702880501747
