ax,roll,yaw,pitch,ay,az
0.08557254076004,-0.56799631565352,0.39014402750727,1.1922501442626,0.088352039456367,-0.10561966150999
0.11913807690144,-0.47566411310881,0.30868854980828,1.1653974268733,0.022704884409904,-0.14507752656937
0.11714635044336,-0.3983731961279,0.2405964839215,1.1383574370964,0.061403978615999,-0.090629026293755
0.13369901478291,-0.37056477963409,0.22721649518921,1.1345588752382,0.21655908226967,0.15151190757751
0.17762562632561,-0.33103982289666,0.21801551478438,1.1071065313368,0.52873152494431,0.35019844770432
0.17873361706734,-0.27807111758572,0.23065202971162,1.0236960607528,0.70001435279846,0.39564609527588
0.31028878688812,-0.22662578204819,0.23842018644873,0.84668594916388,0.67601472139359,0.43039631843567
0.1318401247263,-0.20588728342022,0.23004088807918,0.52815628699617,0.7631122469902,0.037512108683586
-0.23255437612534,-0.25917421218907,0.21070802384453,0.15111599871797,0.58646988868713,-1.021968126297
-0.3278081715107,-0.35554223057874,0.17929760058578,-0.1396961468065,0.0079745687544346,-1.2738381624222
-0.039520956575871,-0.39330330715849,0.12007817397231,-0.25420860626921,-0.040954016149044,-0.71797394752502
-0.030358154326677,-0.36483396986971,0.11902947063335,-0.27965626835035,-0.090157978236675,-0.24867030978203
0.10006095468998,-0.3121799866008,0.12523287202592,-0.26709909924965,0.029034234583378,-0.039644539356232
