ax,roll,yaw,pitch,ay,az
-0.17329946160316,0.058086781517473,-0.044639630267226,1.3564298766719,0.12974509596825,-0.018328258767724
-0.165906727314,-0.1322378431968,0.14782668441173,1.3362582518229,0.037303850054741,-0.090726129710674
-0.044636309146881,-0.17388854173618,0.19760487687034,1.3104514471608,0.17882573604584,-0.0051963739097118
0.0074178618378937,-0.15875611516628,0.19930519696936,1.2841687679654,0.34721848368645,0.10573242604733
0.092731617391109,-0.15478601859248,0.22789152166485,1.2214539650601,0.55272668600082,0.11188472807407
0.20959636569023,-0.18106865444669,0.29561779303608,1.1152613410734,0.66288787126541,0.18636679649353
0.15002276003361,-0.1971841698529,0.37352541277364,0.89252135316637,0.65608239173889,0.16244174540043
-0.050071876496077,-0.17080625598913,0.38649412722174,0.54349044950151,0.58901077508926,0.017464976757765
-0.23059377074242,-0.18985019165202,0.37686991680484,0.11494293081838,0.5839130282402,-0.97473448514938
0.052963986992836,-0.19319364299498,0.31387081850282,-0.20963765684745,0.31188350915909,-1.5861259698868
-0.27774769067764,-0.20903072640855,0.34926007257599,-0.28510061957132,-0.041553687304258,-0.43227291107178
-0.17223058640957,-0.19725681305864,0.36894164022799,-0.28664544878714,0.021615669131279,-0.026077959686518
-0.041578870266676,-0.18556988089075,0.34306146688908,-0.27542399449402,0.12677243351936,-0.03823571652174
