ax,roll,yaw,pitch,ay,az
-0.13377147912979,-0.28193016087507,0.081276797349976,0.54056091760302,-0.087159097194672,-0.0048302528448403
-0.69077974557877,-0.2882193794561,0.070594095632682,0.46611574963811,-0.42985266447067,-0.89300864934921
-0.36443716287613,-0.37123671123288,0.022514778853456,0.6073055643713,-0.11534772068262,-0.72956329584122
0.097854942083359,-0.41901448818479,-0.053488932516938,0.89897440486915,0.4688004553318,0.055109985172749
0.40819412469864,-0.37436909368206,-0.17241314328127,1.1144278321445,0.65812629461288,0.52381575107574
0.3370518386364,-0.33099143349547,-0.23517870072906,1.1923033288558,0.58477061986923,0.56339150667191
0.21392713487148,-0.36250895335158,-0.18426498802976,1.1528974898471,0.52368491888046,0.54470276832581
0.29511711001396,-0.34381055901651,-0.16004018973197,1.0174860874136,0.7525383234024,0.43754702806473
0.11132130026817,-0.21187663180736,-0.13386980952983,0.75726367984639,0.71177679300308,0.50567930936813
-0.012933178804815,-0.065013546363529,-0.18683495673739,0.33758361161374,0.39656144380569,-0.71286982297897
-0.41705417633057,-0.11008989114626,-0.23268440325021,0.0098260970201391,0.062712900340557,-1.5518170595169
0.053784020245075,-0.12098392100194,-0.3275992563099,-0.16131094017663,-0.098982021212578,-1.0207006931305
-0.22267644107342,-0.12116737622538,-0.29846794002506,-0.23172842003724,-0.24147039651871,-0.39128679037094
-0.097065947949886,-0.10669951784601,-0.27441934903566,-0.23120365871556,-0.084831692278385,-0.26444420218468
