ax,roll,yaw,pitch,ay,az
-0.21205781400204,-0.17717067264839,-0.032172064123297,-0.35215477179514,-0.020732911303639,-0.73852175474167
-0.29771959781647,-0.20886826613215,0.012141256034053,-0.25674621987083,0.1051045358181,-0.67886108160019
-0.03669548779726,-0.25831155839273,0.027402226471713,-0.086745897733671,0.25567853450775,-0.35491263866425
0.034987106919289,-0.30524438765677,0.0074448786490905,0.092045325735048,0.23072461783886,-0.41806179285049
0.19612874090672,-0.38289338846955,-0.016008161009862,0.36787109306701,0.33063808083534,-0.16300657391548
0.14682865142822,-0.49411036514977,-0.011712207568565,0.68777495146708,0.43016865849495,0.15489841997623
0.3853964805603,-0.53723328259377,-0.043288493899181,0.95210943537877,0.60989826917648,0.46020951867104
0.29535353183746,-0.55862623706207,-0.066429414644787,1.0904017523613,0.56347894668579,0.48134031891823
0.29742392897606,-0.57956384424613,-0.084237246593456,1.1316147243874,0.50029957294464,0.44174781441689
0.11153991520405,-0.64754463464607,-0.031190633834607,1.082787841053,0.36172294616699,0.37518957257271
0.353888630867,-0.59804708206328,-0.072974678039007,1.0167870419212,0.60582369565964,0.28317788243294
0.406668394804,-0.52577014466818,-0.11605247797776,0.88708850337605,0.68845915794373,0.341278642416
0.14535047113895,-0.55403460193845,-0.16766707388582,0.65192678474853,0.31321635842323,0.15970735251904
0.081031337380409,-0.40018523396852,-0.27956619632439,0.36408525938426,0.18054232001305,-0.38948890566826
-0.41605344414711,-0.4452754204905,-0.34548544754194,0.14768270961149,0.043676614761353,-0.96100002527237
-0.2573656141758,-0.44564146670576,-0.44349220281766,-0.083804362547939,-0.046154417097569,-1.0778374671936
-0.17913635075092,-0.44032153072575,-0.49838838575285,-0.21670195875423,-0.21159192919731,-0.72269797325134
-0.087097473442554,-0.40583497144837,-0.50657062460706,-0.21842159763526,-0.15402112901211,-0.14112700521946
-0.00049827346811071,-0.36443622151999,-0.50683339901628,-0.20332414667677,-0.017599944025278,-0.13439053297043
