ax,roll,yaw,pitch,ay,az
-0.18013493716717,0.24151333275237,-0.16155378653887,1.1778906890336,0.13656900823116,0.092251680791378
-0.13938535749912,0.20853918558165,-0.12822972317683,1.1707051384621,0.19589737057686,0.15804091095924
-0.097064293920994,0.16848328831754,-0.083078029680706,1.1232072830459,0.37306609749794,0.20039238035679
0.025918381288648,0.11943031850097,-0.022781078469082,1.0336550941061,0.44425794482231,0.23081538081169
0.0078313238918781,0.041916350411815,0.07036869892985,0.89268738701295,0.41201537847519,0.18124435842037
0.049717303365469,-0.035007805987183,0.12981477459182,0.70143624020717,0.4886382818222,-0.00083413353422657
-0.037850394845009,0.0049004576346913,0.16612988493504,0.39387790718095,0.43673551082611,-0.051665712147951
-0.34638148546219,-0.032130183040018,0.19027713665689,0.10582530964381,0.4599369764328,-0.52824801206589
-0.35456484556198,-0.13140659352921,0.21804000432845,-0.18834597308608,0.14575816690922,-1.2048188447952
-0.32676395773888,-0.1786113175529,0.23361753430722,-0.32300803756107,-0.034293632954359,-0.54434007406235
-0.18050786852837,-0.16990437489131,0.22798643866585,-0.37030362823826,-0.005529492162168,-0.26180857419968
-0.12261322885752,-0.13769126210908,0.23370810047538,-0.34195886288784,0.08381050825119,-0.013166970573366
