ax,roll,yaw,pitch,ay,az
-0.31779399514198,-0.085035653808419,-0.02330226302867,-0.39243121006596,-0.13226808607578,-0.53564023971558
-0.45102709531784,-0.12253448300042,-0.092203761858927,-0.32637177656775,-0.010519348084927,-1.0100704431534
-0.088030904531479,-0.17002532610667,-0.16084932835539,-0.10610491241325,0.42085799574852,-0.82999032735825
0.40991061925888,-0.2369148479721,-0.24910703273976,0.19506407455204,0.66614997386932,-0.64638966321945
0.23653818666935,-0.33363857347225,-0.21031178768924,0.59424321069951,0.56679409742355,0.27856427431107
0.35140511393547,-0.39046610009863,-0.26321282392791,0.91206802287314,0.81233197450638,0.48805144429207
0.42945024371147,-0.39090054364588,-0.36048091517606,1.1275412340442,0.78414350748062,0.5488737821579
0.38761976361275,-0.39398997480569,-0.3825237442169,1.2047308959469,0.75159871578217,0.60166907310486
0.25447472929955,-0.50772030137109,-0.27711213287019,1.1632765050244,0.65722715854645,0.59061592817307
0.41203218698502,-0.53861958240947,-0.24231124937969,1.0867876126879,0.78967767953873,0.42869955301285
-0.038799859583378,-0.48556199623841,-0.27265861108784,0.85065432664906,0.45927739143372,0.084513887763023
0.0053008962422609,-0.36087520193777,-0.40609984465512,0.56795105523037,0.26442262530327,-0.48799750208855
-0.14794690907001,-0.31698050340467,-0.52810639716529,0.26185565059516,0.16399423778057,-0.82836431264877
-0.25813141465187,-0.41954607484319,-0.59302345775173,-0.049519053485985,0.10362312942743,-1.0493323802948
0.089001663029194,-0.43133763682095,-0.67533383746287,-0.22224438549583,-0.097998104989529,-0.81425213813782
-0.17868945002556,-0.4160738970455,-0.6302256786893,-0.2536355103725,-0.14187024533749,-0.25577059388161
