ax,roll,yaw,pitch,ay,az
-0.3944810628891,-0.152707871129,0.028804992445593,0.36974822166377,-0.17641535401344,-0.65509253740311
-0.42775270342827,-0.20888512487,0.010164260385048,0.42968060136401,-0.027038309723139,-0.98956876993179
0.015438573434949,-0.31346971989224,-0.042335224468809,0.75230114503841,0.45335546135902,-0.35203057527542
0.20420479774475,-0.36567950535437,-0.099852961595613,1.0706694379086,0.60634249448776,-0.034026876091957
0.29353249073029,-0.37328889323367,-0.15959556153049,1.2960978174021,0.66500639915466,0.32139337062836
0.30577045679092,-0.36730960248175,-0.17983809639391,1.3647044892803,0.7345449924469,0.44094014167786
0.18808352947235,-0.36423276099499,-0.15172330041039,1.2786328294773,0.68896144628525,0.40359002351761
0.20909602940083,-0.28376015474131,-0.17575524953345,1.0637122408963,0.73013657331467,0.35952025651932
-0.014169689267874,-0.1936207177161,-0.20985914429886,0.70763185884188,0.51960390806198,-0.17377553880215
-0.00091543165035546,-0.15923500231568,-0.24418198958243,0.3751151759192,0.49618619680405,-0.61724042892456
-0.39165571331978,-0.21794623880683,-0.25316714581628,0.098770533285445,0.23372659087181,-1.0005066394806
-0.14873208105564,-0.26373278014785,-0.30173603293103,-0.092874261134353,0.088487833738327,-0.79912829399109
-0.15564173460007,-0.25823577738793,-0.30213307170096,-0.16320835036582,-0.040505990386009,-0.49884137511253
