ax,roll,yaw,pitch,ay,az
0.36032000184059,1.6450434486069,-1.1128741557829,1.0539451386651,1.3887887001038,0.1994135081768
0.051503162831068,1.2056868105357,-0.57802718656983,1.3267843924128,1.2782988548279,-0.083018153905869
-0.59594863653183,-0.4653339560268,1.2855175532688,1.1281961167577,0.50970488786697,-0.58409142494202
-1.3991250991821,-0.29623269916759,1.4328642576947,0.69515150723762,-0.15017814934254,-0.8963525891304
-1.2825534343719,-0.058233165504826,1.29994206996,0.49654757969771,0.10153022408485,-0.48863664269447
-1.1561678647995,0.03105531276773,1.0192299931485,0.40083998722089,0.35914021730423,-0.050413511693478
0.083172716200352,0.062220763669421,0.56655965181788,0.18005241432672,0.85545748472214,0.10702205449343
0.18408203125,-0.12891410912996,0.38330522807821,-0.11022998435203,0.40928021073341,-1.4355202913284
-0.56756770610809,-0.25928687034101,0.43903145561945,0.047532824607574,0.19143582880497,-1.8099702596664
-0.35370036959648,-0.2894766998855,0.43089813923958,0.645365017549,1.0633583068848,-0.30958425998688
-0.13947382569313,0.034624240067359,0.065210060246809,1.2799581593014,1.2647360563278,0.22242024540901
0.064099848270416,1.8131404331201,-1.7094503125543,1.2740541814599,1.2640944719315,0.35663226246834
-0.076822355389595,2.1602605244536,-1.9205718783667,1.2295388673568,1.1329320669174,0.35960465669632
-0.19921006262302,1.682768878019,-1.3157551313149,1.4022867143677,1.1722981929779,0.45231398940086
-0.56012850999832,0.17946902849375,0.26880618804323,0.97802515744796,1.5956920385361,0.14330141246319
-0.71199798583984,-0.11968393749023,0.31563513220589,0.024740291716926,0.89044517278671,-1.4266010522842
-1.1130450963974,-0.38508345404237,0.37290856753092,-0.33877789050548,0.28250294923782,-1.4204951524734
-0.26186582446098,-0.3331052956444,0.36349399627082,-0.44408852454301,-0.092125833034515,-0.75648206472397
