ax,roll,yaw,pitch,ay,az
-0.034714858978987,0.05300464897558,-0.024602235264547,0.67666167475167,-0.086025521159172,-0.29743149876595
0.56391131877899,0.16848034597013,-0.15717311040433,0.77960932046055,0.22582879662514,-0.2201005667448
0.71223276853561,0.14177803540556,-0.017028660525011,0.93418399245503,0.69936263561249,0.25036001205444
-0.013765097595751,-0.21506014961381,0.5327946790702,0.97995777741266,0.85139364004135,0.3849690258503
-0.96094918251038,-0.4502118806859,0.93934826709879,0.82113241993024,0.63662683963776,0.31890913844109
-1.3857314586639,-0.4026612165529,0.8774325435687,0.67250354821051,0.46362936496735,0.26861980557442
-0.47098851203918,-0.27422218452251,0.39834555995343,0.53741769192807,0.94452130794525,0.05842774361372
0.54651266336441,-0.36639677397032,-0.041092990952267,0.30267337835892,0.92583495378494,-0.24828077852726
0.76056289672852,-0.64790763682265,-0.14661111120071,-0.018813253569719,0.62964063882828,-1.3965183496475
0.16109086573124,-0.67037596985397,0.038273045755531,-0.3381675951604,0.10799927264452,-1.8865387439728
-1.229541182518,-0.39301891798173,0.43694387531138,-0.32339968771179,0.2268401235342,-1.0290372371674
-1.6262199878693,-0.17762407570775,0.60625826069843,-0.021234189239636,0.68634796142578,0.008519483730197
-1.1106996536255,-0.049634499910582,0.49398283439719,0.27403281836547,0.47949352860451,0.36881992220879
-0.23847970366478,-0.10672088354352,0.21662218777673,0.49976872247297,0.30344131588936,0.18213295936584
1.1271166801453,-0.17757809413552,-0.08722713580013,0.66151718468811,0.35337415337563,-0.63307636976242
1.3543573617935,-0.24136491614157,-0.061070973460798,0.81394107505516,0.78626400232315,-0.27840986847878
-0.24891158938408,-0.33379502702263,0.27617594273441,0.83203962539556,0.6024044752121,0.39198622107506
-0.96672916412354,-0.20932217675049,0.38878525540891,0.77601494231409,0.10556168109179,0.18700793385506
