ax,roll,yaw,pitch,ay,az
-0.074995778501034,0.90514281279281,-0.39108869317215,0.81705404736155,0.57657545804977,-0.12228718400002
-1.147693157196,0.33854022361895,0.36037298108656,1.176802000001,0.74506884813309,0.16465757787228
-1.3534938097,-0.2738513848603,1.0131972706291,1.09034975331,0.80465054512024,0.0074835135601461
-1.4092465639114,-0.23812906231731,1.0018785027174,0.9741756784838,0.55900478363037,0.052053052932024
-0.69636994600296,0.11163173364578,0.53940227742763,0.82474799848058,0.60891902446747,0.034746814519167
-0.49753019213676,0.26705001826259,0.094468800193189,0.51650052612931,0.50726789236069,-0.10180635750294
-0.075897604227066,0.2598044442142,-0.16747496141181,0.19516715684471,0.20311629772186,-0.1140411645174
0.05763303861022,0.16435499466339,-0.24969912259545,-0.069358107322415,0.079867415130138,-0.22292484343052
-0.13654178380966,0.14607104882806,-0.1612529995798,-0.27231610444612,0.060367528349161,-0.59367626905441
-0.72411531209946,0.29858621238321,0.1650188930874,-0.34912774126664,-0.0049048229120672,-1.0737533569336
-1.068378329277,0.45719010219567,0.46259074366271,-0.18641729287842,0.27317190170288,-1.0461061000824
-1.5026586055756,0.57975616675369,0.61623029745607,0.15342040764542,0.41679629683495,-0.65720856189728
-1.5196268558502,0.69739501981531,0.50317868038969,0.47234067733612,0.63818418979645,-0.065260022878647
-1.179146528244,0.80503502148901,0.27958913576947,0.5485554309533,0.42463812232018,-0.021763678640127
-0.68075984716415,0.79055109414779,0.047929016617564,0.48684386061375,0.082737468183041,-0.36501798033714
-0.10792106389999,0.6986442388517,-0.25184548336303,0.43031358163035,-0.010609058663249,-0.32722383737564
0.094110362231731,0.6932360862314,-0.41176730658824,0.4325476703447,-0.1577191054821,-0.3853534758091
0.14528845250607,0.7090373615586,-0.53127739772463,0.56359012760049,0.23068141937256,0.21690787374973
-0.26502963900566,0.75458052053389,-0.39806316398213,0.70033150813799,0.47488501667976,0.27407225966454
-1.109414935112,0.70297853561354,-0.1809438682915,0.81372270035696,0.11631428450346,-0.10221876204014
-1.0749970674515,0.74338952261371,-0.063205070024368,0.84846336291589,0.051870603114367,-0.14463278651237
