ax,roll,yaw,pitch,ay,az
0.13503138720989,0.62955803959264,-0.2132498707445,0.63511110619424,-0.17315150797367,-0.19237172603607
0.38531887531281,0.68182665159934,-0.23392693319171,0.69674117521626,0.42495545744896,0.062768183648586
-0.059500880539417,0.54269144900362,-0.0049986759657002,0.85153528654504,0.89110201597214,0.13002651929855
-0.98570942878723,0.10623809327418,0.59311203652073,0.99009848284655,0.70755523443222,0.267682492733
-1.2449145317078,-0.064780557760127,0.88561828712395,0.92056420699084,0.42344573140144,0.26944562792778
-1.2396731376648,0.047313753272467,0.72294535741747,0.79200406163799,0.22178742289543,0.12308199703693
-0.63656479120255,0.1694740721196,0.30407729416552,0.56699083205765,0.53891199827194,-0.14639259874821
0.60944283008575,0.12567747034189,-0.028814793179555,0.28011399937867,0.61263155937195,-0.34373587369919
1.154437661171,0.076945438185748,-0.086878091381351,0.034208862213344,0.43088492751122,-0.6836416721344
0.38764652609825,0.12581058658565,0.16073703848593,-0.10013197200601,0.39934861660004,-0.70531702041626
-1.1367304325104,0.24430952683764,0.53763258810435,-0.10330116216392,0.071229383349419,-1.0313432216644
-1.7239857912064,0.34894324954719,0.70880234015555,0.040030774860717,0.057872872799635,-0.74572592973709
-1.3285628557205,0.38283944873762,0.615760222489,0.23231368413153,0.36249285936356,-0.24004198610783
-0.71096420288086,0.34984412000778,0.36253716997523,0.3904762090919,0.27732679247856,-0.060561925172806
0.13909922540188,0.30779428008689,0.0016615371952202,0.46818947698131,0.28646114468575,-0.35997042059898
0.67561370134354,0.32356328301464,-0.24263428538749,0.55948027138913,0.3510582447052,-0.34360432624817
0.50907814502716,0.37640340250255,-0.2368262751794,0.71359554036914,0.56182855367661,0.13802337646484
-0.61408632993698,0.29104476797309,0.080693215214294,0.8574588883127,0.43086478114128,0.22770231962204
-0.99820291996002,0.20975153621514,0.29962436533055,0.9209775072423,0.20778401196003,0.13667261600494
