ax,roll,yaw,pitch,ay,az
-0.33549827337265,-0.27952344029533,0.039204780670352,0.31263129920012,-0.19913516938686,-0.49441587924957
0.20977856218815,-0.32444559942535,-0.063755355160545,0.42791364867575,-0.046269200742245,-0.69630473852158
0.83439022302628,-0.37799932907805,-0.15089295857647,0.6148970897501,0.19029299914837,-0.67123621702194
1.1029175519943,-0.45038746824246,-0.11207978788748,0.83561766940638,0.62238717079163,-0.50155794620514
0.80331742763519,-0.67907371522462,0.22046929853455,0.98975622964814,0.97328233718872,0.14828512072563
0.40642827749252,-1.0431692860741,0.74103457394226,0.93704678723086,0.89580923318863,0.39763584733009
-0.13055284321308,-1.1533139411905,1.0154552077434,0.72382826663755,0.51713156700134,0.34971535205841
-0.61334234476089,-1.0922466245186,1.092569638725,0.53924016035263,0.18015587329865,0.31001922488213
-0.54640626907349,-0.9500475116511,0.97487844106222,0.47213354291258,0.10438464581966,0.25319620966911
-0.15910185873508,-0.79682916208611,0.68504220400922,0.46534254755791,0.31138461828232,0.098241068422794
0.50084906816483,-0.64047772699533,0.29298085569849,0.42346676181803,0.63281673192978,-0.24473693966866
0.76899862289429,-0.59011741633203,-0.0021749881715735,0.29927414025599,0.47576540708542,-0.37515437602997
1.1994594335556,-0.57471907854785,-0.18428820218192,0.1189009863252,0.28120341897011,-0.72222983837128
0.57092440128326,-0.55237738679138,-0.20135157494729,-0.1257341430395,0.071267411112785,-1.5373529195786
-0.012146796099842,-0.42059747023977,0.022439279586943,-0.27018835315085,0.0054716928862035,-1.3096033334732
-0.82013744115829,-0.29016876256912,0.34943323437551,-0.23105394081335,1.5579833416268E-5,-0.49225568771362
-0.7273046374321,-0.16591568709391,0.44989072625692,-0.066979309107838,0.1882282346487,-0.043867532163858
-0.3808366060257,-0.11509352899727,0.36898155265666,0.08093532626087,0.22463056445122,0.22371377050877
0.32819950580597,-0.16830887641643,0.2094601907395,0.22650020642207,0.24202455580235,0.16076193749905
0.87136536836624,-0.28148391377689,0.11876215753362,0.34356498523163,0.29682207107544,0.1141292899847
0.5058713555336,-0.35959057527794,0.11758142069679,0.38622273394149,0.23141314089298,0.12353003025055
