ax,roll,yaw,pitch,ay,az
-0.08056802302599,-0.46840392081716,0.11091606168254,0.47297571754134,-0.2864975631237,-0.47869408130646
0.23925891518593,-0.52326686220703,0.068206052340499,0.55095672857219,-0.19399613142014,-0.971655189991
0.7217218875885,-0.62329277929258,0.087820849268325,0.75051247751882,0.49704658985138,-0.89153254032135
0.72524863481522,-0.75443473654292,0.29740321710811,0.94019878464143,0.73208326101303,-0.20547930896282
0.70815473794937,-0.99906800005026,0.66944463565548,1.0138123330347,1.0006172657013,0.043373115360737
0.056826990097761,-1.28529815789,1.1050476367139,0.88853034190419,0.78772729635239,0.18610061705112
-0.62870079278946,-1.3491177433876,1.3128503715583,0.69658587719198,0.28822436928749,0.4392916560173
-0.68362581729889,-1.2287457664092,1.2342118399149,0.61202420843856,0.057420287281275,0.498001486063
0.057191852480173,-0.99971001300394,0.85077206201409,0.61906861204457,0.58906590938568,0.040878303349018
0.27203798294067,-0.75228330954334,0.3470992795256,0.51773699890475,0.75179666280746,-0.21573321521282
1.1065635681152,-0.62713258504128,-0.13154957657523,0.3212479237255,0.80766373872757,-0.77817273139954
0.90721207857132,-0.65304612332934,-0.27131457126147,0.031840782749765,0.2827967107296,-1.7489973306656
0.034782815724611,-0.59596002049106,-0.027406509147531,-0.16324534934806,0.041183579713106,-1.1505103111267
-0.9372176527977,-0.45844420703984,0.26913562961455,-0.16155786813014,-0.015088768675923,-0.42375800013542
-0.70951098203659,-0.38986794480452,0.36736719147257,0.011106395091515,0.093320526182652,0.038931135088205
-0.12592905759811,-0.41343589451577,0.29837405391198,0.21558713297928,0.20648998022079,0.022537924349308
0.69900226593018,-0.46651264456549,0.19685418485032,0.38661189697756,0.40189385414124,0.16820923984051
0.56759297847748,-0.50555191928828,0.15156747162545,0.45918664695107,0.40514847636223,-0.086128555238247
