ax,roll,yaw,pitch,ay,az
0.031189145520329,-0.062166848039951,0.022480144447887,0.47595589186754,0.13194012641907,-0.63770318031311
-0.89274108409882,-0.21541573801343,0.26953421720088,0.5663513306975,0.28707540035248,-0.81219029426575
-1.1607042551041,-0.38580503730519,0.51205991347281,0.80820694523088,0.54707008600235,-0.099360272288322
-0.90922105312347,-0.45187202831147,0.56255671867454,1.0724721781303,0.76562231779099,0.32133999466896
-0.52515298128128,-0.18180055188524,0.18961064030629,1.2623072356231,0.81139022111893,0.4277660548687
-0.2209969162941,0.40636185307022,-0.53565180445268,1.2390367494453,0.78275096416473,0.41173195838928
0.086409293115139,0.55033001528551,-0.83033326979838,1.054411130089,0.69947409629822,0.25708290934563
0.67798870801926,0.47819990345617,-0.83014476904676,0.83836569611085,0.61868858337402,-0.13382357358932
0.53540974855423,0.3726257539765,-0.64594398638386,0.67450637071291,0.40756237506866,-0.23873813450336
0.14195401966572,0.32475332777454,-0.34200038393692,0.5420020249463,0.62454050779343,-0.50514847040176
-0.88859039545059,0.20917394870955,0.081018707882457,0.46304101632819,0.80563396215439,-0.25509843230247
-1.6398937702179,0.0543158556247,0.48692688073417,0.36612961753459,0.76793164014816,-0.25961261987686
-1.3464462757111,-0.033251610773176,0.61046316770359,0.19543858032436,0.53489500284195,-0.33676412701607
-0.82109373807907,-0.026825256978703,0.45210832138428,0.0031846401944167,0.33120283484459,-0.54110580682755
-0.30767223238945,-0.074117525665951,0.17320997633175,-0.10460500239299,0.057878140360117,-1.0933864116669
0.067712537944317,-0.13154046822322,-0.074656620515186,-0.022565827358044,0.1816139370203,-0.75312358140945
0.54473668336868,-0.11909458193924,-0.23850248193022,0.15610451403226,0.5336908698082,-0.21529331803322
0.050363544374704,-0.061202527812433,-0.19673533009287,0.40281959307711,0.75386077165604,0.35892599821091
-0.66961288452148,0.014547405625541,-0.029009539811343,0.59267661173937,0.44789591431618,0.70887738466263
-0.83200651407242,0.07757809184803,0.062985143114231,0.64444140805317,0.36649906635284,0.34735450148582
