ax,roll,yaw,pitch,ay,az
-0.34479740262032,-0.39381941617321,0.090080264395655,0.46922934076039,-0.095637239515781,-0.45687660574913
0.11502079665661,-0.42082919231598,-0.035655538183037,0.56874417202486,0.02532972022891,-0.76391077041626
0.93274009227753,-0.45246748990269,-0.15548776733154,0.75713473026334,0.40041902661324,-0.83803004026413
1.0369937419891,-0.55371290246088,-0.059579927039319,0.96382920373083,0.73819071054459,-0.50547927618027
0.59354573488235,-0.88548321713373,0.39737807440454,1.0625157420533,0.7979753613472,-0.0066268634982407
0.22608628869057,-1.272322715593,0.91440595624875,0.95182249241699,0.73154276609421,0.18268413841724
-0.071769393980503,-1.4098424059283,1.1444261311629,0.742729290662,0.52098166942596,0.34086030721664
-0.46138650178909,-1.3942892947727,1.1779491319864,0.57172101765605,0.25305530428886,0.39115217328072
-0.15649186074734,-1.2522994054459,1.0136744814325,0.51417988598259,0.27323877811432,0.23082503676414
-0.0047601852566004,-1.0954125258068,0.68253660371268,0.49427762484051,0.45167550444603,-0.13819108903408
0.32086905837059,-0.884837691484,0.23299616059452,0.43864597182969,0.59176725149155,-0.53647619485855
0.79171687364578,-0.8362513784483,-0.17311888428649,0.37973088158985,0.57925820350647,-0.86510598659515
1.128931760788,-0.78023715691242,-0.42679188060029,0.24623040202731,0.47287577390671,-0.93083840608597
0.36059546470642,-0.74912527958541,-0.39492290283403,0.048708273029325,0.24682439863682,-0.9559463262558
-0.11543557792902,-0.6362626114139,-0.21373030482147,-0.095986633065402,0.12086600810289,-0.88868087530136
-0.67813175916672,-0.51442961150562,0.059105392787034,-0.092973768090934,-0.010930700227618,-0.70330059528351
-0.74608200788498,-0.38621024878811,0.20716014746873,0.072788350624679,0.10620187968016,-0.051680311560631
-0.19776040315628,-0.29444002773046,0.16913209395892,0.28181250299296,0.38951680064201,0.43751066923141
0.47204783558846,-0.27941176799539,0.065020352555652,0.42488738919843,0.48306474089622,0.1987646073103
0.62704038619995,-0.34237424801965,0.042161571477186,0.51162139952559,0.40823182463646,-0.0035156842786819
