ax,roll,yaw,pitch,ay,az
-0.13753022253513,0.028665629747137,0.0034483439125433,0.35048486114355,0.089645363390446,-0.64652192592621
-1.1449103355408,-0.060821235565489,0.21129910879458,0.46578336281367,0.27202934026718,-0.91882050037384
-1.2646256685257,-0.12842818615474,0.30458377385835,0.76490894685238,0.71088868379593,-0.044597439467907
-1.0864326953888,-0.064510674049,0.18858255511178,1.0320648616491,0.73880755901337,0.35620337724686
-0.59226429462433,0.2971421596682,-0.29133739693274,1.132775932069,0.78394997119904,0.48043519258499
-0.20421549677849,0.57919727030491,-0.72604750198893,1.0397188770318,0.78261095285416,0.51194888353348
0.16898910701275,0.55796854418497,-0.83924734386182,0.85862127788514,0.62692213058472,0.32751733064651
0.41641783714294,0.46458420267836,-0.76550743726357,0.65934865019394,0.36794275045395,0.0060088955797255
0.45386937260628,0.39887552421565,-0.57908005076874,0.49909101419787,0.25446075201035,-0.3011526465416
-0.23496487736702,0.3673020042731,-0.24783521792459,0.39797556919912,0.46845501661301,-0.53540736436844
-1.0628207921982,0.2870598286746,0.1363807382403,0.38859076395216,0.74537020921707,-0.024442631751299
-1.8762248754501,0.082044412149819,0.50068445980171,0.30105484469722,0.8041724562645,-0.18333533406258
-1.3542351722717,0.059938092464165,0.53738957736797,0.069932525415259,0.55483037233353,-0.30429974198341
-0.61791932582855,0.039570287083494,0.33070327843524,-0.14877417832208,0.21752722561359,-0.70818597078323
-0.1620729714632,-0.053408070262773,0.0716344528146,-0.2397930616533,-0.029173374176025,-0.96067726612091
0.078684657812119,-0.12364784687144,-0.1247806331487,-0.1209770837084,0.16937211155891,-0.65259826183319
0.21893255412579,-0.065508800127611,-0.22342671728156,0.13169769545639,0.48655718564987,0.027406774461269
-0.25956830382347,0.037187621724931,-0.19364291344094,0.38185978048671,0.59638655185699,0.53270882368088
-0.98594725131989,0.11533944152349,-0.082154974238815,0.52588631967398,0.36051553487778,0.67675983905792
-0.80597853660583,0.15741047694469,-0.047560889898942,0.56505003582594,0.24372528493404,0.29501181840897
