ax,roll,yaw,pitch,ay,az
-0.24261721968651,-0.31704040045949,0.072235282191427,0.47118725790412,-0.062412936240435,-0.52378404140472
-0.018649319186807,-0.32793464815693,-0.027253829212021,0.51650601934438,-0.037511836737394,-0.85267674922943
0.63278084993362,-0.35078248452173,-0.13570788212146,0.68480592015762,0.43139660358429,-0.75916635990143
0.75185912847519,-0.436322110745,-0.081768409763291,0.92548060674072,0.67891484498978,-0.29613029956818
0.75331151485443,-0.75638512981415,0.26404916216145,1.1027032653412,0.68199634552002,-0.11651483923197
0.18648026883602,-1.3038017124757,0.86983411758847,1.0505515656907,0.72841536998749,-0.049819525331259
-0.058749850839376,-1.4888535183323,1.1765012055807,0.87835924355583,0.53710269927979,0.24244058132172
-0.30469197034836,-1.4925896138769,1.2614471223456,0.70768137909739,0.42572364211082,0.32943180203438
-0.35507979989052,-1.3512670707519,1.1485583314175,0.59746366905163,0.32794347405434,0.16364158689976
-0.27810364961624,-1.1183033956588,0.85960592860034,0.58229591116689,0.37434479594231,0.13845802843571
0.31299331784248,-0.81186712447235,0.3596225218063,0.53847319852055,0.64542472362518,-0.5232310295105
0.73437535762787,-0.7248619981917,-0.063792299254431,0.42627451778549,0.68687331676483,-0.82814902067184
0.95754045248032,-0.65933646726878,-0.31590036296615,0.22528523979367,0.40224793553352,-0.89949601888657
0.64361673593521,-0.64480617126434,-0.31739193101759,0.020054299813384,0.26283553242683,-0.88737630844116
0.14394821226597,-0.59080456842726,-0.14089740395118,-0.14146794227101,0.40114822983742,-0.77257609367371
-0.68997871875763,-0.51693998196612,0.14732028170413,-0.17448510666787,0.12959106266499,-0.47366783022881
-0.82362896203995,-0.43359938533297,0.26976830614624,-0.06300330994582,0.3168448805809,-0.2442891895771
-0.2529838681221,-0.38059377723101,0.24636465067906,0.14749503903419,0.3863864839077,0.16906537115574
0.31347122788429,-0.37729779754521,0.15945366818619,0.33666948009871,0.35614800453186,0.11117595434189
0.63657915592194,-0.41230166910173,0.089899034455624,0.49407524122063,0.46642044186592,0.26527896523476
0.51299756765366,-0.41316603195534,0.071153900917163,0.56009817461654,0.39401656389236,0.11873362958431
