ax,roll,yaw,pitch,ay,az
-0.44017046689987,-0.59047802805952,0.15708585568116,0.53318232029809,-0.34650561213493,-0.98807346820831
0.49905294179916,-0.70918716811261,0.054936252166214,0.77256065785746,0.083621919155121,-0.99169450998306
1.1827253103256,-0.78623533156269,0.03988502491355,1.0740252923639,0.89951181411743,-0.72620993852615
0.94378209114075,-1.1200215535312,0.48820022923151,1.1971727273684,1.1227833032608,-0.22653044760227
0.40912902355194,-1.5541984272094,1.1019424940631,1.0058415150965,1.085228562355,0.10577906668186
-0.30563533306122,-1.6477559679356,1.3413405824379,0.66838669251113,0.64884966611862,0.34989243745804
-0.93446379899979,-1.5679842639688,1.339757692342,0.45563216894547,0.092373862862587,0.5627515912056
-0.44752281904221,-1.443833649822,1.0837271598419,0.49241315523556,0.29500406980515,0.37698984146118
0.25104221701622,-1.2834260209168,0.54454143146639,0.57951060846132,0.6535410284996,-0.66302126646042
1.1012735366821,-1.0980788571183,-0.0093168505019238,0.53040054982617,0.78627443313599,-1.2142443656921
0.69136691093445,-1.0473508837133,-0.25748530837278,0.27020097487225,0.47378852963448,-1.7411544322968
0.082402989268303,-0.95961506996626,-0.17287499558179,-0.049485981078611,0.14512954652309,-1.7323176860809
-0.99427354335785,-0.75844854559684,0.18573405488587,-0.20827410403926,0.086029291152954,-0.77719485759735
-1.4026198387146,-0.62713663832605,0.46359932947151,-0.099834083872803,0.22986046969891,-0.20198056101799
-0.63714694976807,-0.6013853370166,0.47155995410913,0.18124655336066,0.19881054759026,0.27846872806549
0.40473932027817,-0.78422007195058,0.29889536171351,0.5162116993467,0.40290603041649,-0.11196962743998
0.84810537099838,-0.77891976912339,0.10705525047991,0.70365766897809,0.5755387544632,-0.42013174295425
0.47234129905701,-0.80394425329154,0.10992436826008,0.75331345514675,0.41074401140213,-0.01038165576756
0.36506143212318,-0.71608179428104,0.10681742700903,0.73707505060543,0.23937052488327,0.073588624596596
