ax,roll,yaw,pitch,ay,az
0.47469213604927,-0.24966234848042,0.070123410698984,0.52355274742862,0.14822979271412,-0.26303651928902
-0.12785972654819,-0.3287622141698,0.21700424586074,0.4472354827619,0.11748739331961,-0.94495290517807
-0.95678150653839,-0.42097333663993,0.4498283862475,0.53957277447979,0.34216913580894,-1.0822409391403
-0.97238516807556,-0.54462061671518,0.66231033137385,0.83814444821314,0.73498046398163,0.10686781257391
-0.59134191274643,-0.55859551411544,0.6589205050952,1.0999773683382,0.75109088420868,0.48830449581146
-0.18288478255272,-0.26385621801378,0.22769274694123,1.2708947451903,0.85299438238144,0.57455426454544
0.084333412349224,0.24059935587055,-0.41770592197455,1.189365403859,0.76785463094711,0.32946765422821
1.0341742038727,0.35252774467524,-0.64438615364211,0.9779645522259,0.68776029348373,-0.28916960954666
0.70945507287979,0.27004355556518,-0.49653620603207,0.82158697442069,0.41447857022285,-0.22590053081512
0.18662928044796,0.15170768510735,-0.18349776698003,0.67568333259931,0.319644510746,-0.43289056420326
-0.54789263010025,0.037311955948369,0.20476722888693,0.55582918281938,0.53297317028046,-0.25873300433159
-1.1489732265472,-0.13958291065459,0.55243642356287,0.43185983073737,0.74811989068985,-0.13009352982044
-1.0495593547821,-0.22558378568762,0.66017439476375,0.22628856978731,0.62157905101776,-0.25314173102379
-0.50038623809814,-0.2259356442401,0.47188267200016,0.014649604919045,0.35084599256516,-0.82688075304031
0.024096736684442,-0.21710777904297,0.17274956799864,-0.084741612068726,0.031585969030857,-0.97955530881882
0.51387840509415,-0.24675340507967,-0.033735322199141,0.01167171293905,0.051329042762518,-0.79543119668961
0.56051200628281,-0.26271792819386,-0.097461113783558,0.23715518437607,0.38006472587585,-0.28012219071388
0.10743544995785,-0.22980101968223,-0.051845010663787,0.50758972571212,0.52988022565842,0.44365721940994
-0.31617298722267,-0.18823025390294,0.056338052285372,0.65218004934077,0.48878693580627,0.41669568419456
-0.42539063096046,-0.19768161764071,0.14354387727672,0.70008715681433,0.36188992857933,0.15063305199146
