ax,roll,yaw,pitch,ay,az
-0.26268658041954,-0.72316428148306,0.29506965671311,0.76340539872318,-0.071660466492176,0.23805464804173
0.30107364058495,-0.67455718463997,0.14607093785373,0.85930672155231,0.33098319172859,0.5842177271843
0.59948694705963,-0.56101249194267,-0.10105101840198,0.83942710750284,0.44193825125694,0.33196207880974
0.85665452480316,-0.48500717522964,-0.26366409307874,0.75823189902527,0.40585473179817,0.058288279920816
0.99338674545288,-0.41700182426835,-0.33629984080494,0.6258476698122,0.33810383081436,-0.16686688363552
0.82545053958893,-0.32326077293772,-0.2802040540595,0.42248087426004,0.20104005932808,-0.36746647953987
0.010627585463226,-0.3097330589405,-0.024485662275242,0.22289633525192,0.25021478533745,-0.12394195795059
-0.86121428012848,-0.27553194140954,0.27934022402758,-0.018906656431371,0.2082062959671,-0.24480053782463
-1.30382335186,-0.30192470805247,0.46167886573879,-0.26846217870503,-0.16806578636169,-0.21288721263409
-0.85642349720001,-0.47022045853696,0.29009837169117,-0.46859399611271,-0.24852254986763,-0.47954577207565
-0.13215099275112,-0.80233667595375,-0.13955050459545,-0.52711455084337,-0.3508352637291,-0.94484531879425
0.40581548213959,-1.0991696223202,-0.4446611549374,-0.37424501404642,-0.2246855199337,-1.2296992540359
0.62986904382706,-1.2261880071929,-0.42990717843179,-0.16785193318763,-0.040279570966959,-1.0351601839066
0.73737049102783,-1.2530120869308,-0.27154400609717,-0.024250316588276,0.13934153318405,-0.78972589969635
0.56888955831528,-1.1219814335654,-0.068315318555715,0.0048563931413765,0.19223430752754,-0.52194809913635
-0.25411778688431,-0.81990736082318,0.15508517629748,-0.037727625810368,-0.0058735855855048,-0.33949786424637
-0.91957986354828,-0.62850895362048,0.42479237081747,0.03283939340076,-0.12962684035301,-0.044466879218817
-0.70792490243912,-0.54200672934549,0.54982791415873,0.23391814515137,0.1533300280571,0.28097608685493
-0.23591846227646,-0.4876111108338,0.49400889134688,0.46257463139251,0.39159664511681,0.58189958333969
0.54722285270691,-0.48202801226723,0.31787983173094,0.64858541864678,0.21303793787956,0.52855134010315
0.77250134944916,-0.51695957378813,0.17340879222442,0.71580833005436,-0.017661591991782,-0.063795886933804
