ax,roll,yaw,pitch,ay,az
-0.39386680722237,-0.34901752414667,0.082424478484196,0.49471932517012,-0.26075002551079,-0.43927174806595
0.069731310009956,-0.29666647757387,-0.095640703782171,0.58326573842545,-0.0010814009001479,-0.76946568489075
0.74889773130417,-0.23802929933588,-0.25533385690592,0.80145746460975,0.60161048173904,-0.60888135433197
0.80154794454575,-0.30367518157959,-0.16367142343167,1.040960888026,0.92612266540527,-0.18751788139343
0.40944328904152,-0.82207571058205,0.48427388542867,1.1381435738873,0.94426411390305,0.17517578601837
-0.012769030407071,-1.2490604939375,1.0660859237877,0.95074998204292,0.80706137418747,0.41421207785606
-0.74131172895432,-1.3103845856901,1.2186594197839,0.71499837885246,0.39798682928085,0.39830836653709
-0.94457668066025,-1.1972860248288,1.100447781813,0.6189712594453,0.047086022794247,0.3448897600174
0.12275591492653,-0.95829364659236,0.65663017536544,0.70492666188961,0.63079655170441,-0.1942351013422
0.69512104988098,-0.64498360992119,0.069250456480696,0.66846827804789,0.72261363267899,-0.37564304471016
1.0570710897446,-0.55046070671923,-0.25867061490579,0.48755579884902,0.61650866270065,-0.57493537664413
0.81109184026718,-0.5437242088153,-0.28087660780307,0.20177264756035,0.36750531196594,-1.0247632265091
0.079650729894638,-0.50286227351827,-0.054942244570109,-0.03827515673148,0.18689288198948,-1.2904049158096
-1.1708734035492,-0.41960542168731,0.31404565997518,-0.044756379842778,-0.028246693313122,-0.7106506228447
-1.0860034227371,-0.37292654426265,0.47117442770328,0.1750410293023,0.28034973144531,0.12577500939369
-0.34432980418205,-0.38419346221108,0.37036652587747,0.41877960548062,0.1402426213026,0.34897005558014
0.61385172605515,-0.41576224002119,0.1509479313428,0.61975895136766,0.48809605836868,0.066158629953861
0.58750474452972,-0.44606945169066,0.078795208055827,0.69638142034348,0.50013422966003,-0.057380463927984
