ax,roll,yaw,pitch,ay,az
0.44351643323898,0.045075388012178,-0.019496290107637,1.054542184778,0.33430442214012,-0.029305804520845
-0.037388540804386,-0.28798749756747,0.39369609271864,1.0716042450877,0.60627156496048,-0.022382644936442
-0.52708292007446,-0.71040594701832,0.89869275421658,0.96864068228342,0.6150558590889,0.053272470831871
-0.94021713733673,-0.77673410211571,1.0614894965969,0.82424191938109,0.27649837732315,-0.10280989855528
-0.71791791915894,-0.68837387245824,0.99587835622812,0.79919794774034,0.25947588682175,-0.096512861549854
-0.55490118265152,-0.5225183934573,0.74371131908983,0.83932168983714,0.32728958129883,-0.073048457503319
-0.23257857561111,-0.18206904292523,0.31029547167057,0.8218064679193,0.38769626617432,-0.064714930951595
0.015410161577165,0.042020486165564,-0.079196336646346,0.7115166315988,0.42722937464714,0.027104860171676
0.20568272471428,0.080324431185538,-0.34699670925383,0.58729779231775,0.5624144077301,0.22004632651806
0.40137714147568,0.045883839114741,-0.48947591944003,0.37748768796505,0.60859167575836,0.0076404619030654
0.52525216341019,-0.026000003704674,-0.46504622897081,0.10179180996494,0.38892385363579,-0.51637679338455
0.63375252485275,-0.0052134972605866,-0.30687752868797,-0.15438468595306,0.31600022315979,-1.1230216026306
-0.23535090684891,0.064703497242335,0.10172448271462,-0.16917422126961,0.31872266530991,-0.87051028013229
-0.92533296346664,0.082346323756824,0.48722367831091,0.018602124355822,0.49321043491364,-0.4351252913475
-0.82040816545486,0.1291191796246,0.62465800727832,0.22259358137791,0.66305124759674,-0.13217125833035
-0.85028314590454,0.2187503241054,0.56586018795906,0.39857794685553,0.56926047801971,-0.067572891712189
-0.63450592756271,0.30169253922909,0.38845907268566,0.50472660859014,0.41789430379868,0.1171607747674
-0.15881469845772,0.23035426166539,0.1683892315297,0.52340529114372,0.25038173794746,-0.15716797113419
0.040579330176115,0.08589276988635,-0.057868519664049,0.52690871049835,0.032038543373346,-0.45518127083778
0.63531559705734,0.030642563678165,-0.29271414197728,0.58322544762127,0.1473071873188,-0.88713669776917
0.6503541469574,0.04528896000919,-0.35424497199116,0.77660113962826,0.35851284861565,-0.039766203612089
0.28598669171333,-0.0061734135836828,-0.17351431005281,0.87148087029425,0.63329446315765,0.18988534808159
-0.46507892012596,-0.22785809174278,0.12103341870083,0.94839324809901,0.47020995616913,0.35588431358337
-0.76585024595261,-0.30961611660148,0.28912706258334,0.94901581026892,0.19164203107357,0.14006805419922
-0.30502727627754,-0.24802696484839,0.27184391385665,0.97602441840449,0.26333490014076,-0.019967544823885
