ax,roll,yaw,pitch,ay,az
-0.34404072165489,-0.4398176559448,0.076889966492958,0.37269617151852,-0.22890502214432,-0.64952141046524
0.48700106143951,-0.44348023305761,-0.085803738394906,0.51485658104414,0.14460118114948,-0.92655503749847
0.90754932165146,-0.43286106417215,-0.17687589247009,0.77258178417327,0.68953305482864,-0.80806624889374
0.90511178970337,-0.46038065543286,-0.0059905212718319,1.0421959217001,0.91049557924271,-0.015468487516046
0.61159157752991,-0.79634722960884,0.54079426452992,1.126902281003,0.92444843053818,0.29444080591202
0.1673986017704,-1.1354659110015,1.03482365455,0.96731375057933,0.83814990520477,0.37429010868073
-0.26046741008759,-1.1601709956876,1.1869006314579,0.69559408019883,0.55600267648697,0.11650054901838
-1.0506875514984,-1.0751600783819,1.1907767805221,0.48504478977895,0.01014746632427,0.11337611824274
-0.32522249221802,-0.94407683074048,0.92886867667121,0.50776366764069,0.19237053394318,-0.01823553442955
0.53057456016541,-0.79326304706567,0.47281897856459,0.52616653931513,0.63556861877441,-0.34261459112167
1.1407029628754,-0.65372825259887,0.056077231772312,0.3931438497195,0.57065534591675,-0.5092014670372
1.0413001775742,-0.6879152103516,-0.13753736626056,0.1408357131038,0.28011059761047,-1.0475625991821
0.51526737213135,-0.64307488396717,-0.11061110689789,-0.12863375516305,0.085603140294552,-1.5297507047653
-0.51637661457062,-0.50891074256639,0.20071279868856,-0.20767816921698,0.087100669741631,-0.82259774208069
-0.94415885210037,-0.41096115227898,0.44830458658282,-0.085846548428786,0.15582074224949,-0.26480028033257
-0.37868702411652,-0.43272359558815,0.42622019169253,0.15648997468972,0.33195373415947,0.32433077692986
0.61619234085083,-0.45095026747173,0.21426386631328,0.36828426948483,0.34205567836761,-0.060753498226404
0.82087415456772,-0.4731042834315,0.12205470674163,0.50564322139302,0.41019725799561,0.071765758097172
0.4649746119976,-0.50844862825725,0.14439014279597,0.54824158189108,0.30506181716919,0.059187985956669
