ax,roll,yaw,pitch,ay,az
-0.55069547891617,-0.37873847071108,0.076900757300753,0.42324806268623,-0.24772319197655,-0.48668682575226
0.019658003002405,-0.44517659566587,-0.060768413707839,0.49561366232505,-0.023100908845663,-1.0777803659439
0.56303387880325,-0.50287990788773,-0.17654066710354,0.7414376457501,0.36585485935211,-1.0137020349503
0.88264346122742,-0.57018971609526,-0.12861369647083,1.0521511305001,0.96497285366058,-0.5367117524147
0.80356520414352,-1.0244036550443,0.44381480982099,1.205579519276,1.1834818124771,0.076997563242912
0.25144013762474,-1.4832012222886,1.0693787393395,1.0006026973527,0.89788776636124,0.24664005637169
-0.38110852241516,-1.5469850322031,1.2549286914793,0.6868138729305,0.67291021347046,0.19141505658627
-0.94529742002487,-1.4720265246793,1.2589274905043,0.46253226328092,0.22212517261505,0.25160849094391
-0.29830533266068,-1.320458291281,1.0701891420517,0.44625483208887,0.21076495945454,0.24954837560654
-0.055113084614277,-1.1621704694371,0.70119043890589,0.50331751455125,0.23506562411785,-0.46464124321938
0.61112153530121,-0.98253165344742,0.3314795153825,0.54208608395623,0.44208684563637,-0.34974178671837
0.89474219083786,-0.84846132082592,0.028263386368493,0.47912277182149,0.55137872695923,-0.088538013398647
0.91949570178986,-0.70475198990585,-0.20713829967301,0.25641251119436,0.43662589788437,-0.68932634592056
0.61939412355423,-0.57589477926536,-0.25664536503036,-0.05096465965577,0.28380471467972,-1.5662685632706
-0.23089005053043,-0.42431512568016,0.028805961525014,-0.23972509223679,0.26337313652039,-1.1393065452576
-0.87012851238251,-0.29619734144318,0.38943076801845,-0.21896222325641,0.29410529136658,-0.55312365293503
-0.82717669010162,-0.20690905630305,0.49300414694594,-0.05756099776341,0.36028695106506,-0.11082564294338
-0.3385409116745,-0.13431598937867,0.39813842681659,0.15012252097701,0.32364681363106,0.32783916592598
0.50497001409531,-0.13523512375971,0.20850348282164,0.34413619122537,0.40835228562355,0.48431640863419
0.86848783493042,-0.21630119261561,0.075965067589824,0.42547540989134,0.37659052014351,-0.067321576178074
0.47430434823036,-0.25967807329784,0.073699834280914,0.45589234158096,0.23460574448109,0.049924820661545
