ax,roll,yaw,pitch,ay,az
0.027069795876741,0.23837345534155,-0.025894451923942,0.22630372751625,-0.024875279515982,-0.091612242162228
-0.3651619553566,0.22498274426589,0.061012039165191,0.21676516497916,-0.13786417245865,-0.44034796953201
-1.0408539772034,0.19765673699724,0.18447222790588,0.29018005787369,-0.18384595215321,-0.74472934007645
-1.2187583446503,0.16662405926669,0.22843885786978,0.49036974787761,0.34422785043716,-0.24820764362812
-1.2519773244858,0.18139133139765,0.16339167503788,0.71957646357146,0.51247501373291,0.35125720500946
-0.99885839223862,0.28753433991909,-0.089346652106287,0.86831546260203,0.5782898068428,0.70097810029984
-0.53887403011322,0.4746179692156,-0.44142794429352,0.83184402890977,0.61930155754089,0.8220300078392
0.038486741483212,0.53596328589796,-0.67260165572189,0.65712535702475,0.38029834628105,0.50787818431854
0.99599152803421,0.52718864671428,-0.7392168103371,0.4530875788917,0.2922511100769,0.041550811380148
0.54666393995285,0.50398170788178,-0.56464289923164,0.38925495286988,0.12243437767029,-0.3723047375679
-0.8234526515007,0.45729797390674,-0.16060767443129,0.49810549028843,0.48177516460419,-0.087875209748745
-1.762882232666,0.31956162160339,0.34601979589333,0.48610128210079,0.67203158140182,0.012143507599831
-2.2777214050293,0.23004311205804,0.62660311021892,0.28450863885216,0.50492906570435,-0.13233348727226
-1.4863107204437,0.19518610279443,0.54808440016361,-0.043073716487214,0.37915030121803,-0.52813804149628
-0.51531952619553,0.10374814316318,0.27309841549475,-0.33174784771086,-0.014874540269375,-1.0140618085861
0.3571889102459,-0.0021270214266661,0.017788694684464,-0.39369301562024,-0.32718974351883,-1.1319843530655
0.38706439733505,-0.0080735591570715,-0.071582526570751,-0.2259610585597,-0.059385500848293,-0.74577414989471
-0.42622816562653,0.081252245893744,-0.019468770785044,0.09660316008259,0.39042881131172,0.28812006115913
-0.97899574041367,0.18356824911358,0.052443019205313,0.34114990877756,0.28238588571548,0.84909909963608
-0.94231957197189,0.25180340400564,0.088555363253608,0.41915537032971,0.28320980072021,0.52598506212234
