ax,roll,yaw,pitch,ay,az
0.058428879827261,-0.36137284389611,0.052753593072448,0.2761090350157,-0.032393790781498,-0.098644576966763
-0.0029206920880824,-0.36574666044297,0.092477211211911,0.20423547903771,0.02126950584352,-0.71984457969666
-0.50317907333374,-0.42252783686044,0.27790869568227,0.27040259850737,0.18524076044559,-0.58486133813858
-0.61851817369461,-0.52045763129651,0.49922338821256,0.47304151922381,0.29673662781715,-0.084141962230206
-0.41103827953339,-0.60978001455232,0.60971766362594,0.71177046448585,0.47414404153824,0.2525742650032
-0.38000920414925,-0.64881177375788,0.59561216522836,0.91731343873709,0.49267107248306,0.40132096409798
-0.24845235049725,-0.56425337928761,0.36650163945942,1.1018579891747,0.59213709831238,0.48683342337608
-0.076622381806374,-0.14895994824883,-0.17413383215488,1.1444223039935,0.62510150671005,0.50924247503281
0.39152702689171,0.12170414307697,-0.60924949768294,1.0108564886027,0.64313971996307,0.34469616413116
0.8529424071312,0.14366665075506,-0.73623219507916,0.78407121101694,0.63762533664703,-0.053095236420631
0.73614311218262,0.054858461777012,-0.63541515606768,0.57980712650704,0.3715472817421,-0.50042927265167
0.19983518123627,-0.037950882812613,-0.36879442481631,0.42102959612841,0.35471475124359,-0.47220483422279
-0.37139594554901,-0.044856821607615,-0.024902966134396,0.28501355422301,0.49110087752342,-0.005296734161675
-0.90322834253311,-0.11424912582679,0.33645889521769,0.18180040277229,0.55708235502243,-0.20051968097687
-1.1310250759125,-0.16686761015268,0.58483771155208,-0.0016026081846087,0.59912067651749,-0.14056985080242
-1.16634953022,-0.20985274752026,0.54583734572645,-0.19812446311618,0.32378378510475,-0.044459212571383
-0.55214750766754,-0.30737118244744,0.20162960534226,-0.35621174962009,0.26376149058342,-0.66120541095734
0.074420101940632,-0.4183109586732,-0.1593183351227,-0.33118370205481,0.0022604805417359,-1.1058506965637
0.44113591313362,-0.50593382798191,-0.28262783632989,-0.15424554428824,0.083547972142696,-0.88343489170074
0.85220921039581,-0.49555260357888,-0.24469944841462,0.068533778187289,0.378950715065,-0.17701604962349
0.36483156681061,-0.42592083126772,-0.052228081192226,0.27058820248011,0.3675485253334,0.43333992362022
-0.18492867052555,-0.36271331238759,0.16410856555796,0.39072069346128,0.34101420640945,0.51555305719376
-0.33471432328224,-0.33835893733802,0.30741814622713,0.45065005601244,0.27637109160423,0.49531990289688
-0.19100287556648,-0.30547251455822,0.35382932462105,0.46152388778476,0.18777520954609,0.13827104866505
