ax,roll,yaw,pitch,ay,az
-0.63861912488937,-0.60842002453806,0.038769146117189,0.10391557024746,-0.049286488443613,-0.28227818012238
-1.0234577655792,-0.72496998038148,0.10627801211566,0.23377496456846,0.16941085457802,-0.38080427050591
-0.42821356654167,-0.79000015379089,0.01924471787612,0.57027960119936,0.65732961893082,-0.005102954339236
0.077871978282928,-0.68471413969306,-0.33834733846654,1.0000923041135,1.0468431711197,0.24675072729588
0.44459360837936,-0.2548130353201,-1.0624447594875,1.1748041628297,0.92371290922165,0.35898673534393
0.41393029689789,-0.11966808509721,-1.4157642739874,0.98518270083499,0.80694484710693,0.22641618549824
0.62136989831924,-0.33691984076866,-1.4048614716555,0.63256680825576,0.707015812397,-0.13202010095119
0.1525367051363,-0.55481259915285,-1.2351932639031,0.22073845194892,0.3991259932518,-0.80732870101929
-0.59273189306259,-0.59167220889716,-1.0026434960235,-0.057764550747812,-0.12888418138027,-1.1265754699707
-0.75351005792618,-0.5162893217672,-0.66589112587971,-0.087691411823982,-0.12038545310497,-0.60058832168579
-1.013908624649,-0.45104150794682,-0.33555850888191,0.039126725771798,0.18264091014862,-0.31791934370995
-0.89710015058517,-0.52227270262403,-0.11994561641246,0.35478496138564,0.46723127365112,-0.0057242456823587
-0.5670822262764,-0.60491515607787,-0.13105273187523,0.7715675129516,0.61858546733856,0.12239520996809
-0.033090356737375,-0.26687332363731,-0.65641762017915,1.1380167961634,0.72968769073486,0.08132216334343
0.34694486856461,0.55261975388301,-1.6482889207088,1.1752041093899,0.73203361034393,0.19757877290249
0.27132281661034,0.74010517985543,-1.9029173439595,1.0901289644103,0.46035602688789,0.16695986688137
0.22060523927212,0.69578988738174,-1.8533449291742,1.0364882559196,0.27472949028015,-0.023436356335878
