ax,roll,yaw,pitch,ay,az
-0.82234853506088,-1.1107997788811,0.099167681133659,0.15732339736826,0.08820903301239,0.25142017006874
-0.32589018344879,-1.1494748869221,0.11479776186422,0.41731286667716,0.56398153305054,0.44360244274139
0.0059454273432493,-1.1160169193126,-0.11619660052758,0.73620204281795,0.84613049030304,0.37894159555435
0.22493930160999,-0.93791509972094,-0.60776513672146,0.98617046774963,0.91471391916275,0.48014205694199
0.65301787853241,-0.49516183780451,-1.3719712305225,0.8199506199597,0.95428717136383,0.068543836474419
0.80830973386765,-0.77211790198771,-1.4711311601724,0.4166279783858,0.75503623485565,-0.81694167852402
-0.14682394266129,-0.97015619782097,-1.1811980306721,-0.12228732099899,0.29099640250206,-1.1771785020828
-0.85355961322784,-0.89240324243442,-0.73269128449658,-0.4636112252167,0.1926199644804,-1.0863425731659
-1.5635181665421,-0.62566155793831,-0.16255433709757,-0.42566134393799,0.27387490868568,-0.17546671628952
-1.4204417467117,-0.60460014310894,0.053842534948811,-0.13499073806276,0.62101882696152,-0.21943850815296
-0.32854607701302,-0.72326309715619,0.00052387719906172,0.31428596429655,0.74492847919464,-0.12453312426805
-0.21851533651352,-0.90649377724497,-0.02474400154512,0.80381270123539,0.76325058937073,0.00022512330906466
-0.0037160895299166,-0.90260757119208,-0.19672555521338,1.2406117042141,0.93301248550415,0.111915320158
0.28816285729408,0.13144628461015,-1.390902850895,1.4395698030509,0.69429832696915,0.25749817490578
0.67020761966705,0.74496782155279,-2.1608115482423,1.3282895487086,0.32977840304375,0.1374489814043
0.48772034049034,0.6237717333391,-2.096851565694,1.2426041169642,0.28749266266823,-0.0025901417247951
0.023865139111876,0.48169265238234,-1.94826374948,1.2308732426504,0.093369260430336,0.026829874143004
