ax,roll,yaw,pitch,ay,az
-0.44974851608276,1.1460557746513,-0.033833236646474,0.031765435615234,0.010290977545083,0.20115268230438
-0.065569892525673,1.2087885348391,-0.05023014622401,-0.020808230868009,0.36455398797989,0.07511480152607
-0.46581953763962,1.2726231156482,0.0074672622325756,0.19217904685903,0.60722750425339,0.25043296813965
-1.0036371946335,1.3961971299374,0.33444400587974,0.5562886000419,0.80170440673828,-0.21650782227516
-2.1095948219299,1.2241607777536,0.87829913628502,0.81800841914317,-0.38692879676819,-1.3189548254013
-2.1810319423676,1.1058913900491,1.2859643814457,0.7392296830511,-0.050966821610928,-1.1792123317719
-2.163969039917,1.0116946564417,1.3459339338294,0.56088200340555,0.31536528468132,-0.40763974189758
-1.31276512146,0.90954039753416,1.2812878805176,0.16483212485347,0.50994247198105,-0.39748051762581
-0.10140130668879,0.60569857319916,1.2212934111453,-0.091064064480361,-0.00020949399913661,-2.4889647960663
-1.6748874187469,0.44093084531399,1.2226076753264,0.25138670409931,-0.11259608715773,-0.83879220485687
-1.0498456954956,0.48929992872332,0.72357434611351,0.51357860958334,0.7364450097084,-0.0075298389419913
-0.30909553170204,0.77327241129663,0.046885480488941,0.54234414141683,0.92353957891464,0.65759938955307
-0.33327925205231,0.97182359181571,-0.30189133530269,0.51209301681058,0.83161664009094,0.84970188140869
-0.312121540308,1.0298601102158,-0.38272436142384,0.55220860125365,0.86032325029373,0.98718470335007
-0.43820917606354,0.87375089583624,0.021795577891419,0.58301142334792,1.2768739461899,0.974554002285
-2.1064991950989,0.52889089966006,0.90509709596757,0.24510918764475,1.8528916835785,-0.71276158094406
-2.6853749752045,0.37891351711707,1.5362755513515,-0.15610462852217,0.43844646215439,-1.6504977941513
-1.9363443851471,0.41275881123246,1.766768753251,-0.25236491945231,-0.32614117860794,-0.84554147720337
-1.1757167577744,0.50560996378253,1.7266558216454,-0.26523870696498,-0.0337308421731,-0.12266484647989
-1.0756952762604,0.56233720700165,1.6207307544225,-0.21543568948721,0.15677137672901,0.13843557238579
