ax,roll,yaw,pitch,ay,az
1.0680013895035,-0.39577257029446,0.051343258603131,0.28721604674778,0.74690645933151,0.83457827568054
0.9363431930542,-0.30182726999223,0.1650061244052,0.18387146149525,0.78658163547516,1.088373541832
-0.17886312305927,-0.029346501324428,0.63067081840554,-0.22611574574284,-0.036251347512007,0.52125936746597
-2.385333776474,0.35481710992546,1.209956536446,-0.52287903697556,-1.1742269992828,-1.0497646331787
-2.0992879867554,0.61727563938354,1.3197555475016,-0.65646825506733,-1.283052444458,-0.78753465414047
-1.1119140386581,0.48975329907371,1.0606587383731,-0.73578614552106,-0.78352057933807,0.37080663442612
-0.82960295677185,0.19965618993966,0.78459607098803,-1.0710304176076,-0.73156130313873,-0.08958001434803
-0.27441957592964,-1.5690623220503,-0.90500963281058,-1.1597741334889,-0.076304614543915,-1.7829529047012
0.97049736976624,-1.9920030787305,-1.3088545254134,-0.70973114283127,0.063870042562485,-2.7007467746735
-0.73928087949753,-2.0647410835094,-1.2796536322936,-1.0112310533714,-0.39541381597519,-2.9209585189819
-0.47961616516113,-1.3037012854736,-0.25255198996125,-1.0246947567804,-0.44906863570213,-1.4208016395569
0.51320123672485,-1.0411285443858,0.24994922130593,-0.42651899144063,0.14626289904118,0.034857254475355
1.243619799614,-1.0277075834393,0.37193113690063,0.19168262815386,0.76242566108704,0.74212020635605
1.3314123153687,-1.0123407225488,0.43773886187387,0.45669117250396,0.92436397075653,0.94734466075897
1.1182181835175,-0.93222556281225,0.45614829678591,0.33662867955998,0.75926196575165,1.0043516159058
0.63541299104691,-0.73721871420825,0.3348882782629,-0.17158437385672,0.46988132596016,0.97995781898499
-0.77291637659073,-1.3023406520107,-0.41743635347156,-0.9458223067737,0.93217051029205,-1.9899085760117
-1.2805268764496,-2.4465836045788,-1.6965813488851,-0.91228435476237,0.14005030691624,-3.126326084137
-0.56318920850754,-2.6647593986119,-1.8531447769559,-0.81213420668637,-0.3276552259922,-2.5483000278473
-0.26165390014648,-2.5727952072351,-1.7989357882228,-0.948486096336,-0.38797336816788,-1.6411275863647
