ax,roll,yaw,pitch,ay,az
-1.3308761119843,-0.40297481952269,-0.03493129596419,-0.17255548109788,0.023032229393721,-1.5417150259018
-0.68668413162231,-0.54345548634663,-0.025403336191268,0.41290201003813,1.5475245714188,-0.75027620792389
0.14072641730309,-0.62354201534012,-0.083492225450724,1.1304483527506,1.7399610280991,0.12277317047119
0.40006080269814,0.47987321976348,-1.2558295742876,1.4915679610037,1.5159822702408,0.30052262544632
0.49998816847801,1.711949202664,-2.5110648377734,1.4914370993831,1.4556996822357,0.47300842404366
0.26198351383209,-0.81264352447592,0.036629353977723,1.4178380086945,1.1315741539001,0.61240631341934
-0.66671770811081,-0.70963990824619,-0.095571745733729,0.90448183616592,0.49029812216759,-0.39361986517906
-0.69985747337341,-0.71770630435631,-0.16466020750747,0.45252205109653,-0.19612669944763,-1.8230564594269
-0.49956873059273,-0.81048508904027,0.089629108887816,0.37022366358202,0.19637289643288,-1.0420544147491
-0.86833894252777,-0.94843554615168,0.5893057241926,0.45935354424245,0.55489522218704,-0.24752461910248
-2.2023470401764,-1.1283866302463,1.0490555843559,0.55141803083546,0.5157168507576,0.028665244579315
-0.16818745434284,-1.6886111232748,1.3851672578597,1.0061255697644,1.2673112154007,-0.19218915700912
0.6090390086174,-2.502309879316,2.060582676505,1.284364939863,1.126723408699,-0.13983891904354
0.35469308495522,-2.8453837677446,2.3690593722211,1.3030371977917,0.63991856575012,-0.068020820617676
-0.038700595498085,-2.5289334239311,2.1393884464646,1.3241905621326,0.1810197532177,-0.09937310218811
