ax,roll,yaw,pitch,ay,az
0.16089563071728,-0.40598958880859,0.33200369399258,1.35917253913,0.19280955195427,-0.050938379019499
0.40244871377945,-0.40697486296435,0.37457775845551,1.3072496799216,0.53970611095428,-0.04716332629323
0.34966084361076,-0.59255949731983,0.59948985365918,1.1900802632989,0.95984715223312,0.35173803567886
0.09959077835083,-0.56122371912929,0.64516295298965,0.86942222197658,0.49025937914848,-0.11251143366098
-1.3664770126343,-0.40281363740722,0.57308504651273,0.47388811880112,-0.073451027274132,-1.3309383392334
-0.80542361736298,-0.21516900219448,0.36250362131274,0.3696187779615,0.13095907866955,-0.18280246853828
-0.096578814089298,-0.22346158156001,0.03874911323237,0.27267879213808,0.3992255628109,-0.46297660470009
1.1116497516632,-0.31552811897313,-0.2766297893193,0.20430353925908,0.78749519586563,-1.0840612649918
0.036096032708883,-0.34018038944747,-0.22616153765522,0.23557831755622,0.0052101756446064,-1.0829921960831
-0.27029502391815,-0.38206496168606,-0.11780445730148,0.46408018067267,0.088973142206669,-1.1649639606476
0.012374732643366,-0.53035789091253,0.040790321284432,0.88982779705549,0.64331161975861,-0.12290721386671
0.28575074672699,-0.70997608450683,0.19741504365853,1.2620582514664,0.86540699005127,0.23994424939156
0.21535736322403,-1.1022412186414,0.59995058713034,1.457498254857,0.91624188423157,0.32827726006508
0.30984282493591,-1.090005911486,0.62144996762359,1.5082687676449,1.0180500745773,0.48600634932518
0.31847187876701,-0.4069867486438,0.0042130641297185,1.3415022069388,1.0875507593155,0.60430896282196
-0.055127393454313,-0.24396846109045,-0.14832889014665,0.89953818046745,1.3303114175797,0.44814246892929
-0.65349406003952,-0.28174252948194,-0.31070131349513,0.2358323779927,1.6878912448883,-1.2632511854172
-0.46541723608971,-0.36042849605601,-0.47499215535877,-0.21426169747099,0.65216583013535,-1.2133520841599
-0.19804242253304,-0.53669556562486,-0.54545676047322,-0.37547319979113,0.32878279685974,-0.77924919128418
0.01196916680783,-0.54868223635427,-0.61065438612943,-0.41834976347579,0.13326719403267,-0.39639335870743
