ax,roll,yaw,pitch,ay,az
0.013971356675029,-0.43420512154663,0.30013146150241,1.2144631290503,0.09346279501915,0.032594822347164
0.7595688700676,-0.2648502425185,0.12382856828441,1.2337545420145,0.48229601979256,0.19918605685234
0.96454578638077,-0.33106119372586,0.24571942302169,1.1595066550392,0.97301769256592,0.15870676934719
0.13765163719654,-0.66992560034021,0.70947799599352,0.94140432568274,0.46407103538513,-0.063750594854355
-0.78196895122528,-0.65400918176074,0.90707863718048,0.65220378936213,-0.20929902791977,-0.21278366446495
-1.285130739212,-0.49285537548259,0.90765934413148,0.47742352921792,-0.39309251308441,-0.18950967490673
-0.79789382219315,-0.41775435435077,0.76271402311181,0.44594889912832,-0.020269667729735,0.044234272092581
0.13647682964802,-0.36712164706927,0.45225378759386,0.40841438010289,0.094725415110588,-0.23393367230892
0.572694003582,-0.43087354814931,0.19647251391286,0.3829831285367,-0.12480024248362,-0.93777137994766
0.67937016487122,-0.48158772892895,0.11932640100466,0.50268576702312,-0.36000081896782,-1.1168097257614
0.45834973454475,-0.61532975499574,0.28470616280071,0.75567578011226,0.048237945884466,-0.60064560174942
0.27334278821945,-0.89409140010592,0.59233383365135,1.0619034689448,0.61202347278595,0.39777129888535
0.37704107165337,-1.1389484940109,0.86519215926782,1.2473083322423,0.91082465648651,0.63342821598053
0.44599217176437,-1.0231153848871,0.79919604998372,1.2482262139784,1.140486240387,0.69216692447662
0.2166393995285,-0.73512859353658,0.58089031848169,1.0507207090328,1.159987449646,0.68351769447327
0.50126868486404,-0.56088298257911,0.33165405585496,0.6433825186941,1.0305539369583,0.42964035272598
-0.78336900472641,-0.56501557664029,0.12570617898041,0.033549258641886,0.046467155218124,-1.7390248775482
-0.28598788380623,-0.64722655811066,-0.095958072756247,-0.25068179168051,-0.00078057200880721,-1.831652879715
