ax,roll,yaw,pitch,ay,az
0.33023515343666,0.33212213472531,-0.23272539350562,1.2536027852119,0.77621012926102,0.2629047036171
-0.32710453867912,-0.050804202724774,0.23587836377644,1.0555597164206,0.23106181621552,-0.29982623457909
-0.65359938144684,-0.070360320698155,0.34580624726454,0.81389914728011,0.050120741128922,-0.62063294649124
-1.0043952465057,0.029424998124237,0.26032849511181,0.68263704505054,0.22875700891018,-0.25971761345863
-0.76170784235001,0.15365705403621,0.034240785197596,0.51604719621219,0.32955133914948,-0.13027842342854
-0.23520369827747,0.16820986553178,-0.24605664426327,0.31107081526335,0.23983982205391,-1.0123579502106
0.50065380334854,0.12050054964213,-0.4741138150893,0.2515173662041,0.21817319095135,-1.3537491559982
-0.17779803276062,0.06047423882813,-0.50243640960887,0.4525132869819,-0.072141662240028,-0.90063279867172
-0.069287583231926,0.081326357267615,-0.65421932520024,0.85246598603957,0.56091952323914,0.0051964670419693
-0.0010873547289521,0.54577257474519,-1.1525262618252,1.1727457001027,1.132893204689,0.69501948356628
-0.092162035405636,0.84041674971984,-1.4200713878306,1.2416964559189,1.1770312786102,0.77274686098099
-0.076980471611023,0.51095829103047,-1.0224808110249,1.2224296776149,1.2154747247696,0.77379125356674
-0.10081308335066,0.12396646999493,-0.53084718991266,0.88339788246258,1.5417897701263,0.60692363977432
-0.62125098705292,-0.012313053309215,-0.34689142850733,0.20091837569187,1.4834896326065,-1.4320558309555
-1.2311701774597,-0.26175411637586,-0.27754599134359,-0.26748027855793,0.2827864587307,-2.4201722145081
-0.45078492164612,-0.24833985518688,-0.30507231722245,-0.38316186126377,-0.21917659044266,-0.90769863128662
