ax,roll,yaw,pitch,ay,az
0.25984573364258,-0.1688361096127,0.093848216974788,1.022474679337,0.4495462179184,0.36894646286964
0.7702751159668,-0.18332353691861,0.12759686105527,1.0158650591739,0.79588997364044,0.46489441394806
0.72361570596695,-0.25391621083603,0.34207360960122,0.85781919747994,0.71972054243088,0.18154735863209
0.1987574249506,-0.27412257522324,0.63513967664149,0.56624829745604,0.39366269111633,0.13238705694675
-0.87951022386551,-0.17620744597005,0.85478615627423,0.2481304481748,-0.22938349843025,-0.68455290794373
-0.99103540182114,-0.11468190320822,0.95199195120433,0.068964927717748,-0.15450891852379,-0.6792488694191
-1.0881376266479,-0.059502990054506,0.9842585027109,0.027541020183678,-0.13280181586742,0.10011606663465
-0.83446449041367,-0.077516991334676,0.86559472523688,-0.014478585744692,0.11012519150972,0.56978380680084
-0.28313142061234,-0.15393284825792,0.53564203858138,-0.16510795851301,0.354562073946,0.018865551799536
0.62333691120148,-0.32426341590096,0.16796288594309,-0.29965421255191,0.20758727192879,-0.83985209465027
0.61146259307861,-0.41839005713308,0.033079032527434,-0.36010146594863,-0.20519815385342,-1.3397780656815
-0.70493346452713,-0.35083131364017,0.14562078787877,-0.27459623011089,-0.56113636493683,-1.5014913082123
-0.37895640730858,-0.32479061054923,0.21298256191459,0.1540010967588,0.31580764055252,-0.5155400633812
0.46240335702896,-0.37723741316515,0.22136004035159,0.68413089398982,0.92574661970139,0.56535649299622
0.48866605758667,-0.41476336537416,0.22534964660019,0.98583993491484,1.0269887447357,0.76868224143982
0.44907164573669,-0.43505070230755,0.25856444966314,1.0630504905081,1.0721001625061,0.89164710044861
0.3482109606266,-0.43271912319644,0.32460112724865,0.91246615892213,1.0922539234161,1.0964225530624
0.28451803326607,-0.33094755468026,0.27597543448381,0.48652641088186,1.2767471075058,0.65737456083298
-0.59626221656799,-0.31068008195862,0.23344405218607,-0.086209040453968,0.47763365507126,-1.2543519735336
-1.2757569551468,-0.43086115163686,0.23824708396076,-0.42281076505022,-0.23144653439522,-1.5600169897079
-0.19488999247551,-0.404073878925,0.11349659855805,-0.54342947179056,-0.3761442899704,-0.93595254421234
-0.3160717189312,-0.31215686609881,0.17249447338768,-0.49803615416067,-0.29689979553223,0.014975669793785
