ax,roll,yaw,pitch,ay,az
0.11500233411789,-0.050604413462274,0.033753465812009,1.0860302049993,0.74745488166809,0.29948082566261
0.28295746445656,-0.15259232400389,0.18870756071903,0.94090572722491,0.70526295900345,0.3822605907917
-0.49344089627266,-0.19292774353965,0.30191982188333,0.64117378207569,-0.098549276590347,-0.32509198784828
-0.78590655326843,-0.096737477552665,0.24947237167767,0.33365182425766,-0.035999212414026,-0.45484381914139
-0.4986757338047,-0.065780174119804,0.05960077891114,0.14316839539128,0.21828711032867,-0.3123442530632
-0.45076531171799,-0.08665173454462,-0.17862908989205,-0.0045682577819576,0.061136104166508,-0.61510568857193
0.38301002979279,-0.099340449539769,-0.45095552447048,-0.069579340527578,0.45034372806549,-1.0931380987167
0.3500152528286,-0.12199767485947,-0.55326324937519,0.034776646594348,0.37455233931541,-1.043234705925
0.041426684707403,-0.13558233981175,-0.51042661711271,0.32804761017974,0.33879691362381,-0.74893480539322
0.079080194234848,-0.21084270348777,-0.44615098600754,0.80559279214541,0.64110225439072,0.087729379534721
0.16699233651161,-0.17483637721851,-0.47586417662068,1.1936667499571,1.0185316801071,0.60926711559296
0.17923083901405,-0.040504874936138,-0.5607537077998,1.3330236570283,1.1591513156891,0.58043831586838
0.15761233866215,-0.20874295598336,-0.32527743104261,1.3043249050848,1.1047359704971,0.70448160171509
0.12771271169186,-0.29496024947262,-0.13696916829176,1.0456777602142,1.1061397790909,0.69124394655228
-0.16907224059105,-0.33015498779641,-0.14500651579677,0.56054728413839,0.70979619026184,-0.27893289923668
-0.47917255759239,-0.41439961251439,-0.15818792394397,0.090713911754219,0.47454646229744,-1.5255545377731
-0.27927044034004,-0.49629266053785,-0.27479396929091,-0.12854384060776,0.13156023621559,-1.4933643341064
-0.26709827780724,-0.42602677450382,-0.29385780540285,-0.16896834355168,-0.1299727410078,-0.45705917477608
