ax,roll,yaw,pitch,ay,az
0.546541929245,0.4085779410031,-0.31556804624422,1.3303383591184,0.78551429510117,-0.073630571365356
0.59701663255692,0.042410184817697,0.20591175133558,1.2799008727466,0.69588720798492,-0.060447808355093
-0.31116878986359,-0.42779757323393,0.91352084908148,1.062216013421,0.060799341648817,-0.27351224422455
-0.64434099197388,-0.39521735763965,1.0698775685285,0.83530175485414,-0.19529911875725,-0.77330023050308
-0.67696928977966,-0.297321838924,1.0925984940801,0.7517478432975,-0.052053470164537,-0.42707335948944
-0.60906559228897,-0.26436880506406,1.0950114190343,0.73415020988253,0.23619489371777,0.13164667785168
-0.57921034097672,-0.19382433020266,0.9680640362146,0.68746157259542,0.32615143060684,0.29215511679649
-0.54064226150513,-0.11223114561231,0.70657967456289,0.56870422197186,0.28843387961388,0.0084105180576444
0.052545469254255,-0.14003366061329,0.39589703460172,0.44138355049317,0.34023097157478,-0.48965305089951
0.45873692631721,-0.21260985709992,0.17702665645228,0.34333255113629,0.30386638641357,-0.4006550014019
0.32803544402122,-0.25829297184124,0.081381599827182,0.28039669343887,-0.084698066115379,-0.64055716991425
-0.34701818227768,-0.26211251421483,0.090742966468021,0.29970148063294,-0.46828427910805,-0.95199447870255
-0.53148001432419,-0.27194936524353,0.10100418052971,0.51607870654811,-0.15638318657875,-0.71803551912308
0.097486093640327,-0.25550288579724,0.040255709286972,0.84907396945375,0.53475701808929,-0.013586226850748
0.0275819003582,-0.22679660348043,0.0024811845562901,1.092806316771,0.55267035961151,0.17979846894741
0.12456180900335,-0.13868968837367,-0.07658443654615,1.2408622930718,0.67399954795837,0.33538082242012
0.15059706568718,-0.11902199523845,-0.077975441172327,1.2878564194908,0.76684892177582,0.47622522711754
0.15663014352322,-0.20602028614323,0.057847682558186,1.2211238537664,0.80296456813812,0.45140364766121
0.093576967716217,-0.27521263541327,0.20792877571567,1.0246213648449,0.68653357028961,0.2431156784296
-0.11309322714806,-0.28461844323987,0.2998289245147,0.7225805864261,0.33290767669678,-0.050202164798975
-0.058747220784426,-0.31013555977838,0.29830982123882,0.42226896038099,0.32689964771271,-0.65103965997696
-0.44353613257408,-0.35622834380564,0.34225868662136,0.16588224095366,0.088706500828266,-0.49883356690407
-0.12108040601015,-0.37565649939668,0.29484238982708,-0.072516318576563,0.26272177696228,-0.5988045334816
-0.38014903664589,-0.43490077829524,0.305298834345,-0.23409276827647,0.01622361317277,-0.38204520940781
-0.14792303740978,-0.41828268651599,0.24520875660518,-0.33197733702924,0.033324621617794,-0.44390550255775
-0.21253681182861,-0.41008358106066,0.23666487585143,-0.3388936756553,0.011199284344912,-0.32339763641357
