ax,roll,yaw,pitch,ay,az
0.80072104930878,-0.41787588891625,0.23055739544325,0.99371948452219,0.74176281690598,0.37498930096626
0.54579848051071,-0.43937355129635,0.37026441460426,0.85576504408402,0.43527901172638,0.22155624628067
0.084395907819271,-0.4390622949552,0.56978331935731,0.60075312093326,0.089693240821362,0.066110692918301
-0.98417717218399,-0.35304370739798,0.73676507092846,0.30773009423566,-0.4355376958847,-0.24344976246357
-1.107928276062,-0.28378370478324,0.74098827552288,0.13885647390607,-0.32446467876434,-0.44497388601303
-0.70315271615982,-0.25760816898404,0.61363659209974,0.10289887072393,-0.0078325401991606,0.45894229412079
-0.2371139228344,-0.29896803583605,0.32467980046754,0.01062060346798,0.01948575861752,0.18163076043129
0.70715856552124,-0.47046097372901,0.017097907417844,-0.055623474329604,0.034905083477497,-0.3809694647789
0.60118162631989,-0.58790277544896,-0.12625594520626,-0.13119267916227,-0.15257570147514,-0.72292703390121
0.23040634393692,-0.60235090200819,-0.14957919503636,-0.17934438656014,-0.37349864840508,-0.97520595788956
-0.32939159870148,-0.56380863147886,-0.049574066984272,-0.10826281213143,-0.44829192757607,-1.0228360891342
-0.07740430533886,-0.54984318838572,0.084137564359814,0.17361642021184,-0.031630698591471,-0.1980072259903
0.3514412343502,-0.57785878294961,0.16973103895581,0.51729479468041,0.31635376811028,0.27328059077263
0.403111577034,-0.65037216322706,0.25867431259382,0.78886062689272,0.52202039957047,0.50652951002121
0.43846535682678,-0.63430616790953,0.27407181755918,0.93734605289921,0.75777214765549,0.69617986679077
0.59512770175934,-0.55296639177097,0.25023889707016,0.9106289471884,0.93036198616028,1.0365815162659
0.48166635632515,-0.46298842807231,0.20069526702078,0.64004639469472,0.93835812807083,0.81114888191223
0.03366281837225,-0.41560230578048,0.11699094987548,0.18743877441714,0.29094213247299,-0.40139815211296
-0.078604526817799,-0.4496725152084,0.008637504295899,-0.19771945341062,-0.11998719722033,-1.3428171873093
-0.11609632521868,-0.53097584516993,-0.044978584908301,-0.41074584809763,-0.16909916698933,-1.1764063835144
-0.077506721019745,-0.54125195141187,-0.098096597698932,-0.52729628561581,-0.34733018279076,-0.77146553993225
0.0057497965171933,-0.50492315762153,-0.092754901716716,-0.55278495715237,-0.29394981265068,-0.39460283517838
0.11894229054451,-0.45159879251352,-0.071079854853354,-0.52551926086319,-0.24592496454716,-0.19999112188816
