ax,roll,yaw,pitch,ay,az
0.019551469013095,-0.048017646335377,0.031468507729297,1.0822769826157,0.72305554151535,0.3062871992588
-0.043801676481962,-0.094463456866979,0.1304932354592,0.89754055662585,0.503826379776,0.29072234034538
-0.43099096417427,-0.12897580972754,0.19237322075844,0.62503004135482,-0.15128275752068,-0.74600672721863
-0.82611739635468,-0.032380961463947,0.15376434959826,0.45210885675635,-0.38537162542343,-1.1111212968826
-0.8018012046814,0.064985099122118,-0.027876442375664,0.40662576183031,0.30609598755836,0.29519930481911
-0.35099458694458,0.040751292438443,-0.27292135893569,0.27059884117509,-0.17940774559975,-1.3563570976257
0.30001783370972,0.027656610101769,-0.51116338193293,0.42502500988629,0.32225567102432,-1.3142039775848
0.12375254184008,0.052885099497641,-0.6794424906873,0.82301159057855,0.71001899242401,0.034900449216366
0.13008467853069,0.24795341579835,-0.94825105927715,1.0977533197618,0.91058701276779,0.72860515117645
0.18542943894863,0.32726942846587,-1.0398197147885,1.1828368391249,1.0763176679611,0.78136307001114
0.30763146281242,0.092931622094054,-0.75232153101849,1.1087494839844,1.2642214298248,0.84647613763809
0.00025154356262647,-0.13883835474411,-0.42419148385939,0.73659378008054,1.4712529182434,0.35121724009514
-0.52161002159119,-0.2406555258773,-0.31180850278642,0.14101404645024,1.286573767662,-1.2712613344193
-1.0166254043579,-0.29330945716811,-0.26926932179941,-0.28670934810591,-0.0063692233525217,-2.0544562339783
-0.41271021962166,-0.21078141153739,-0.31507359642225,-0.36781125941487,-0.084183320403099,-0.86036252975464
