ax,roll,yaw,pitch,ay,az
-0.052949324250221,0.5923439427818,-0.34110716795983,1.0298001908805,0.028811691328883,-0.02040883898735
0.18712028861046,0.66092787777315,-0.40408298171092,1.1449631936875,0.59117585420609,-0.0056314528919756
-0.21809720993042,-0.45437608651911,0.78064088126674,1.3845313414634,0.85753488540649,0.042940929532051
-0.078052505850792,-1.4331493672076,1.8532212622842,1.0765570639188,1.1012313365936,0.14428162574768
-0.8676672577858,-1.4440389805693,2.0234330040321,0.67190134445125,0.591392993927,0.62339979410172
-0.89409184455872,-1.3136902384547,1.9210870222716,0.53640937943642,0.4982203245163,0.60366994142532
-1.1044373512268,-1.3281846690817,1.6864315766366,0.46297636559321,0.24505975842476,0.15093746781349
-0.70091563463211,-1.3893317144327,1.4475570495045,0.62494245619277,0.18015865981579,-0.12832787632942
0.011979984119534,-1.4949906795551,1.2938660182755,0.98346144837458,0.37671673297882,-0.13369210064411
0.26558154821396,-1.587938336707,1.2358501696142,1.3145276213359,0.59226620197296,0.0397531054914
0.20578087866306,-1.2482924750196,0.84061177881664,1.498900223324,0.56202226877213,0.23692460358143
0.025428976863623,0.91427673396181,-1.3991477820368,1.4752886772759,0.68613171577454,0.33292481303215
0.32868710160255,0.68861044007615,-1.3149946711993,1.4020771196657,0.68550765514374,0.33209428191185
-0.18646886944771,-0.70502809884588,0.053132295384933,1.1114090316626,0.45560473203659,-0.13870491087437
-1.6883542537689,-0.99127244163313,0.57996828601432,0.31236340313822,0.56098592281342,-0.30222305655479
-1.5866092443466,-0.72616924606449,1.0774531526596,-0.3586957236325,0.778264939785,-0.78700178861618
-1.1488604545593,-0.2990554903313,1.6217514782449,-0.28053242819157,0.22073705494404,0.028671026229858
-0.72541344165802,-0.12391176561718,1.7149746026514,-0.0795421052691,0.45601841807365,0.044081054627895
-0.39743405580521,0.0045114207390125,1.6474054118407,0.12805798032375,0.56354504823685,0.11326164007187
-0.35059848427773,0.1182430396029,1.5905118344962,0.29780818035187,0.44865325093269,0.1764490455389
