ax,roll,yaw,pitch,ay,az
0.4350962638855,-0.26484384534845,0.1396336262634,0.99640777486123,-0.01043561194092,-0.20059786736965
0.54757046699524,-0.34720677111598,0.25936415347577,1.1516075877086,0.44262477755547,0.089320160448551
0.46100831031799,-1.1372810996666,1.1230535501245,1.0814472597414,0.65824329853058,0.1492336243391
0.29753601551056,-1.5036057596151,1.6098576033245,0.73660861299885,0.81647872924805,0.34374031424522
-0.071586288511753,-1.5252570981292,1.8431742663324,0.32678102985836,0.67913514375687,0.63330912590027
-0.52510499954224,-1.3815959737366,1.948568478125,0.024797133245702,0.40396028757095,0.94402766227722
-0.88099628686905,-1.277498541402,1.8535215392708,-0.1580853905399,0.31744101643562,0.73174893856049
-1.16565990448,-1.4182408198801,1.5756274018003,-0.25073872869234,-0.035763088613749,-0.023060375824571
-0.42906656861305,-1.5424641561714,1.3105542267077,-0.057695803246667,-0.16980066895485,-0.11083315312862
0.33056282997131,-1.7558743043065,1.1941246086727,0.38103702646779,0.17972938716412,-0.26449862122536
0.77820193767548,-2.0035032313455,1.2587045355989,0.77191601064383,0.39823880791664,-0.30132073163986
1.1020721197128,-1.9962330149657,1.2364444198866,0.9481165379762,0.5317856669426,-0.2015797495842
0.70229643583298,-1.7811678924196,1.0676955479619,0.78972673247674,0.56118935346603,0.071638599038124
0.60072648525238,-1.48801958239,0.80653634662103,0.50802470970646,0.67289954423904,-0.2349803596735
-0.28216683864594,-1.380744599027,0.66772552445013,0.0097753153997582,0.50174903869629,-0.67465525865555
-1.2290278673172,-1.2315976870471,0.73584422379823,-0.50653591541664,0.18734954297543,-0.79648232460022
-1.3621495962143,-0.89991778949547,1.0923416161665,-0.83387572456574,-0.067750975489616,-0.41158923506737
-0.94704568386078,-0.54624355627444,1.4855751611952,-0.75984734433238,-0.029371684417129,0.17769193649292
-0.45178684592247,-0.37900128134192,1.6028344518704,-0.5831322809029,0.056124467402697,0.44008550047874
-0.26185846328735,-0.28635153118224,1.6153794229147,-0.46915277638511,0.039751585572958,0.39474040269852
