ax,roll,yaw,pitch,ay,az
-0.23887801170349,-0.27253823589628,-0.0029459965234554,0.029894650239184,0.041395325213671,-0.12156806886196
-0.23841890692711,-0.32282776936859,-0.16411556761809,0.020304655571375,0.12664176523685,-0.62688082456589
-0.030242981389165,-0.39687265084436,-0.38848072252277,0.12977775039199,0.49467864632607,-1.1475389003754
0.47504013776779,-0.39108037396378,-0.59424425596635,0.42508574215221,0.80596882104874,-0.82278794050217
0.74155253171921,-0.2857432129351,-0.76774522339424,0.76691117071167,1.0588283538818,-0.62652188539505
0.73871636390686,-0.14684118333594,-0.82610722441687,1.087195935206,1.2078516483307,-0.23118104040623
0.58160394430161,-0.56508023199846,-0.2272400089014,1.3492611807185,1.2634183168411,0.16646586358547
0.44435259699821,-1.4328286012707,0.8974537589296,1.2112105774911,1.2715986967087,0.25612822175026
-0.086024105548859,-1.2335145020954,1.0309386100471,0.86274334467087,0.82101565599442,0.26647228002548
-0.6093225479126,-0.84439481410304,0.95362861508809,0.52914386887312,0.45099198818207,0.128647595644
-1.051922917366,-0.60956606561868,0.76744364801373,0.24865379155216,0.22705641388893,-0.58685046434402
-0.38174486160278,-0.43213900267394,0.40938222850009,0.082092280788983,0.23174986243248,-1.3237153291702
