ax,roll,yaw,pitch,ay,az
-0.22261242568493,0.78562118416815,-0.29998262981211,0.71409167872192,0.30715298652649,0.17989362776279
-0.55525159835815,0.67367232599972,-0.1025683272669,0.84542131373323,0.57489562034607,0.41069537401199
-0.6904062628746,0.47172143281366,0.27211694174938,0.89051798685812,0.76813560724258,0.34298270940781
-1.1045862436295,0.3207058644284,0.67230848352313,0.76974953385381,0.75444233417511,0.016738209873438
-1.5964025259018,0.3565524021282,0.83101612433587,0.50975253462444,0.53150981664658,-0.93911302089691
-1.0475316047668,0.52091477275823,0.7198906084729,0.19616341928792,0.38776358962059,-1.0899747610092
-0.90507197380066,0.55870117895295,0.50025259569153,-0.092300188743807,0.12882386147976,-1.4787241220474
-0.12276690453291,0.43074575155452,0.13899323699306,-0.21081134388741,0.27425187826157,-1.2808036804199
0.13623906672001,0.33314413003681,-0.19653834364038,-0.073509944871881,0.14768661558628,-0.49446874856949
0.31800979375839,0.31967495385122,-0.46828646884879,0.14302906448509,0.23934365808964,0.079032748937607
0.29117026925087,0.38874162922259,-0.6139718312356,0.34047151451325,0.35097566246986,0.38694602251053
-0.034384813159704,0.47334718863393,-0.61666143258304,0.52698477210358,0.31184366345406,0.67743450403214
-0.57450503110886,0.52770571314223,-0.46879680772679,0.6553215566791,0.29857742786407,0.25286719202995
