ax,roll,yaw,pitch,ay,az
-0.21279041469097,-0.29308882182796,0.088040257869596,0.58576282321274,-0.089544557034969,-0.35304680466652
-0.47404664754868,-0.29772188341636,0.023156032426184,0.55559781589366,-0.28930589556694,-0.95576518774033
-0.28330388665199,-0.37055240821152,-0.083531267112668,0.72996929231108,0.15341898798943,-1.1332031488419
-0.015117826871574,-0.32481234526635,-0.24031347922554,1.0262576134114,0.72513258457184,-0.62097150087357
0.13722944259644,-0.20559450546341,-0.4492787190706,1.330548853482,0.86069864034653,-0.057702101767063
0.24479518830776,1.3104614925593,-2.0402004727409,1.5142651190513,0.79498761892319,0.19534516334534
0.23788979649544,2.3133492630101,-3.0785972177262,1.4422273469269,0.72929519414902,0.31026196479797
0.014112918637693,2.7065254020361,2.8033681949608,1.4877182339531,0.76737928390503,0.3379715681076
0.095821142196655,-0.35993979437035,-0.36032349827968,1.4457143203345,1.0144195556641,0.17747603356838
0.18931657075882,-0.31763325666015,-0.4046873778867,1.0834958578436,0.91317164897919,-0.25352945923805
-0.34777411818504,-0.37423191026349,-0.31944290525858,0.63196651936917,0.45488360524178,-0.83999562263489
-0.65811049938202,-0.46989586733226,-0.30299584378678,0.26440082166228,-0.026098845526576,-1.2508496046066
-0.52237939834595,-0.4883315278654,-0.29162494596789,0.11724115081366,-0.073044955730438,-0.69113713502884
