ax,roll,yaw,pitch,ay,az
-0.036119252443314,-0.20938249558239,0.045078013044771,0.40110056555149,-0.23635347187519,0.28529036045074
-0.24109049141407,-0.21384693887731,0.063860311379876,0.35747145133592,-0.39392879605293,-0.017445592209697
-0.40431201457977,-0.23001163652628,0.037330718709771,0.3514821133571,-0.56112104654312,-0.50657802820206
-0.3554425239563,-0.2790136351943,-0.038268070371085,0.5032107996918,-0.40751445293427,-0.66804796457291
0.19479775428772,-0.28367955290023,-0.18215959787192,0.82584711970202,0.27856409549713,0.32607078552246
0.45870953798294,-0.27774668607965,-0.32468993901783,1.0278521821618,0.63707506656647,0.68650984764099
0.40117514133453,-0.37386122510994,-0.3322928787703,1.1001977678487,0.74194401502609,0.85270249843597
0.35540327429771,-0.35035772634959,-0.34259775914957,1.0330419836287,1.0175982713699,0.82262939214706
0.28840330243111,-0.36112554241136,-0.30326124401632,0.824567049353,0.7553568482399,0.7049725651741
0.12082429230213,-0.39088119215829,-0.32213695059372,0.46623767687596,0.070668235421181,-0.32244056463242
-0.5321256518364,-0.40058530657317,-0.34385461723144,0.075411743746828,-0.72907257080078,-1.3514375686646
-0.2923980653286,-0.39296588311088,-0.40502436414691,-0.090762444058489,-0.79682987928391,-1.1225969791412
-0.043550290167332,-0.34583574139673,-0.40737436671174,-0.073943250998464,-0.50249528884888,-0.29647371172905
