ax,roll,yaw,pitch,ay,az
-0.85948401689529,-0.8725102058559,0.077487186353391,0.17041468713329,-0.34640017151833,-0.83059453964233
-1.0443439483643,-1.0421901677557,0.10204954503018,0.28040008040452,-0.2984704375267,-1.0488290786743
0.14591321349144,-1.1716399183433,0.092156856517977,0.6335191565266,0.67285627126694,-0.60411804914474
0.70691657066345,-1.4778457647849,0.2619947141863,1.0417397269193,0.95688104629517,-0.1921978443861
0.6342157125473,-2.1929383859947,0.74060324050501,1.1139629512038,0.78290605545044,-0.15422368049622
0.67955875396729,-2.3911208656223,0.85479196227652,1.1109081335486,0.89015120267868,-0.21038849651814
0.78486520051956,-2.1361718596033,0.63656841475425,1.0868788867897,0.99516445398331,-0.19881966710091
0.5465230345726,-1.6299115824967,0.19913949325484,0.91622398617623,0.73964321613312,-0.10866243392229
-0.86582934856415,-1.2371637955765,-0.17888288323945,0.55551368441922,0.053106140345335,-0.99375349283218
-0.8575399518013,-1.0774745796071,-0.33857103464579,0.30381470916088,-0.42950585484505,-0.9577556848526
-0.33675146102905,-0.99231786934943,-0.41995753056745,0.23422567439563,-0.21039974689484,-0.45752814412117
0.11376108974218,-0.91247071747065,-0.46390262912704,0.21182528828745,0.0029388365801424,-0.13122066855431
0.12035709619522,-0.86133972799338,-0.48199510234385,0.20074099476399,0.027764644473791,-0.16050294041634
