ax,roll,yaw,pitch,ay,az
-0.19942013919353,0.28329939483286,-0.04758542350591,0.39174337565178,0.15896093845367,0.52131408452988
-0.46454870700836,0.30117712049129,0.14370623808682,0.50024978173966,0.47554010152817,0.5556635260582
-1.025249838829,0.2946343808558,0.41660715149305,0.54420420395349,0.61786556243896,0.2785881459713
-1.406734585762,0.36004301668923,0.64418639181825,0.49582824571489,0.54695785045624,0.098828107118607
-1.2510339021683,0.47645544873751,0.72838751518711,0.31243992351754,0.46752232313156,-0.52899867296219
-1.2520209550858,0.60847580703755,0.69677455844821,-0.002071394957591,0.13409803807735,-1.262336730957
-1.0366069078445,0.52035837413834,0.48312642561491,-0.29407943344796,-0.23619377613068,-1.6009427309036
0.084143199026585,0.24990947821821,0.084337981387951,-0.34943679492335,-0.18353995680809,-1.0350872278214
0.3378849029541,0.058083630118607,-0.16104878663159,-0.17939544321291,-0.30480805039406,-0.45389530062675
0.30807328224182,0.0392423487669,-0.25446001151898,0.03960648938728,-0.13072246313095,0.1269865334034
0.12360613793135,0.022064242883849,-0.25116880630923,0.24027574574174,0.18401537835598,0.62643146514893
-0.24536949396133,0.066878584407442,-0.20031998805413,0.38289893562265,0.15553243458271,0.7579397559166
-0.87631511688232,0.13626450351423,-0.096357476666846,0.46026002441621,0.026609076187015,0.53901445865631
