ax,roll,yaw,pitch,ay,az
0.12592567503452,0.10034785489388,-0.050323120797019,0.99073126528786,0.2784588932991,0.25137582421303
0.041958298534155,0.0024413742153185,0.1518990629941,1.0164472099996,0.64824742078781,0.27194809913635
0.096006587147713,-0.20578302727642,0.50192325668297,0.98639932575831,0.97700446844101,0.42833164334297
-0.42725545167923,-0.28761035053455,0.83124330301438,0.78118687860362,0.78189671039581,0.27344080805779
-0.85106390714645,-0.11492259814716,0.94121465325989,0.45280099071726,0.85550051927567,-0.30313274264336
-1.3500874042511,0.06126988063214,0.89697221397032,0.047584392588258,0.76175403594971,-0.86637902259827
-1.1720763444901,0.087941599592415,0.71793618820659,-0.27972385564563,0.27830734848976,-1.369349360466
-0.49235016107559,0.042945698352118,0.39609947830034,-0.35451273474036,0.11345310509205,-1.0920711755753
0.11526375263929,-0.078784531976501,0.071371496120322,-0.19420195149751,0.32143601775169,-1.2066255807877
0.35308644175529,-0.099240079321327,-0.11826364481274,0.16599867255146,0.38259881734848,-0.40966629981995
0.48496815562248,-0.042033666247898,-0.20962732324683,0.52799824710705,0.67168241739273,0.27890208363533
0.18740382790565,-0.043867269834296,-0.16383724547948,0.83745850217014,0.68966066837311,0.79694414138794
-0.26929286122322,-0.11262859891296,0.004415653714153,0.97462826202386,0.49947503209114,0.67127579450607
-0.61999827623367,-0.18205715368128,0.17247208591701,0.98754690020583,0.27838778495789,0.31356406211853
-0.60551816225052,-0.19815985125434,0.25799754094884,0.98575861848774,0.085934303700924,0.18870177865028
