ax,roll,yaw,pitch,ay,az
-0.21416008472443,-0.29551960417523,0.16388753884266,1.016825604158,-0.029715137556195,-0.069337598979473
-0.38959193229675,-0.2642165577574,0.09407381446751,1.0280486444136,-0.0050353887490928,0.018861416727304
-0.34209451079369,-0.14595272088555,-0.10133469313131,1.046121727194,0.18131344020367,0.23843371868134
-0.13688276708126,0.006515899435632,-0.3704010185117,1.0027017272112,0.3799455165863,0.37138947844505
0.16467140614986,0.048590300262057,-0.56447418348382,0.88043206400732,0.6268185377121,0.35997396707535
0.40638118982315,-0.071739638647121,-0.61479955173653,0.71482156064666,0.76101249456406,0.17462386190891
0.35922998189926,-0.21456035823346,-0.57097938240739,0.47366701556448,0.6918551325798,-0.10955348610878
0.42736583948135,-0.27248884486185,-0.52217080617678,0.17963499609074,0.4900718331337,-0.47297129034996
0.39938262104988,-0.32968204339752,-0.42777403414578,-0.11025645410304,0.32653602957726,-1.1477040052414
-0.066479556262493,-0.28883295149259,-0.21235037444768,-0.30323512523611,0.22379061579704,-1.5452712774277
-0.66025567054749,-0.17547728244087,0.10800625320474,-0.25489541184808,0.25453916192055,-1.2264921665192
-0.95157331228256,-0.085276657676483,0.3274799336811,0.0090832129255445,0.4662669301033,-0.74697631597519
-0.57985597848892,-0.094117730071866,0.4011836923724,0.37563557554505,0.66235029697418,-0.082112833857536
-0.22609934210777,-0.1520474807919,0.38871002628524,0.68176293230385,0.64690172672272,0.33958747982979
0.11425534635782,-0.17105062465558,0.2810314443811,0.92307476225693,0.64168363809586,0.43135768175125
0.29039052128792,-0.11996182990627,0.10200368485583,1.0644054233188,0.51392030715942,0.42616429924965
0.38563141226768,-0.053270352522925,-0.035511867352931,1.105161090003,0.24606031179428,0.22908483445644
