ax,roll,yaw,pitch,ay,az
-0.37148550152779,-0.11015410094174,0.011637053143692,0.260539013841,-0.1199925839901,-0.21231925487518
-0.25341349840164,-0.15290834536786,-0.049114790799206,0.4883266842409,0.044328857213259,0.63842487335205
0.12836068868637,-0.15268427175362,-0.21080060399725,0.63589464252763,0.28716534376144,0.73930329084396
0.44393613934517,-0.14834458635242,-0.3926878015851,0.65785815665725,0.40648263692856,0.64497852325439
0.69399446249008,-0.25225997213627,-0.471467247116,0.59779475589169,0.37936460971832,0.74862992763519
0.77380931377411,-0.37158595482083,-0.50022352910193,0.38905848516836,0.47083964943886,0.28991502523422
0.49561107158661,-0.45251503361509,-0.49192524641126,0.057804919919196,0.33160695433617,-0.29609102010727
0.45630145072937,-0.48110430268962,-0.48156535777458,-0.32288155329848,0.22643116116524,-0.89769738912582
-0.1066320836544,-0.47705038405614,-0.35310114679727,-0.64175411269842,-0.012816596776247,-2.0081446170807
-0.79029440879822,-0.23471085890048,0.032121200313772,-0.68269298471197,-0.17069490253925,-1.5140429735184
-0.94514465332031,-0.043990221919648,0.29799479255263,-0.44203642805769,0.1387777775526,-0.78644514083862
-0.87342613935471,-0.015030951024819,0.35597805955239,-0.10939042144344,0.21625180542469,-0.34376645088196
-0.5484499335289,-0.047137365967284,0.28562136322771,0.23134226353535,0.47371476888657,0.16188405454159
-0.18285582959652,-0.0086896783576574,0.13174181355167,0.50512372446108,0.53874057531357,0.95052099227905
0.32106944918633,0.014968796319864,-0.0650787828186,0.60937362123298,0.38596785068512,1.0000143051147
0.68529748916626,0.0040934975793281,-0.19409671094664,0.59382316433751,0.065484680235386,0.20879024267197
