ax,roll,yaw,pitch,ay,az
-0.66976433992386,-0.7518906218963,0.28313549626279,0.70221265737605,-0.13001623749733,0.18198700249195
0.013892791233957,-0.78085141120399,0.16056751165839,0.86756463836431,0.53648370504379,0.72117608785629
0.82531535625458,-0.69914382252399,-0.17345252900764,0.91107443281849,1.0677506923676,0.4258029460907
1.0203053951263,-0.7633342441518,-0.40842500936431,0.74135009729169,1.2758091688156,0.26658415794373
0.93869119882584,-0.79894174568961,-0.63771848164395,0.36376943927084,1.1001995801926,-0.62324523925781
0.87221831083298,-0.861994195818,-0.81428079109729,-0.077006071208001,0.4943590760231,-2.2952637672424
0.36205527186394,-0.8382113042746,-0.66713414377653,-0.42263101214591,0.22434481978416,-2.2730319499969
-0.6541708111763,-0.56515301175683,-0.14123452790745,-0.55845651649966,0.28549081087112,-1.1956763267517
-1.2015337944031,-0.34143732548585,0.31433559862549,-0.4046157178305,0.078914433717728,-0.82028841972351
-0.87121766805649,-0.33855362949256,0.47483301532333,-0.060746405356941,0.31616777181625,-0.29127660393715
0.048089921474457,-0.36311747825058,0.40296560998079,0.32142224566158,0.76501297950745,0.70402866601944
0.63965898752213,-0.39959778410179,0.23722519357967,0.60832608139727,0.53406488895416,0.77091002464294
1.2273876667023,-0.41927636841123,0.065562883514191,0.73280212032751,0.30777958035469,0.28689190745354
