ax,roll,yaw,pitch,ay,az
0.35028028488159,-0.092752333377474,0.055053694357985,1.0087107388576,0.21092207729816,0.046515051275492
0.32782453298569,-0.16063939787841,0.24176429772566,1.0124642588076,0.65738981962204,0.15417717397213
-0.088740609586239,-0.36799233841102,0.60999954172831,0.94396566702521,0.88987725973129,0.20139338076115
-0.23550060391426,-0.4875469265205,0.89693423822611,0.77514920774153,0.83106356859207,0.21186777949333
-0.8031592965126,-0.3025714323909,0.92476201123047,0.50270685918074,0.8433410525322,-0.130779504776
-1.2300087213516,-0.113459286774,0.74951147289125,0.14842549271094,0.72576200962067,-0.90483546257019
-0.92522531747818,-0.072833125797029,0.46326865349427,-0.13677712522877,0.45102077722549,-0.99621874094009
-0.21592280268669,-0.12195935196416,0.082505034613721,-0.28322412749165,0.14123202860355,-1.2215940952301
0.36355802416801,-0.27627959413201,-0.22585336110589,-0.15330222109315,0.046470515429974,-1.5799525976181
0.65402090549469,-0.32192843908476,-0.36109604516989,0.20648026139927,0.55796724557877,-0.7895559668541
0.57372182607651,-0.30431569098294,-0.35233132198275,0.5639481400902,0.80639296770096,0.041685305535793
0.09235056489706,-0.33158945203083,-0.17573794232333,0.85625024407252,0.79234749078751,0.72863382101059
-0.29575821757317,-0.41052883781163,0.047204132706103,0.98302429356234,0.54139143228531,0.6433829665184
-0.43214175105095,-0.4667058439067,0.19723446601965,1.0070819603304,0.29618868231773,0.28616112470627
