ax,roll,yaw,pitch,ay,az
-0.37671154737473,-0.45176385172987,0.17783628673191,0.758308309508,-0.13783673942089,-0.0079963728785515
-0.099983610212803,-0.44060843694911,0.065371123277003,0.87414526293128,0.21967782080173,0.58769416809082
0.26505964994431,-0.36797581306573,-0.15763048789095,0.91595904110035,0.54581731557846,0.84799957275391
0.48614892363548,-0.36018902939589,-0.36043332264494,0.78507137346043,0.64144593477249,0.61626332998276
0.75590413808823,-0.39758573227776,-0.53254270047278,0.52230151221705,0.7293906211853,-0.11898882687092
0.83173251152039,-0.46511504346305,-0.63303060091339,0.18731088858235,0.67500227689743,-0.7522497177124
0.60376435518265,-0.53373651308681,-0.64338220453788,-0.15199177516303,0.32845115661621,-0.9278062582016
0.18877895176411,-0.5704519539288,-0.53322911287676,-0.43890933188862,0.089528158307076,-1.4609124660492
-0.26418834924698,-0.45416726743853,-0.24970565862778,-0.55742555601768,0.013126275502145,-1.3589743375778
-0.67036026716232,-0.26254839810563,0.054572203555288,-0.46382868538189,0.18951104581356,-1.2480874061584
-0.73674744367599,-0.15107298039352,0.26067224277759,-0.15390507493197,0.33490672707558,-0.42735683917999
-0.43151205778122,-0.16097559271907,0.31736557670313,0.19825924718321,0.4289576113224,0.17632322013378
-0.47292536497116,-0.19603179552197,0.27738820541397,0.51483083310733,0.42849907279015,0.4408030807972
0.52750676870346,-0.17004861501011,0.1108757033948,0.74897263179203,0.39272448420525,0.94207054376602
0.68103623390198,-0.19427050817886,-0.0052960192860537,0.78447732370596,0.19330225884914,0.22606003284454
