ax,roll,yaw,pitch,ay,az
-0.0055868034251034,-0.10187166207897,0.051012199189187,0.92747684062077,-0.067429460585117,-0.050700940191746
0.41450932621956,-0.089216055975001,0.032998204085074,0.96241526223229,0.061739567667246,0.0080788927152753
0.573186814785,-0.14641717762845,0.13335218426229,1.0057869081966,0.33896833658218,0.20660519599915
0.27206408977509,-0.3844011823472,0.43477869264843,0.98896573800193,0.71117520332336,0.38673830032349
-0.068976700305939,-0.49677919809443,0.69581007085292,0.85274635462167,0.81026482582092,0.51190716028214
-0.2693498134613,-0.41834414121479,0.78138018705958,0.61316019699146,0.74563610553741,0.36824709177017
-0.51465725898743,-0.27059497550199,0.7185169766726,0.24559448343646,0.7857660651207,-0.55961155891418
-1.0037285089493,-0.17211803117642,0.57484198602805,-0.17511786650271,0.43777531385422,-1.1878180503845
-0.55916279554367,-0.2097715278058,0.2457416990505,-0.42963649941438,0.12035539001226,-1.79727435112
0.032097280025482,-0.29130339014312,-0.069272899100342,-0.32569066935211,0.15304400026798,-1.355348110199
0.48006144165993,-0.33781593795645,-0.25743259933211,-0.010111148606781,0.46455943584442,-0.9224579334259
0.7533882856369,-0.30803208938479,-0.32871433610822,0.36478609629832,0.70030111074448,-0.41871547698975
0.5352138876915,-0.28767594089579,-0.25242774389864,0.69839755371701,0.768006503582,0.14194759726524
0.31206348538399,-0.38071377983078,-0.011412367878546,0.93695431703694,0.81794983148575,0.49313825368881
-0.11549058556557,-0.5268835102378,0.2948161730357,1.0122509735199,0.56436604261398,0.60090225934982
-0.47456511855125,-0.61512278434051,0.50869620142081,0.96014690805857,0.21186919510365,0.23991867899895
-0.43049159646034,-0.61298807852897,0.56785154442496,0.9334134790762,-0.032586738467216,0.01801223307848
-0.14500005543232,-0.55434164522172,0.54137357228517,0.931526942006,-0.013172460719943,-0.14251497387886
